[gd_scene load_steps=4 format=2]

[ext_resource path="res://scripts/HighlightInteractible.gd" type="Script" id=1]
[ext_resource path="res://meshes/programming_books.tres" type="ArrayMesh" id=2]

[sub_resource type="BoxShape" id=1]
margin = 0.001

[node name="Spatial" type="Spatial"]

[node name="StaticBody" type="StaticBody" parent="."]
collision_layer = 2
collision_mask = 2
script = ExtResource( 1 )

[node name="CollisionShape" type="CollisionShape" parent="StaticBody"]
transform = Transform( 8.55568, 0, 0, 0, 5.15306, 0, 0, 0, 3.80573, -0.151319, 3.53822, 0 )
shape = SubResource( 1 )

[node name="Mesh" type="MeshInstance" parent="StaticBody"]
transform = Transform( 1, 0, 0, 0, 4.37, 0, 0, 0, 2.9, 7, 4, 0 )
mesh = ExtResource( 2 )
material/0 = null
