<?xml version="1.0" encoding="utf-8"?>
<COLLADA xmlns="http://www.collada.org/2005/11/COLLADASchema" version="1.4.1" xmlns:xsi="http://www.w3.org/2001/XMLSchema-instance">
  <asset>
    <contributor>
      <author>Blender User</author>
      <authoring_tool>Blender 2.80.57 commit date:2019-04-15, commit time:23:42, hash:5ac7675f4c9c</authoring_tool>
    </contributor>
    <created>2019-04-18T19:10:23</created>
    <modified>2019-04-18T19:10:23</modified>
    <unit name="meter" meter="1"/>
    <up_axis>Z_UP</up_axis>
  </asset>
  <library_effects>
    <effect id="Material-effect">
      <profile_COMMON>
        <technique sid="common">
          <lambert>
            <diffuse>
              <color sid="diffuse">0.8 0.8 0.8 1</color>
            </diffuse>
            <reflectivity>
              <float sid="specular">0.5</float>
            </reflectivity>
          </lambert>
        </technique>
      </profile_COMMON>
    </effect>
  </library_effects>
  <library_images/>
  <library_materials>
    <material id="Material-material" name="Material">
      <instance_effect url="#Material-effect"/>
    </material>
  </library_materials>
  <library_geometries>
    <geometry id="Icosphere_001-mesh" name="Icosphere.001">
      <mesh>
        <source id="Icosphere_001-mesh-positions">
          <float_array id="Icosphere_001-mesh-positions-array" count="1038">1.794171 0.569952 -3.936154 2.517778 0.04422664 -0.9635185 1.517783 -0.2806973 -0.9635204 0.8997446 0.569952 -0.9634975 1.517783 1.420601 -0.9635204 2.517778 1.095677 -0.9635185 2.619927 -0.2806973 3.846423 -0.3677198 0.04422664 3.846421 -0.3677198 1.095677 3.846421 2.619927 1.420601 3.846423 4.466415 0.569952 3.8464 1.794171 0.569952 6.819056 1.631715 0.06995666 -3.133032 2.219493 0.2609406 -3.133031 2.057039 -0.2390596 -1.385758 2.644819 0.569952 -1.385749 2.219493 0.8789634 -3.133031 1.268441 0.569952 -3.133017 1.105981 0.06995499 -1.385751 1.631715 1.069947 -3.133032 1.105981 1.069949 -1.385751 2.057039 1.378964 -1.385758 3.815671 0.2609393 1.441451 3.815671 0.8789646 1.441451 1.794171 -0.430048 1.441451 3.043526 -0.2390647 1.441451 -0.2273288 0.2609393 1.441451 0.5448165 -0.2390647 1.441451 0.5448165 1.378969 1.441451 -0.2273288 0.8789646 1.441451 3.043526 1.378969 1.441451 1.794171 1.569952 1.441451 3.85025 0.06995499 4.268653 1.008811 -0.2390596 4.268661 -0.7472741 0.569952 4.268651 1.008811 1.378964 4.268661 3.85025 1.069949 4.268653 2.279536 0.06995666 6.015935 3.364876 0.569952 6.01592 0.5234537 0.2609406 6.015934 0.5234537 0.8789634 6.015934 2.279536 1.069947 6.015935 1.671334 2.879657 -14.75294 4.891307 0.2329587 -12.06115 0.6025529 -0.780457 -11.77009 -1.033868 2.839497 -10.93526 1.458956 4.582167 -11.14683 4.250701 3.688156 -11.79703 3.12204 -1.027179 -7.711696 0.3293471 0.06828427 -7.199132 0.586517 2.960611 -6.69899 3.542681 3.65914 -6.899612 5.109738 1.194545 -7.525525 2.761726 0.6024425 -4.970541 0.5911038 0.630594 -14.48193 3.893685 1.410979 -14.70606 2.804471 -0.6640651 -12.58551 5.54701 2.401398 -12.32859 4.087358 3.111528 -14.07964 -0.4048381 3.242474 -13.58935 -1.052711 0.8419502 -11.88069 1.477079 3.961222 -13.35912 0.1446158 3.768683 -11.55782 2.95611 4.433006 -11.74863 5.516377 0.6529195 -9.540759 5.697205 2.698181 -9.180516 2.02196 -1.411176 -9.53056 4.11144 -0.9174497 -9.672368 -1.061575 1.102356 -8.727112 0.04604458 -0.639683 -9.169507 0.8001468 4.121468 -8.834007 -0.3681905 2.81556 -8.943451 4.180902 3.890479 -9.252182 2.537745 4.532047 -8.951932 4.438559 -0.2100427 -7.305893 1.624886 -0.8780191 -7.109895 0.134552 1.465942 -6.514652 2.024937 3.578912 -6.337562 4.683626 2.540842 -6.823382 3.22323 0.7705753 -5.184851 4.200825 1.203801 -6.17916 1.46078 0.2353341 -5.199156 1.613584 1.937712 -4.904154 3.292552 1.543388 -5.051297 4.298107 0.1312935 -5.500768 6.433876 0.1378524 -3.247991 5.587347 -0.1407196 -2.69 5.002724 0.7194218 -2.535248 5.487926 1.529578 -2.997634 6.372431 1.170144 -3.438117 8.934003 0.7078329 0.8356396 6.329147 1.147631 2.26844 6.267702 2.179922 2.078313 8.834583 2.37813 0.5280055 10.48245 1.468321 -0.2400389 9.648335 2.128329 3.613039 4.586233 -0.2038983 -4.648699 5.083807 -0.0401591 -4.976675 5.841607 -0.2000452 -3.324546 6.303069 0.5704616 -3.76427 5.04769 0.5666021 -5.088428 4.242601 0.3016766 -4.557736 5.000393 0.1417928 -2.90561 4.527796 0.7778704 -4.829521 4.941956 1.123565 -3.086432 5.747053 1.388494 -3.617123 8.740927 0.744697 -1.897203 8.704812 1.351461 -2.008956 7.031659 0.1480333 -0.7630409 8.10184 0.285023 -1.421304 5.241631 0.9081619 0.1212278 5.939157 0.3860499 -0.1738461 5.844602 1.974599 -0.4664242 5.205514 1.514926 0.009474635 8.007285 1.873573 -1.713882 6.914783 2.111589 -1.124687 10.18842 1.080752 0.5157982 7.747162 0.8922533 1.990244 6.179954 1.757523 2.720657 7.652607 2.480793 1.697668 10.12998 2.062524 0.3349761 9.69813 1.468697 2.780583 10.60829 1.915696 2.148314 8.167046 1.727201 3.622756 8.130929 2.333962 3.511003 9.639693 2.450465 2.599761 5.221834 -1.416446 -3.663364 4.139397 -0.1449036 -7.160873 4.516235 -2.707328 -5.273814 3.834702 -1.890307 -7.493929 2.176358 -1.415212 -2.679692 1.006132 -0.1449036 -6.148269 1.793236 -2.707328 -4.393799 1.046582 -1.890307 -6.592868 5.694809 -1.311911 -5.173803 5.238387 -0.4658713 -6.586095 5.173484 -1.950997 -5.822324 4.876246 -1.600738 -6.78432 0.6874035 -1.293869 -3.582709 0.2464313 -0.4659135 -4.947193 0.7466302 -1.944698 -4.391797 0.4351041 -1.592906 -5.324399 2.313085 -3.181134 -6.322524 2.480902 -3.377562 -5.803253 3.133771 -3.377562 -6.014246 2.965954 -3.181134 -6.533517 3.959307 0.527483 -7.121918 1.171188 0.527483 -6.220857 5.21099 -0.9482317 -3.206823 2.446495 -0.9485569 -2.314134 5.554274 -0.48036 -4.701185 5.003129 0.1647481 -6.406574 1.096326 -0.4618096 -3.291955 0.5626671 0.1628308 -4.943236 4.199115 1.550503 -6.634789 1.280727 1.550503 -5.691628 5.517881 -0.01260566 -2.549414 2.600651 -0.01281952 -1.606051 5.867993 0.494585 -4.099189 5.291706 1.17082 -5.886023 1.202368 0.5149875 -2.625881 0.6437755 1.168813 -4.354313 4.021934 2.108086 -5.605206 2.006925 2.108086 -4.953998 4.938781 1.034928 -2.768239 2.923773 1.034928 -2.117031 5.174636 1.379705 -3.855712 4.776316 1.845933 -5.088218 1.952822 1.393112 -2.837244 1.56714 1.844547 -4.030645 3.739393 2.220787 -4.543174 2.825533 2.220787 -4.247834 4.155209 1.734081 -3.256533 3.241348 1.734081 -2.961193 4.250704 1.786817 -3.785225 4.070055 1.998263 -4.3442 2.795147 1.843694 -3.305925 2.62023 2.048432 -3.847164 7.196967 2.059032 -12.64086 6.96165 0.5643336 -11.09516 6.006539 0.2518473 -11.663 5.610528 1.814002 -11.41274 6.32091 3.091948 -10.69025 7.15594 2.319597 -10.49397 5.335584 0.3516846 -8.584216 4.474354 0.8873395 -8.861566 4.583861 1.876653 -8.522722 5.512772 1.952443 -8.03595 5.977374 1.009959 -8.073966 4.390935 0.7649295 -6.845854 6.746851 1.139945 -12.56468 7.308247 1.323618 -12.23091 6.608532 0.2613785 -11.65614 7.284128 1.476769 -10.96901 7.422447 2.355329 -11.87755 6.51408 2.05815 -12.41759 5.814363 0.9959185 -11.84282 6.931632 2.809302 -11.99292 5.999145 2.665281 -11.27106 6.907516 2.962463 -10.73101 6.63166 1.070804 -9.421948 6.696027 1.652306 -9.222781 5.708426 0.6393318 -10.00799 6.254429 0.683877 -9.721873 4.929124 1.508165 -10.14867 5.202205 0.9541804 -10.17101 5.370721 2.476594 -9.649582 4.993491 2.089667 -9.949507 6.422945 2.206291 -9.200441 5.916724 2.521139 -9.363465 5.629075 0.5229128 -8.090903 4.745621 0.4508388 -8.553846 4.303775 1.347192 -8.517704 4.914136 1.973243 -8.032417 5.733223 1.463811 -7.768641 4.696587 0.3788905 -7.369039 5.073822 0.7658111 -7.069123 4.190372 0.693738 -7.53206 4.254739 1.275238 -7.332894 4.800735 1.319785 -7.046779 -3.353503 3.104673 -10.84811 -2.943273 1.449514 -9.517378 -2.264485 1.051209 -10.36173 -1.546616 2.503136 -10.17106 -1.781762 3.79878 -9.208876 -2.644937 3.147591 -8.804883 -0.7202915 0.7500277 -7.629728 0.1026525 1.172232 -8.129802 0.2708027 2.129313 -7.72822 -0.448216 2.298633 -6.979949 -1.060761 1.446189 -6.919085 0.7461262 0.8446527 -6.242034 -3.06826 2.124658 -10.95457 -3.467239 2.358773 -10.45828 -2.827131 1.151775 -10.17239 -3.05075 2.383994 -9.257298 -3.291883 3.356871 -10.03949 -2.646308 2.978072 -10.8425 -2.006197 1.771081 -10.55661 -2.784525 3.739627 -10.27695 -1.722461 3.386056 -9.878989 -2.368037 3.764858 -9.075967 -2.057761 1.735903 -8.001169 -1.958925 2.29846 -7.765125 -1.435013 1.227187 -8.858704 -1.857645 1.326708 -8.418881 -0.5912569 1.976411 -9.188421 -0.9512965 1.47535 -9.152643 -0.6925369 2.948163 -8.534665 -0.492421 2.538968 -8.952377 -1.598885 2.799521 -7.800902 -1.115169 3.047685 -8.094841 -0.8230087 0.9156348 -7.063304 -0.1391718 0.7546066 -7.774949 0.4433729 1.565331 -7.832843 0.1195859 2.227411 -7.156975 -0.6630874 1.825878 -6.681375 0.2390549 0.5620626 -6.665346 0.03893065 0.971253 -6.247641 0.7227657 0.8102259 -6.959279 0.8216014 1.372781 -6.723237 0.3989756 1.472303 -6.283418 3.987532 -4.994643 -16.26169 6.259911 -3.272864 -16.01542 6.193401 -4.028075 -14.2684 3.896462 -3.544291 -14.0522 2.543398 -2.490109 -15.66563 4.004106 -2.322358 -16.87894 5.575881 0.6240043 -14.26323 4.483706 0.3114871 -12.90583 3.416949 0.7944409 -13.30458 3.849816 1.405447 -14.90844 5.184113 1.300098 -15.50093 5.031803 2.766242 -13.31776 5.0961 -5.01825 -15.37134 5.135194 -4.574352 -16.3982 6.431776 -4.006216 -15.22658 5.144942 -3.003617 -16.761 3.809274 -4.015662 -16.90576 3.746001 -4.733892 -15.24426 5.042571 -4.165759 -14.07263 2.950698 -4.114264 -16.1926 2.897162 -3.261769 -14.8939 2.960433 -2.543529 -16.55541 5.060029 -0.8078252 -16.32403 4.433007 -0.523953 -16.55842 5.035871 -1.564374 -14.6538 5.290307 -1.205233 -15.59653 3.60962 -1.686151 -13.50769 4.393906 -1.748068 -13.85594 2.752319 -1.004871 -14.46957 2.982598 -1.402279 -13.74207 3.64872 -0.462036 -16.21017 3.006756 -0.6457307 -15.4123 5.609371 1.242132 -14.88395 5.197681 0.661037 -13.35859 3.928695 0.761213 -12.79511 3.556104 1.40423 -13.97221 4.59482 1.701451 -15.2632 5.519841 2.103908 -13.60071 5.28957 2.501304 -14.32822 4.877882 1.920216 -12.80286 4.250862 2.204087 -13.03724 4.505293 2.563225 -13.97996 -1.225703 -4.761692 -15.25703 -0.5435016 -3.65227 -12.70896 -2.44507 -3.6415 -12.60531 -2.640634 -2.595792 -14.70887 -0.8599173 -1.960311 -16.11258 0.4361674 -2.613248 -14.87655 -0.5873591 0.6623132 -12.38325 -2.041898 1.156067 -13.26279 -1.573542 1.681018 -14.28028 0.1704632 1.51171 -14.0296 0.7799676 0.8820968 -12.85718 -0.6098855 3.066149 -12.37012 -1.947222 -4.696897 -14.03334 -0.8295167 -4.703227 -14.09426 -1.546238 -4.044795 -12.53561 0.1473035 -3.440399 -13.87061 -0.2536858 -4.092509 -15.36833 -2.062176 -4.082248 -15.26977 -2.778904 -3.423814 -13.71114 -1.0155 -3.708726 -16.09485 -1.847179 -2.435641 -15.77265 -0.03867626 -2.445898 -15.87122 0.6478279 -1.289862 -13.49071 0.9231196 -0.9813047 -14.08878 -1.180971 -1.31954 -13.35949 -0.1558666 -1.419059 -13.21214 -2.394186 -0.6592473 -14.56561 -2.035933 -1.029318 -13.87647 -1.3152 -0.2214927 -15.44224 -2.118895 -0.3506897 -15.16368 0.5648664 -0.6112338 -14.77792 -0.2900959 -0.3210123 -15.2949 0.2331846 0.9689548 -12.34889 -1.42547 1.129987 -12.58731 -2.005129 1.72876 -13.70235 -0.7047414 1.937808 -14.15307 0.6786195 1.468215 -13.31659 -0.583755 2.252709 -12.06261 0.2199383 2.381892 -12.34118 -1.438705 2.542928 -12.57959 -1.163415 2.851485 -13.17765 -0.1383216 2.751968 -13.03031</float_array>
          <technique_common>
            <accessor source="#Icosphere_001-mesh-positions-array" count="346" stride="3">
              <param name="X" type="float"/>
              <param name="Y" type="float"/>
              <param name="Z" type="float"/>
            </accessor>
          </technique_common>
        </source>
        <source id="Icosphere_001-mesh-normals">
          <float_array id="Icosphere_001-mesh-normals-array" count="1980">0.273091 -0.8404709 -0.4680067 0.9215903 -0.3527671 -0.1619468 -0.7149517 -0.519438 -0.4680045 -0.7149518 0.519438 -0.4680044 0.2730915 0.8404706 -0.4680066 0.7833731 -0.4931489 -0.3783262 0.02616345 -0.9975453 -0.06495517 -0.9047365 -0.0136283 -0.4257537 -0.5136131 0.8359603 -0.1933184 0.6529241 0.7223481 -0.2278233 0.5311033 -0.8201717 -0.2127153 -0.1509639 -0.9875605 -0.04397892 -0.9054946 0 -0.4243579 -0.1509639 0.9875605 -0.04397892 0.5311034 0.8201717 -0.2127155 0.2090308 -0.9596856 0.1879085 -0.2558832 -0.9458786 0.1995937 -0.6221518 0.7115035 0.3266345 0.01699292 0.9866228 0.162132 0.7248111 0.5824232 0.3680113 0.3238216 0.7029002 0.6333017 0.3916323 0.8501055 0.3520577 0.2090308 0.9596856 0.1879085 -0.09459209 0.8697636 0.4843177 -0.1047794 0.9634385 0.2465921 -0.2558831 0.9458786 0.1995937 -0.5342611 0 0.8453196 -0.8087413 0 0.5881646 -0.6221519 -0.7115033 0.3266345 -0.09459191 -0.8697637 0.4843178 -0.1047794 -0.9634385 0.2465922 0.01699292 -0.9866228 0.162132 0.3238215 -0.7029001 0.6333018 0.3916323 -0.8501055 0.3520577 0.7248113 -0.5824227 0.3680115 0.6033538 0.7951301 -0.06109231 0.5424554 0.8377022 -0.06322342 0.2644687 0.9639309 0.02989542 -0.008759856 0.9978485 0.06497502 -0.1510636 0.9882131 0.02479398 -0.2116634 0.9767251 0.03473937 -0.842288 0.5302377 -0.09694874 -0.9835062 0 -0.1808748 -0.8422881 -0.5302376 -0.09694874 -0.2116634 -0.9767251 0.03473937 -0.1510637 -0.9882131 0.02479392 -0.008759796 -0.9978485 0.0649749 0.2644687 -0.9639309 0.02989536 0.5424554 -0.8377023 -0.06322342 0.603354 -0.7951301 -0.06109231 0.1511033 0.9884724 0.009503066 0.1509006 0.9871457 -0.05265492 0.02616363 0.9975452 -0.06495517 -0.5404369 0.8345849 -0.1067529 -0.5330253 0.8231393 -0.19577 -0.9047365 0.01362824 -0.4257537 -0.5404369 -0.8345849 -0.1067529 -0.5330252 -0.8231393 -0.19577 -0.5136131 -0.8359604 -0.1933183 0.1511033 -0.9884724 0.009503006 0.1509006 -0.9871457 -0.05265486 0.6529241 -0.7223481 -0.2278233 0.9652867 0 -0.2611925 0.9239041 0 -0.3826243 0.7833729 0.4931495 -0.3783261 0.6202951 0.7674681 -0.1619467 0.3002544 0.9240711 -0.2365161 -0.05071115 0.9854957 -0.1619467 -0.5382288 0.8270933 -0.1619466 -0.786062 0.57111 -0.2365161 -0.9529349 0.256298 -0.1619454 -0.952935 -0.256298 -0.1619454 -0.786062 -0.5711101 -0.2365161 -0.5382288 -0.8270932 -0.1619467 0.9215902 0.3527672 -0.1619467 0.971628 0 -0.2365146 0.8837243 0 -0.468008 -0.05071127 -0.9854956 -0.1619468 0.3002544 -0.9240711 -0.2365161 0.6202951 -0.7674681 -0.1619468 -0.04417395 -0.09857755 -0.9941484 0.8363457 -0.3087654 -0.4529789 -0.4693297 0.1200034 -0.8748308 -0.2136565 0.7571538 -0.6173079 0.09179913 0.7928629 -0.6024463 0.9349686 -0.3050496 -0.1810483 -0.04032987 -0.9681507 -0.2470989 -0.9999304 0.01120054 -0.003735363 -0.5302205 0.8476727 0.0178169 0.4963878 0.8663402 -0.05526202 0.7462899 -0.661396 -0.07487863 -0.3680681 -0.9293634 -0.02845615 -0.8718175 0.3902357 0.296058 -0.2196401 0.9668766 0.1300306 0.618803 0.7842347 -0.04537683 0.3165278 -0.7788665 0.5414583 -0.5625947 -0.7344241 0.3796164 -0.7448807 0.2988124 0.5965433 0.2428719 0.6217641 0.7445957 0.8283586 -0.02957558 0.5594171 0.6841468 -0.330139 0.6503472 0.7814127 0.01837086 0.6237441 0.4853699 0.5419657 0.6860681 0.09470766 0.03196662 0.9949918 0.2106361 0.6125779 0.7618274 -0.4360384 0.651504 0.6208164 -0.1274126 -0.1582377 0.979146 -0.7276758 -0.05318832 0.683856 -0.8029839 -0.3486452 0.4833875 0.289327 -0.9494472 -0.1218193 0.2473073 -0.8277953 0.5035815 0.1482984 -0.8086062 0.5693538 -0.2830245 0.9495021 0.1354363 0.7405239 -0.3382557 0.5806957 0.7911877 -0.2942318 0.5361433 0.9136315 0.08144086 0.3983026 0.580787 0.756662 0.3002486 0.6691145 0.6997292 0.2503296 0.08247148 0.9309947 0.3555945 -0.1999329 0.9325097 0.3007535 -0.4447141 0.8048033 0.3930917 -0.88181 0.3104315 0.3550262 -0.8361055 0.3874372 0.3883557 -0.7984006 -0.3509055 0.4893075 -0.5682409 -0.7450042 0.3493868 -0.3357422 -0.9299735 0.1497553 -0.0116049 -0.9769252 0.2132663 0.4743781 -0.8592864 0.1912918 0.7376176 -0.6681051 0.09775459 0.8825541 -0.3779941 0.279676 0.3873312 0.9013601 0.193713 0.3671033 0.9299205 0.02198386 0.09046363 0.9956628 -0.02172732 -0.728838 0.6294858 0.2693382 -0.7458703 0.6594108 0.09410023 -0.5433565 0.8173881 0.1914172 -0.7635719 -0.5649204 0.3127666 -0.8381792 -0.5437331 0.04254275 -0.6920368 -0.7135139 -0.1094676 0.2335777 -0.9702581 0.06356799 0.2146377 -0.9600019 -0.1797973 0.4367632 -0.8579205 -0.270574 0.9653926 -0.1256096 0.2285594 0.9959139 -0.0810281 -0.03987604 0.6797409 0.7264763 -0.1009185 0.4762591 0.8438283 -0.2472471 0.1738072 0.8904962 -0.4204849 -0.01274305 0.9626888 -0.2703108 -0.4539832 0.8568849 -0.2442284 -0.3367292 0.9296224 -0.1497188 -0.628937 0.7768335 -0.03111195 -0.9707485 0.1101344 -0.213349 -0.8418558 -0.1431809 -0.5203633 -0.6433064 -0.6802781 -0.351253 0.6358925 0.7362419 -0.2314922 0.7871025 0.1322872 -0.6024699 0.2268302 0.3137991 -0.9219969 -0.1229385 -0.8805803 -0.4576731 0.1304858 -0.7413002 -0.6583673 0.4450215 -0.7435821 -0.4990406 0.05266916 -0.923097 -0.3809435 0.7377085 -0.4136702 -0.5335383 -0.8212608 -0.5679653 0.05427908 -0.8819703 0.4519805 -0.1335738 -0.04556226 0.7272139 -0.6848972 0.5186432 -0.5860843 -0.6225067 0.04862785 -0.9924866 0.1122756 -0.9940638 -0.0558533 0.09336829 -0.5895611 0.8055983 -0.05855953 0.4095739 0.640484 -0.6496379 0.4017935 -0.866197 -0.2970941 -0.09482836 -0.9716275 0.2166739 -0.994822 -0.04218339 0.09246528 -0.210251 0.9675028 -0.1404736 0.3059346 0.7442559 -0.5937063 0.330478 -0.9157588 0.2284077 -0.06690752 -0.8812361 0.467917 -0.4175773 0.784343 0.4587324 0.03770464 0.9980622 -0.04949963 0.7763736 0.6108344 -0.1553235 0.5542361 0.7945915 0.2478848 0.4644187 0.8841514 -0.05090898 0.2183134 0.9686378 -0.118659 0.1082273 0.9476678 0.3003543 -0.02432191 0.9959065 0.08705687 -0.1774585 0.9760493 0.1258434 -0.04190558 0.1785607 0.9830362 -0.4073963 0.1419095 0.9021585 -0.3344193 -0.6127341 0.7160452 0.2098824 -0.7601615 0.6149016 0.08828157 -0.8958588 0.4354808 0.1530176 -0.9392267 0.3073088 0.6363885 -0.5855932 0.502086 0.5637767 -0.785079 0.2565287 0.8444452 -0.5327789 0.0553075 0.4453583 0.7449027 -0.4967655 0.3891012 0.7887656 -0.4758667 0.1874436 0.9412244 -0.2810012 -0.03357231 0.9920845 -0.1210021 -0.1761642 0.9809173 -0.08226472 -0.2229956 0.9739354 -0.04150587 -0.8082299 0.53663 0.242472 -0.9412207 0.006176412 0.337736 -0.7462591 -0.5045203 0.4342311 -0.1088394 -0.9439188 0.3117233 -0.06066524 -0.9594943 0.2751191 0.08305287 -0.9672468 0.2398662 0.3001048 -0.951508 0.0676006 0.4870082 -0.8561096 -0.1729143 0.5382907 -0.8163788 -0.2092103 0.07774567 0.9661155 -0.2461231 0.04672688 0.9532799 -0.2984532 -0.06796216 0.9662491 -0.2484833 -0.5696344 0.8214062 0.02843499 -0.6068329 0.7933406 -0.04862737 -0.9956566 -0.02909505 0.08843952 -0.4720915 -0.8173485 0.3302593 -0.5106277 -0.8229396 0.2490579 -0.4918569 -0.835857 0.2437623 0.1932747 -0.9748052 0.1113544 0.162101 -0.985036 0.05854409 0.4939992 -0.7778869 -0.3884029 0.7055433 -0.08752816 -0.7032406 0.609319 -0.1084011 -0.7854805 0.4610058 0.3822417 -0.8008528 0.411467 0.6983335 -0.5856836 0.0882191 0.8511764 -0.5174132 -0.1820433 0.9395179 -0.2901145 -0.594743 0.8037125 -0.01808339 -0.8313825 0.5485688 0.08874338 -0.9203217 0.2600873 0.292169 -0.8903666 -0.2431699 0.3848582 -0.7646335 -0.5728377 0.2952839 -0.498075 -0.8203307 0.2810322 0.6964778 0.279008 -0.6611151 0.7233076 -0.08320033 -0.6854954 0.5320686 -0.1226283 -0.837774 -0.06686216 -0.995558 0.0662862 0.1962209 -0.963289 -0.1832259 0.5011657 -0.8086335 -0.3081313 0.182208 -0.8046289 0.5651308 0.5657587 -0.7022743 -0.4321204 -0.8487681 0.03450691 -0.5276383 -0.2993459 0.2290038 -0.9262555 0.5045568 -0.7493971 -0.42875 -0.90693 0.1815927 -0.3801344 0.9046403 -0.2255104 -0.3616229 0.9728325 -0.1496811 0.1766144 0.5499251 0.06292134 -0.8328405 0.7435837 -0.6415389 0.1884443 -0.9452012 -0.2343302 0.2273414 -0.5026625 -0.6911996 0.5192048 -0.8132208 0.4063995 0.4165471 -0.5907829 -0.8009788 -0.09699851 -0.1041485 -0.9409036 -0.3222633 -0.7247667 -0.6884956 -0.02621227 -0.2749417 -0.4479352 -0.8507416 0.1569107 -0.8600275 0.4855222 -0.6281648 -0.3906555 0.6729021 -0.2722558 0.4649586 -0.8424313 0.9367573 -0.09312152 -0.3373638 -0.3074038 -0.02722591 -0.9511896 0.954924 0.251245 -0.1581019 0.2258358 -0.6783967 0.6991254 0.5138361 0.4067196 -0.7553488 -0.5206092 -0.04212743 0.8527551 0.7845236 0.6198053 -0.01908361 0.5083732 0.7908307 -0.3407983 -0.5799016 0.8134967 -0.04401803 -0.9570614 -0.085069 0.2771223 0.9261235 -0.3665036 0.08927738 0.2434546 -0.6104493 0.7537119 -0.8959683 0.2759531 -0.3479809 0.6026595 0.2235024 -0.7660602 -0.3238715 0.9179847 0.2289357 0.2164486 0.710343 0.6697484 0.4873571 0.7963601 0.3581808 -0.1587315 0.8564866 -0.4911571 -0.3820393 0.5117211 0.7695373 -0.6252337 0.6413635 0.444675 0.7892175 0.5082902 0.3446404 0.2884826 0.3463672 0.8926408 0.1041486 0.9409037 0.322263 0.4766154 0.8621053 0.1720823 -0.05759704 0.9274632 0.3694518 0.4388722 0.8661056 0.2392747 0.4077148 0.8898369 0.2048392 -0.03724485 0.9926387 -0.1152451 -0.1766341 0.848712 0.4984861 -0.2417617 0.8791391 0.4106897 0.5601633 -0.3370518 -0.7567123 0.9385944 -0.3399071 0.05919194 -0.3100096 0.07326298 -0.9479065 -0.2540148 0.5791467 -0.7746391 0.6648635 0.6088456 -0.4327395 0.8913443 -0.3541502 0.2829895 0.01278567 -0.9730766 0.2301273 -0.8826305 0.02680087 -0.4693028 -0.6606464 0.7309665 -0.1709809 0.7530064 0.4632831 0.4672795 0.5281364 -0.7782398 0.3397275 -0.5477944 -0.8310971 0.09591019 -0.8776751 0.2393593 -0.4152031 -0.242473 0.915817 0.3201343 0.7933707 0.3716419 0.4821258 0.2744348 -0.9472535 0.1655183 -0.73421 -0.6316868 -0.2488122 -0.8839396 0.4675294 -0.008190274 0.03216099 0.8313271 0.5548523 0.7480803 -0.04306083 0.6622097 0.3086004 0.1140387 0.9443311 0.5686032 0.2486716 0.7841256 0.4430207 0.5757911 0.6871662 -0.4183647 0.566179 0.7102199 -0.3256572 0.8048577 0.4961366 -0.5777776 0.7815625 0.2352305 -0.9600828 0.01053476 0.2795177 -0.9920383 0.1213473 -0.03368824 -0.9558441 -0.1820681 -0.2306801 -0.5679296 -0.7850045 0.2474346 -0.5096371 -0.8572743 -0.07315015 -0.168713 -0.9834059 -0.06670022 0.2161671 -0.7210368 0.6583143 0.4548955 -0.7785883 0.4322851 0.6958395 -0.5150197 0.5005618 0.8275025 0.07042223 0.5570281 0.7588062 0.3519486 0.5480378 0.5779623 0.5766453 0.5774425 0.0341624 0.9148634 0.4023159 -0.2024543 0.949812 0.2384731 -0.4647666 0.8741564 0.1408645 -0.8699945 0.458511 -0.181321 -0.9187732 0.2150871 -0.3310489 -0.928812 -0.07286041 -0.3633177 -0.635464 -0.667961 -0.3873161 -0.4002224 -0.8368644 -0.3734702 -0.1728872 -0.9556673 -0.2383489 0.4136468 -0.9078184 0.06900769 0.636581 -0.7522767 0.169837 0.7583574 -0.5542505 0.343075 0.3586308 0.813589 0.4576645 0.3352646 0.7981929 0.5004856 0.2225393 0.8691219 0.4417055 -0.6791562 0.7289193 -0.08615982 -0.6412714 0.7501825 -0.1612368 -0.7979921 0.433905 -0.4182524 -0.801496 -0.3763511 -0.4647192 -0.8540011 -0.407951 -0.3228905 -0.8900789 -0.3105237 -0.3336687 0.160677 -0.9747827 -0.1548602 -0.02932816 -0.9776514 0.2081771 0.3552699 -0.8975608 0.2610902 0.8776748 -0.23936 0.4152035 0.9187732 -0.2150863 0.3310493 0.9458634 -0.0378248 0.3223537 0.8925906 0.4122466 0.1825785 0.6865253 0.7232623 -0.07466381 0.2065838 0.9717653 -0.1139968 -0.4184905 0.8269082 -0.3756178 -0.5374463 0.6211926 -0.5703257 -0.7229211 0.421182 -0.5477144 -0.7530183 0.149275 -0.6408435 -0.6092509 -0.02749145 -0.7925009 -0.5462635 -0.3274067 -0.7709741 0.980877 0.04208278 0.1900249 0.9920385 -0.1213462 0.033688 0.9600825 -0.01053577 -0.2795184 0.01930397 -0.7201971 -0.693501 0.5348921 -0.6466173 -0.5438534 0.7801759 -0.6033358 -0.165262 0.8058772 0.1730465 0.5662305 0.9250322 0.1968224 -0.3249254 -0.02866899 -0.1162011 0.9928119 -0.1146588 -0.6056026 0.7874637 0.6451074 -0.7420336 0.1822705 0.8179671 0.2396301 -0.5229793 0.1148505 0.9773395 -0.1778115 -0.6984621 0.06303918 0.7128652 -0.6992688 -0.6346503 0.3290019 0.4916113 -0.5254876 -0.6943927 0.5337758 0.7176436 -0.4472931 -0.3982223 0.9102787 0.113189 -0.7466208 -0.1415653 0.6500127 -0.4809994 -0.8328917 -0.2737356 0.5412515 -0.4400792 -0.7165035 0.3752778 0.9057853 -0.196773 -0.5080997 0.7093319 0.4885519 -0.9107187 -0.3257673 0.2539038 -0.276185 -0.769051 -0.5764396 0.5186099 -0.007906079 -0.8549745 -0.004289448 -0.0681535 -0.9976657 0.2634128 -0.2557011 -0.9301778 0.1164098 -0.5676378 -0.8150069 -0.6989384 -0.4245283 -0.5755528 -0.5910888 -0.6940861 -0.4109241 -0.7483038 -0.6578732 -0.08511334 -0.9863118 0.1630915 0.02429568 -0.9445959 0.02876234 0.326973 -0.8003085 0.3026682 0.5175889 -0.4692822 0.8826329 -0.02708071 -0.3085821 0.9138945 0.2637689 0.03225845 0.986558 0.1601963 0.1376442 0.7397157 -0.6586917 0.438013 0.738091 -0.5131922 0.598828 0.4486762 -0.6633964 0.6041219 -0.1417911 -0.7841761 0.4929994 -0.4090747 -0.7678604 0.2751204 -0.5996528 -0.7514822 -0.2445034 -0.8662358 -0.4357221 -0.4255288 -0.8803123 -0.2097032 -0.6306971 -0.775292 -0.03381764 -0.8456647 -0.3357266 0.4148963 -0.8055279 -0.1033012 0.5834842 -0.7553484 0.1783335 0.6305918 -0.3685888 0.7165827 0.5921585 -0.1218525 0.8481547 0.5155441 0.07342416 0.9433535 0.3235635 0.5274296 0.8364474 -0.1489083 0.68068 0.6591725 -0.3196347 0.7102955 0.4625313 -0.5306083 0.06229835 -0.8107933 -0.5820078 0.03054732 -0.7879532 -0.614977 -0.07077461 -0.8461889 -0.5281623 -0.7409965 -0.6216321 0.253964 -0.6872293 -0.6555671 0.312966 -0.7047169 -0.3453663 0.619755 -0.553138 0.4476284 0.7026146 -0.6382722 0.5004037 0.5849826 -0.6860733 0.4090424 0.6016542 0.3662622 0.9193133 0.1439274 0.08241623 0.9861477 -0.1439459 0.4148492 0.8537947 -0.314539 0.746621 0.1415649 -0.6500127 0.8055276 0.1033006 -0.5834847 0.8026155 -0.07601934 -0.5916327 0.7146406 -0.5240524 -0.4633119 0.5413601 -0.8233342 -0.1704411 0.05796146 -0.9983184 8.72517e-4 -0.42868 -0.7857055 0.4459826 -0.4480537 -0.5840021 0.6768969 -0.5942169 -0.356796 0.7208349 -0.5480018 -0.09374767 0.8312072 -0.3378013 0.0435478 0.9402095 -0.2324834 0.3310031 0.9145428 0.8601061 -0.1727234 -0.4799836 0.944596 -0.02876174 -0.3269729 0.9863119 -0.1630911 -0.02429556 0.345539 0.6385199 0.6876737 0.7741947 0.5019162 0.3856201 0.8872555 0.4584428 -0.05106657 0.2798802 -0.885057 -0.3719428 0.5118495 -0.1963511 -0.8363351 -0.183481 -0.9618455 0.2029485 -0.6450252 -0.7629833 0.04241514 -0.5014801 -0.5373913 -0.6780328 0.5765119 0.1808648 -0.7968199 0.8675965 0.4429725 0.2259467 -0.1452208 -0.2988166 0.9431965 -0.9423311 -0.1192698 0.3127092 -0.3358751 0.2611682 -0.9049746 0.9004596 0.4321775 -0.04894101 0.6624937 0.4093911 0.6272967 -0.4539785 -0.3143928 0.8337031 -0.9524005 0.2609226 -0.1576475 -0.376582 0.2488486 -0.8923343 0.9979516 0.009466052 0.06326943 0.5915757 -0.1950201 0.7823078 -0.6713864 0.2659865 0.6917309 -0.7526984 0.6148676 -0.2353357 0.1756989 0.6797624 -0.7120765 -0.04073852 0.9639016 -0.2631239 -0.1833069 0.8101364 -0.556846 -0.5151288 0.6944848 -0.5023279 -0.5343784 0.827744 0.171113 -0.7731365 0.6333994 0.03263682 -0.8545479 0.4596825 0.2417435 -0.07675659 0.5285171 0.8454455 -0.2549936 0.2151301 0.9427075 0.1217026 -0.09307026 0.9881935 0.7226511 0.2586473 0.6409968 0.7851291 -0.07207679 0.6151238 0.911675 -0.1386448 0.3868158 0.8151927 0.5763955 0.05682718 0.9444317 0.2995747 -0.1352916 0.7679941 0.4116119 -0.4906738 -0.005791962 0.5033265 -0.8640769 -0.320024 0.4938406 -0.8085209 -0.5268489 0.5234888 -0.6696192 -0.8651325 0.4221147 -0.2708598 -0.9333873 0.3369292 -0.1235601 -0.9504424 0.301211 0.07701367 -0.7055808 -0.001613795 0.7086277 -0.4219406 -0.2023051 0.8837641 -0.03167778 -0.2756016 0.9607499 0.6180061 -0.3513814 0.7032779 0.7646543 -0.3647938 0.5312525 0.8801627 -0.2849473 0.3796299 0.9919562 -0.1123338 -0.05834406 0.9478762 -0.03124552 -0.3171036 0.8191442 0.1661502 -0.5489963 -0.7488152 0.4313755 -0.5031809 -0.7687314 0.3436616 -0.5393969 -0.8641219 0.2749865 -0.4215161 -0.9279326 0.1127187 0.3552969 -0.9632591 -0.1080484 0.2458809 -0.6569361 -0.3749768 0.6540852 0.3439944 -0.4056547 0.8468247 0.4074857 0.02751535 0.912797 0.1724303 -0.04194289 0.9841284 0.9519986 -0.2629013 0.1567853 0.839721 0.3918593 0.3759189 0.9053206 0.3908841 0.1661459 0.4506192 0.3015689 -0.8402373 0.4189606 0.1927785 -0.8873041 0.1790696 0.1310762 -0.9750657 -0.305404 0.05020296 -0.9508986 -0.6174204 -0.1734014 -0.7672836 -0.9038111 -0.09098267 -0.4181481 -0.9467846 -0.2855947 0.1484411 -0.7878623 -0.5292401 0.3149254 -0.6350308 -0.505239 0.5843541 -0.3373619 -0.6447052 0.6859608 -0.1242874 -0.8318451 0.5409127 0.1903289 -0.8170863 0.5441922 0.1049959 0.003672003 -0.9944659 0.2672334 -0.2184418 -0.9385464 0.09600073 -0.5348227 -0.8394931 0.5900108 -0.7970884 0.128598 0.5966442 -0.7446499 -0.2991863 0.7004929 -0.4401237 -0.5617838 -0.002866208 -0.9986848 0.05119079 0.7220936 -0.6147437 0.317287 -0.5960806 -0.7397015 -0.3122975 -0.4084787 -0.5169945 -0.752238 0.3503935 -0.6249928 -0.6975733 0.8471838 -0.2772417 0.4532294 0.05249834 0.2825253 0.9578222 -0.9912412 0.1284239 -0.03079092 -0.4143007 0.2309132 -0.8803602 0.8994503 -0.03636503 -0.4355075 0.3002631 0.1597684 0.9403809 -0.343155 0.453911 0.8223197 -0.9250352 0.1437332 -0.3516403 0.1680862 0.3925995 -0.9042195 0.8793901 -0.03313267 -0.4749478 0.03281968 -0.1975967 0.979734 -0.7388198 -0.01060152 0.6738196 -0.5760397 0.6583164 -0.4845594 0.4015958 0.6331351 -0.6617105 0.9410975 0.2938537 0.1672891 0.6321234 0.7701932 0.08498555 0.8229177 0.5528739 -0.1309089 0.6971333 0.5469906 -0.4634723 0.1394345 0.9290926 -0.3425566 0.1643667 0.7572878 -0.6320592 -0.1039055 0.7010344 -0.7055172 -0.5559327 0.8147926 0.164475 -0.7886396 0.6130791 -0.04671061 -0.924242 0.2680382 0.2719052 -0.4124619 0.3105071 0.8564232 -0.5197836 -0.009535193 0.8542449 -0.3291416 -0.1859029 0.9258002 0.2563282 0.3489895 0.9013891 0.3277884 -0.002086937 0.9447489 0.6810508 0.002385556 0.7322323 0.9906276 0.1196498 -0.06588625 0.9091435 0.2050278 -0.3625213 0.7774587 0.3325949 -0.5337964 0.3447178 0.4731146 -0.8107603 0.1701092 0.4692512 -0.8665254 -0.02802842 0.5182486 -0.8547707 -0.7045263 0.4334421 -0.5619347 -0.9215151 0.255771 -0.2922179 -0.9877834 0.1297098 0.08636713 -0.7292312 -0.1868386 0.6582654 -0.566017 -0.2987164 0.7683706 -0.3855993 -0.3121923 0.8682449 0.09246635 -0.3517944 0.9314993 0.356781 -0.3684524 0.8584581 0.6372936 -0.2512689 0.7285059 0.5693393 0.365365 -0.7364518 0.5643514 0.2776367 -0.7774479 0.4208839 0.2835052 -0.8616737 -0.356149 0.4513527 -0.8181924 -0.3508643 0.2201231 -0.9101868 -0.8045976 0.06746363 -0.5899758 -0.9055011 -0.1170119 0.4078921 -0.7814674 0.2809439 0.557117 -0.8951123 0.3004796 0.3293722 -0.1681532 -0.3946063 0.903333 -0.1070112 0.3008301 0.9476549 0.0885595 0.204292 0.974896 0.925392 -0.1569311 0.344996 0.9205482 -0.2649582 0.2870334 0.9540004 -0.2984433 0.02854901 0.8568666 -0.2496439 -0.4510627 0.5712295 -0.3070611 -0.7611902 0.2636789 -0.033243 -0.9640375 -0.3341612 0.02017658 -0.9423 -0.571781 -0.1704325 -0.8025081 -0.7930909 -0.08082437 -0.603717 -0.9169526 -0.2352213 -0.3222871 -0.8440097 -0.5073984 -0.1737658 -0.8136944 -0.5655639 0.1343098 0.9127253 -0.4026999 -0.06903052 0.78456 -0.6172677 0.05870729 0.5496009 -0.822588 -0.1459042 -0.3938818 -0.7994742 0.4535396 0.0163542 -0.9183374 0.3954607 0.3889611 -0.7708425 0.504491 0.1827384 -0.8042907 0.5654407 0.5723471 -0.6884962 -0.445412 -0.887996 0.09407883 -0.4501248 -0.2993463 0.2290035 -0.9262555 0.501738 -0.7504584 -0.4301992 -0.8155749 0.4127572 -0.4055482 0.8616304 -0.2613918 -0.4350487 0.9544367 -0.008237123 0.2983002 0.4648823 0.006296694 -0.8853502 0.7629362 -0.6460518 0.02335304 -0.9524996 -0.2675417 0.1454856 -0.4214693 -0.6763696 0.6040594 -0.8573732 0.2677637 0.4395612 -0.5856361 -0.8034224 -0.107438 -0.1041486 -0.9409038 -0.3222628 -0.7116451 -0.7022743 -0.0192905 -0.2749416 -0.4479353 -0.8507416 0.1569097 -0.8600274 0.4855228 -0.633913 -0.3975668 0.6633965 -0.2722557 0.4649586 -0.8424313 0.9364444 -0.09368205 -0.3380765 -0.3074048 -0.02722567 -0.9511893 0.9116235 0.382743 -0.1498344 0.2258495 -0.6774003 0.7000864 0.6008453 0.2056799 -0.7724511 -0.6234676 -0.2255228 0.7486172 0.7842275 0.6202062 -0.01820826 0.5083721 0.7908317 -0.340798 -0.5799016 0.8134965 -0.04401797 -0.9570614 -0.08506917 0.2771222 0.9274279 -0.3603202 0.1002345 0.2438918 -0.6098361 0.7540669 -0.8959681 0.2759537 -0.347981 0.6026597 0.2235028 -0.7660599 -0.2159754 0.9612228 0.1714801 0.2164487 0.7103427 0.6697486 0.4082146 0.8981573 0.1633229 -0.1587314 0.8564867 -0.4911567 -0.3806839 0.4975333 0.7794489 -0.6252336 0.6413634 0.4446751 0.7841781 0.5219782 0.3355647 0.2886545 0.3460562 0.8927059 0.1041485 0.9409037 0.322263 0.4766161 0.862105 0.1720821 -0.05759549 0.9274636 0.369451 0.3348847 0.9421963 -0.01089191 0.4077152 0.8898367 0.2048392 -0.03724461 0.9926386 -0.1152454 -0.1513089 0.7885011 0.5961306 -0.241761 0.8791391 0.4106897</float_array>
          <technique_common>
            <accessor source="#Icosphere_001-mesh-normals-array" count="660" stride="3">
              <param name="X" type="float"/>
              <param name="Y" type="float"/>
              <param name="Z" type="float"/>
            </accessor>
          </technique_common>
        </source>
        <source id="Icosphere_001-mesh-map-0">
          <float_array id="Icosphere_001-mesh-map-0-array" count="3960">0.818181 0 0.7727265 0.07873046 0.8636355 0.07873046 0.727272 0.157461 0.6818175 0.07873046 0.636363 0.157461 0.090909 0 0.0454545 0.07873046 0.1363635 0.07873046 0.272727 0 0.2272725 0.07873046 0.3181815 0.07873046 0.454545 0 0.4090905 0.07873046 0.4999995 0.07873046 0.727272 0.157461 0.636363 0.157461 0.6818175 0.236191 0.90909 0.157461 0.818181 0.157461 0.8636355 0.236191 0.181818 0.157461 0.090909 0.157461 0.1363635 0.236191 0.363636 0.157461 0.272727 0.157461 0.3181815 0.236191 0.545454 0.157461 0.454545 0.157461 0.4999995 0.236191 0.727272 0.157461 0.6818175 0.236191 0.7727265 0.236191 0.90909 0.157461 0.8636355 0.236191 0.954545 0.236191 0.181818 0.157461 0.1363635 0.236191 0.2272725 0.236191 0.363636 0.157461 0.3181815 0.236191 0.4090905 0.236191 0.545454 0.157461 0.4999995 0.236191 0.5909085 0.236191 0.818181 0.314921 0.727272 0.314921 0.7727265 0.3936515 1 0.314921 0.9090905 0.314921 0.954545 0.3936515 0.272727 0.314921 0.181818 0.314921 0.2272725 0.3936515 0.454545 0.314921 0.363636 0.314921 0.4090905 0.3936515 0.636363 0.314921 0.545454 0.314921 0.5909085 0.3936515 0.5909085 0.3936515 0.4999995 0.3936515 0.545454 0.472382 0.5909085 0.3936515 0.545454 0.314921 0.4999995 0.3936515 0.545454 0.314921 0.454545 0.314921 0.4999995 0.3936515 0.4090905 0.3936515 0.3181815 0.3936515 0.363636 0.472382 0.4090905 0.3936515 0.363636 0.314921 0.3181815 0.3936515 0.363636 0.314921 0.272727 0.314921 0.3181815 0.3936515 0.2272725 0.3936515 0.1363635 0.3936515 0.181818 0.472382 0.2272725 0.3936515 0.181818 0.314921 0.1363635 0.3936515 0.181818 0.314921 0.090909 0.314921 0.1363635 0.3936515 0.954545 0.3936515 0.8636355 0.3936515 0.90909 0.472382 0.954545 0.3936515 0.9090905 0.314921 0.8636355 0.3936515 0.9090905 0.314921 0.818181 0.314921 0.8636355 0.3936515 0.7727265 0.3936515 0.6818175 0.3936515 0.727272 0.472382 0.7727265 0.3936515 0.727272 0.314921 0.6818175 0.3936515 0.727272 0.314921 0.636363 0.314921 0.6818175 0.3936515 0.5909085 0.236191 0.545454 0.314921 0.636363 0.314921 0.5909085 0.236191 0.4999995 0.236191 0.545454 0.314921 0.4999995 0.236191 0.454545 0.314921 0.545454 0.314921 0.4090905 0.236191 0.363636 0.314921 0.454545 0.314921 0.4090905 0.236191 0.3181815 0.236191 0.363636 0.314921 0.3181815 0.236191 0.272727 0.314921 0.363636 0.314921 0.2272725 0.236191 0.181818 0.314921 0.272727 0.314921 0.2272725 0.236191 0.1363635 0.236191 0.181818 0.314921 0.1363635 0.236191 0.090909 0.314921 0.181818 0.314921 0.954545 0.236191 0.9090905 0.314921 1 0.314921 0.954545 0.236191 0.8636355 0.236191 0.9090905 0.314921 0.8636355 0.236191 0.818181 0.314921 0.9090905 0.314921 0.7727265 0.236191 0.727272 0.314921 0.818181 0.314921 0.7727265 0.236191 0.6818175 0.236191 0.727272 0.314921 0.6818175 0.236191 0.636363 0.314921 0.727272 0.314921 0.4999995 0.236191 0.4090905 0.236191 0.454545 0.314921 0.4999995 0.236191 0.454545 0.157461 0.4090905 0.236191 0.454545 0.157461 0.363636 0.157461 0.4090905 0.236191 0.3181815 0.236191 0.2272725 0.236191 0.272727 0.314921 0.3181815 0.236191 0.272727 0.157461 0.2272725 0.236191 0.272727 0.157461 0.181818 0.157461 0.2272725 0.236191 0.1363635 0.236191 0.0454545 0.236191 0.090909 0.314921 0.1363635 0.236191 0.090909 0.157461 0.0454545 0.236191 0.090909 0.157461 0 0.157461 0.0454545 0.236191 0.8636355 0.236191 0.7727265 0.236191 0.818181 0.314921 0.8636355 0.236191 0.818181 0.157461 0.7727265 0.236191 0.818181 0.157461 0.727272 0.157461 0.7727265 0.236191 0.6818175 0.236191 0.5909085 0.236191 0.636363 0.314921 0.6818175 0.236191 0.636363 0.157461 0.5909085 0.236191 0.636363 0.157461 0.545454 0.157461 0.5909085 0.236191 0.4999995 0.07873046 0.454545 0.157461 0.545454 0.157461 0.4999995 0.07873046 0.4090905 0.07873046 0.454545 0.157461 0.4090905 0.07873046 0.363636 0.157461 0.454545 0.157461 0.3181815 0.07873046 0.272727 0.157461 0.363636 0.157461 0.3181815 0.07873046 0.2272725 0.07873046 0.272727 0.157461 0.2272725 0.07873046 0.181818 0.157461 0.272727 0.157461 0.1363635 0.07873046 0.090909 0.157461 0.181818 0.157461 0.1363635 0.07873046 0.0454545 0.07873046 0.090909 0.157461 0.0454545 0.07873046 0 0.157461 0.090909 0.157461 0.636363 0.157461 0.5909085 0.07873046 0.545454 0.157461 0.636363 0.157461 0.6818175 0.07873046 0.5909085 0.07873046 0.6818175 0.07873046 0.636363 0 0.5909085 0.07873046 0.8636355 0.07873046 0.818181 0.157461 0.90909 0.157461 0.8636355 0.07873046 0.7727265 0.07873046 0.818181 0.157461 0.7727265 0.07873046 0.727272 0.157461 0.818181 0.157461 0.818181 0 0.7727265 0.07873046 0.8636355 0.07873046 0.727272 0.157461 0.6818175 0.07873046 0.636363 0.157461 0.090909 0 0.0454545 0.07873046 0.1363635 0.07873046 0.272727 0 0.2272725 0.07873046 0.3181815 0.07873046 0.454545 0 0.4090905 0.07873046 0.4999995 0.07873046 0.727272 0.157461 0.636363 0.157461 0.6818175 0.236191 0.90909 0.157461 0.818181 0.157461 0.8636355 0.236191 0.181818 0.157461 0.090909 0.157461 0.1363635 0.236191 0.363636 0.157461 0.272727 0.157461 0.3181815 0.236191 0.545454 0.157461 0.454545 0.157461 0.4999995 0.236191 0.727272 0.157461 0.6818175 0.236191 0.7727265 0.236191 0.90909 0.157461 0.8636355 0.236191 0.954545 0.236191 0.181818 0.157461 0.1363635 0.236191 0.2272725 0.236191 0.363636 0.157461 0.3181815 0.236191 0.4090905 0.236191 0.545454 0.157461 0.4999995 0.236191 0.5909085 0.236191 0.818181 0.314921 0.727272 0.314921 0.7727265 0.3936515 1 0.314921 0.9090905 0.314921 0.954545 0.3936515 0.272727 0.314921 0.181818 0.314921 0.2272725 0.3936515 0.454545 0.314921 0.363636 0.314921 0.4090905 0.3936515 0.636363 0.314921 0.545454 0.314921 0.5909085 0.3936515 0.5909085 0.3936515 0.4999995 0.3936515 0.545454 0.472382 0.5909085 0.3936515 0.545454 0.314921 0.4999995 0.3936515 0.545454 0.314921 0.454545 0.314921 0.4999995 0.3936515 0.4090905 0.3936515 0.3181815 0.3936515 0.363636 0.472382 0.4090905 0.3936515 0.363636 0.314921 0.3181815 0.3936515 0.363636 0.314921 0.272727 0.314921 0.3181815 0.3936515 0.2272725 0.3936515 0.1363635 0.3936515 0.181818 0.472382 0.2272725 0.3936515 0.181818 0.314921 0.1363635 0.3936515 0.181818 0.314921 0.090909 0.314921 0.1363635 0.3936515 0.954545 0.3936515 0.8636355 0.3936515 0.90909 0.472382 0.954545 0.3936515 0.9090905 0.314921 0.8636355 0.3936515 0.9090905 0.314921 0.818181 0.314921 0.8636355 0.3936515 0.7727265 0.3936515 0.6818175 0.3936515 0.727272 0.472382 0.7727265 0.3936515 0.727272 0.314921 0.6818175 0.3936515 0.727272 0.314921 0.636363 0.314921 0.6818175 0.3936515 0.5909085 0.236191 0.545454 0.314921 0.636363 0.314921 0.5909085 0.236191 0.4999995 0.236191 0.545454 0.314921 0.4999995 0.236191 0.454545 0.314921 0.545454 0.314921 0.4090905 0.236191 0.363636 0.314921 0.454545 0.314921 0.4090905 0.236191 0.3181815 0.236191 0.363636 0.314921 0.3181815 0.236191 0.272727 0.314921 0.363636 0.314921 0.2272725 0.236191 0.181818 0.314921 0.272727 0.314921 0.2272725 0.236191 0.1363635 0.236191 0.181818 0.314921 0.1363635 0.236191 0.090909 0.314921 0.181818 0.314921 0.954545 0.236191 0.9090905 0.314921 1 0.314921 0.954545 0.236191 0.8636355 0.236191 0.9090905 0.314921 0.8636355 0.236191 0.818181 0.314921 0.9090905 0.314921 0.7727265 0.236191 0.727272 0.314921 0.818181 0.314921 0.7727265 0.236191 0.6818175 0.236191 0.727272 0.314921 0.6818175 0.236191 0.636363 0.314921 0.727272 0.314921 0.4999995 0.236191 0.4090905 0.236191 0.454545 0.314921 0.4999995 0.236191 0.454545 0.157461 0.4090905 0.236191 0.454545 0.157461 0.363636 0.157461 0.4090905 0.236191 0.3181815 0.236191 0.2272725 0.236191 0.272727 0.314921 0.3181815 0.236191 0.272727 0.157461 0.2272725 0.236191 0.272727 0.157461 0.181818 0.157461 0.2272725 0.236191 0.1363635 0.236191 0.0454545 0.236191 0.090909 0.314921 0.1363635 0.236191 0.090909 0.157461 0.0454545 0.236191 0.090909 0.157461 0 0.157461 0.0454545 0.236191 0.8636355 0.236191 0.7727265 0.236191 0.818181 0.314921 0.8636355 0.236191 0.818181 0.157461 0.7727265 0.236191 0.818181 0.157461 0.727272 0.157461 0.7727265 0.236191 0.6818175 0.236191 0.5909085 0.236191 0.636363 0.314921 0.6818175 0.236191 0.636363 0.157461 0.5909085 0.236191 0.636363 0.157461 0.545454 0.157461 0.5909085 0.236191 0.4999995 0.07873046 0.454545 0.157461 0.545454 0.157461 0.4999995 0.07873046 0.4090905 0.07873046 0.454545 0.157461 0.4090905 0.07873046 0.363636 0.157461 0.454545 0.157461 0.3181815 0.07873046 0.272727 0.157461 0.363636 0.157461 0.3181815 0.07873046 0.2272725 0.07873046 0.272727 0.157461 0.2272725 0.07873046 0.181818 0.157461 0.272727 0.157461 0.1363635 0.07873046 0.090909 0.157461 0.181818 0.157461 0.1363635 0.07873046 0.0454545 0.07873046 0.090909 0.157461 0.0454545 0.07873046 0 0.157461 0.090909 0.157461 0.636363 0.157461 0.5909085 0.07873046 0.545454 0.157461 0.636363 0.157461 0.6818175 0.07873046 0.5909085 0.07873046 0.6818175 0.07873046 0.636363 0 0.5909085 0.07873046 0.8636355 0.07873046 0.818181 0.157461 0.90909 0.157461 0.8636355 0.07873046 0.7727265 0.07873046 0.818181 0.157461 0.7727265 0.07873046 0.727272 0.157461 0.818181 0.157461 0.818181 0 0.7727265 0.07873046 0.8636355 0.07873046 0.727272 0.157461 0.6818175 0.07873046 0.636363 0.157461 0.090909 0 0.0454545 0.07873046 0.1363635 0.07873046 0.272727 0 0.2272725 0.07873046 0.3181815 0.07873046 0.454545 0 0.4090905 0.07873046 0.4999995 0.07873046 0.727272 0.157461 0.636363 0.157461 0.6818175 0.236191 0.90909 0.157461 0.818181 0.157461 0.8636355 0.236191 0.181818 0.157461 0.090909 0.157461 0.1363635 0.236191 0.363636 0.157461 0.272727 0.157461 0.3181815 0.236191 0.545454 0.157461 0.454545 0.157461 0.4999995 0.236191 0.727272 0.157461 0.6818175 0.236191 0.7727265 0.236191 0.90909 0.157461 0.8636355 0.236191 0.954545 0.236191 0.181818 0.157461 0.1363635 0.236191 0.2272725 0.236191 0.363636 0.157461 0.3181815 0.236191 0.4090905 0.236191 0.545454 0.157461 0.4999995 0.236191 0.5909085 0.236191 0.818181 0.314921 0.727272 0.314921 0.7727265 0.3936515 1 0.314921 0.9090905 0.314921 0.954545 0.3936515 0.272727 0.314921 0.181818 0.314921 0.2272725 0.3936515 0.454545 0.314921 0.363636 0.314921 0.4090905 0.3936515 0.636363 0.314921 0.545454 0.314921 0.5909085 0.3936515 0.5909085 0.3936515 0.4999995 0.3936515 0.545454 0.472382 0.5909085 0.3936515 0.545454 0.314921 0.4999995 0.3936515 0.545454 0.314921 0.454545 0.314921 0.4999995 0.3936515 0.4090905 0.3936515 0.3181815 0.3936515 0.363636 0.472382 0.4090905 0.3936515 0.363636 0.314921 0.3181815 0.3936515 0.363636 0.314921 0.272727 0.314921 0.3181815 0.3936515 0.2272725 0.3936515 0.1363635 0.3936515 0.181818 0.472382 0.2272725 0.3936515 0.181818 0.314921 0.1363635 0.3936515 0.181818 0.314921 0.090909 0.314921 0.1363635 0.3936515 0.954545 0.3936515 0.8636355 0.3936515 0.90909 0.472382 0.954545 0.3936515 0.9090905 0.314921 0.8636355 0.3936515 0.9090905 0.314921 0.818181 0.314921 0.8636355 0.3936515 0.7727265 0.3936515 0.6818175 0.3936515 0.727272 0.472382 0.7727265 0.3936515 0.727272 0.314921 0.6818175 0.3936515 0.727272 0.314921 0.636363 0.314921 0.6818175 0.3936515 0.5909085 0.236191 0.545454 0.314921 0.636363 0.314921 0.5909085 0.236191 0.4999995 0.236191 0.545454 0.314921 0.4999995 0.236191 0.454545 0.314921 0.545454 0.314921 0.4090905 0.236191 0.363636 0.314921 0.454545 0.314921 0.4090905 0.236191 0.3181815 0.236191 0.363636 0.314921 0.3181815 0.236191 0.272727 0.314921 0.363636 0.314921 0.2272725 0.236191 0.181818 0.314921 0.272727 0.314921 0.2272725 0.236191 0.1363635 0.236191 0.181818 0.314921 0.1363635 0.236191 0.090909 0.314921 0.181818 0.314921 0.954545 0.236191 0.9090905 0.314921 1 0.314921 0.954545 0.236191 0.8636355 0.236191 0.9090905 0.314921 0.8636355 0.236191 0.818181 0.314921 0.9090905 0.314921 0.7727265 0.236191 0.727272 0.314921 0.818181 0.314921 0.7727265 0.236191 0.6818175 0.236191 0.727272 0.314921 0.6818175 0.236191 0.636363 0.314921 0.727272 0.314921 0.4999995 0.236191 0.4090905 0.236191 0.454545 0.314921 0.4999995 0.236191 0.454545 0.157461 0.4090905 0.236191 0.454545 0.157461 0.363636 0.157461 0.4090905 0.236191 0.3181815 0.236191 0.2272725 0.236191 0.272727 0.314921 0.3181815 0.236191 0.272727 0.157461 0.2272725 0.236191 0.272727 0.157461 0.181818 0.157461 0.2272725 0.236191 0.1363635 0.236191 0.0454545 0.236191 0.090909 0.314921 0.1363635 0.236191 0.090909 0.157461 0.0454545 0.236191 0.090909 0.157461 0 0.157461 0.0454545 0.236191 0.8636355 0.236191 0.7727265 0.236191 0.818181 0.314921 0.8636355 0.236191 0.818181 0.157461 0.7727265 0.236191 0.818181 0.157461 0.727272 0.157461 0.7727265 0.236191 0.6818175 0.236191 0.5909085 0.236191 0.636363 0.314921 0.6818175 0.236191 0.636363 0.157461 0.5909085 0.236191 0.636363 0.157461 0.545454 0.157461 0.5909085 0.236191 0.4999995 0.07873046 0.454545 0.157461 0.545454 0.157461 0.4999995 0.07873046 0.4090905 0.07873046 0.454545 0.157461 0.4090905 0.07873046 0.363636 0.157461 0.454545 0.157461 0.3181815 0.07873046 0.272727 0.157461 0.363636 0.157461 0.3181815 0.07873046 0.2272725 0.07873046 0.272727 0.157461 0.2272725 0.07873046 0.181818 0.157461 0.272727 0.157461 0.1363635 0.07873046 0.090909 0.157461 0.181818 0.157461 0.1363635 0.07873046 0.0454545 0.07873046 0.090909 0.157461 0.0454545 0.07873046 0 0.157461 0.090909 0.157461 0.636363 0.157461 0.5909085 0.07873046 0.545454 0.157461 0.636363 0.157461 0.6818175 0.07873046 0.5909085 0.07873046 0.6818175 0.07873046 0.636363 0 0.5909085 0.07873046 0.8636355 0.07873046 0.818181 0.157461 0.90909 0.157461 0.8636355 0.07873046 0.7727265 0.07873046 0.818181 0.157461 0.7727265 0.07873046 0.727272 0.157461 0.818181 0.157461 0.625 0 0.375 0.25 0.375 0 0.625 0.25 0.375 0.25 0.375 0.25 0.375 0.75 0.375 1 0.375 0.75 0.375 0.75 0.625 1 0.375 1 0.625 0.25 0.375 0.25 0.625 0.25 0.375 0.75 0.375 0.75 0.375 0.75 0.125 0.5 0.375 0.75 0.125 0.75 0.375 0 0.375 0 0.375 0 0.625 0.75 0.625 1 0.625 1 0.375 0.25 0.375 0 0.375 0 0.625 0.5 0.375 0.75 0.375 0.5 0.625 0.25 0.625 0 0.625 0.25 0.375 0.75 0.625 0.75 0.375 0.75 0.625 0.5 0.375 0.5 0.375 0.5 0.375 0.25 0.625 0.5 0.375 0.5 0.625 0.5 0.375 0.5 0.625 0.5 0.625 1 0.375 1 0.375 1 0.625 0.25 0.375 0.25 0.375 0.25 0.625 0 0.625 0 0.625 0 0.625 0.75 0.375 0.75 0.625 0.75 0.375 0.5 0.125 0.5 0.375 0.5 0.375 0.75 0.625 0.75 0.625 0.75 0.125 0.5 0.375 0.5 0.375 0.5 0.625 0 0.375 0 0.625 0 0.625 0.75 0.625 0.75 0.625 0.75 0.625 0 0.625 0 0.625 0 0.375 0.5 0.125 0.5 0.375 0.5 0.625 0.75 0.625 0.75 0.625 0.75 0.375 0.75 0.375 0.75 0.375 0.75 0.625 0.75 0.375 0.75 0.375 0.75 0.375 0 0.375 0 0.375 0 0.375 0 0.625 0 0.625 0 0.375 0.75 0.375 0.75 0.375 0.75 0.625 0.75 0.625 0.75 0.625 0.75 0.375 0.75 0.375 0.75 0.375 0.75 0.625 0 0.375 0 0.625 0 0.375 0 0.375 0 0.375 0 0.375 0.75 0.625 0.75 0.625 0.75 0.625 0 0.625 0 0.625 0 0.625 0.75 0.375 0.75 0.375 0.75 0.375 0 0.375 0 0.375 0 0.625 0 0.375 0 0.625 0 0.875 0.5 0.625 0.75 0.625 0.5 0.625 0.75 0.875 0.75 0.625 0.75 0.625 0.5 0.875 0.5 0.875 0.5 0.625 0.75 0.625 0.75 0.625 0.75 0.375 0.5 0.125 0.5 0.375 0.5 0.375 0.75 0.625 0.75 0.625 0.75 0.625 0 0.625 0 0.625 0 0.625 0.75 0.375 0.75 0.375 0.75 0.818181 0 0.7727265 0.07873046 0.8636355 0.07873046 0.727272 0.157461 0.6818175 0.07873046 0.636363 0.157461 0.090909 0 0.0454545 0.07873046 0.1363635 0.07873046 0.272727 0 0.2272725 0.07873046 0.3181815 0.07873046 0.454545 0 0.4090905 0.07873046 0.4999995 0.07873046 0.727272 0.157461 0.636363 0.157461 0.6818175 0.236191 0.90909 0.157461 0.818181 0.157461 0.8636355 0.236191 0.181818 0.157461 0.090909 0.157461 0.1363635 0.236191 0.363636 0.157461 0.272727 0.157461 0.3181815 0.236191 0.545454 0.157461 0.454545 0.157461 0.4999995 0.236191 0.727272 0.157461 0.6818175 0.236191 0.7727265 0.236191 0.90909 0.157461 0.8636355 0.236191 0.954545 0.236191 0.181818 0.157461 0.1363635 0.236191 0.2272725 0.236191 0.363636 0.157461 0.3181815 0.236191 0.4090905 0.236191 0.545454 0.157461 0.4999995 0.236191 0.5909085 0.236191 0.818181 0.314921 0.727272 0.314921 0.7727265 0.3936515 1 0.314921 0.9090905 0.314921 0.954545 0.3936515 0.272727 0.314921 0.181818 0.314921 0.2272725 0.3936515 0.454545 0.314921 0.363636 0.314921 0.4090905 0.3936515 0.636363 0.314921 0.545454 0.314921 0.5909085 0.3936515 0.5909085 0.3936515 0.4999995 0.3936515 0.545454 0.472382 0.5909085 0.3936515 0.545454 0.314921 0.4999995 0.3936515 0.545454 0.314921 0.454545 0.314921 0.4999995 0.3936515 0.4090905 0.3936515 0.3181815 0.3936515 0.363636 0.472382 0.4090905 0.3936515 0.363636 0.314921 0.3181815 0.3936515 0.363636 0.314921 0.272727 0.314921 0.3181815 0.3936515 0.2272725 0.3936515 0.1363635 0.3936515 0.181818 0.472382 0.2272725 0.3936515 0.181818 0.314921 0.1363635 0.3936515 0.181818 0.314921 0.090909 0.314921 0.1363635 0.3936515 0.954545 0.3936515 0.8636355 0.3936515 0.90909 0.472382 0.954545 0.3936515 0.9090905 0.314921 0.8636355 0.3936515 0.9090905 0.314921 0.818181 0.314921 0.8636355 0.3936515 0.7727265 0.3936515 0.6818175 0.3936515 0.727272 0.472382 0.7727265 0.3936515 0.727272 0.314921 0.6818175 0.3936515 0.727272 0.314921 0.636363 0.314921 0.6818175 0.3936515 0.5909085 0.236191 0.545454 0.314921 0.636363 0.314921 0.5909085 0.236191 0.4999995 0.236191 0.545454 0.314921 0.4999995 0.236191 0.454545 0.314921 0.545454 0.314921 0.4090905 0.236191 0.363636 0.314921 0.454545 0.314921 0.4090905 0.236191 0.3181815 0.236191 0.363636 0.314921 0.3181815 0.236191 0.272727 0.314921 0.363636 0.314921 0.2272725 0.236191 0.181818 0.314921 0.272727 0.314921 0.2272725 0.236191 0.1363635 0.236191 0.181818 0.314921 0.1363635 0.236191 0.090909 0.314921 0.181818 0.314921 0.954545 0.236191 0.9090905 0.314921 1 0.314921 0.954545 0.236191 0.8636355 0.236191 0.9090905 0.314921 0.8636355 0.236191 0.818181 0.314921 0.9090905 0.314921 0.7727265 0.236191 0.727272 0.314921 0.818181 0.314921 0.7727265 0.236191 0.6818175 0.236191 0.727272 0.314921 0.6818175 0.236191 0.636363 0.314921 0.727272 0.314921 0.4999995 0.236191 0.4090905 0.236191 0.454545 0.314921 0.4999995 0.236191 0.454545 0.157461 0.4090905 0.236191 0.454545 0.157461 0.363636 0.157461 0.4090905 0.236191 0.3181815 0.236191 0.2272725 0.236191 0.272727 0.314921 0.3181815 0.236191 0.272727 0.157461 0.2272725 0.236191 0.272727 0.157461 0.181818 0.157461 0.2272725 0.236191 0.1363635 0.236191 0.0454545 0.236191 0.090909 0.314921 0.1363635 0.236191 0.090909 0.157461 0.0454545 0.236191 0.090909 0.157461 0 0.157461 0.0454545 0.236191 0.8636355 0.236191 0.7727265 0.236191 0.818181 0.314921 0.8636355 0.236191 0.818181 0.157461 0.7727265 0.236191 0.818181 0.157461 0.727272 0.157461 0.7727265 0.236191 0.6818175 0.236191 0.5909085 0.236191 0.636363 0.314921 0.6818175 0.236191 0.636363 0.157461 0.5909085 0.236191 0.636363 0.157461 0.545454 0.157461 0.5909085 0.236191 0.4999995 0.07873046 0.454545 0.157461 0.545454 0.157461 0.4999995 0.07873046 0.4090905 0.07873046 0.454545 0.157461 0.4090905 0.07873046 0.363636 0.157461 0.454545 0.157461 0.3181815 0.07873046 0.272727 0.157461 0.363636 0.157461 0.3181815 0.07873046 0.2272725 0.07873046 0.272727 0.157461 0.2272725 0.07873046 0.181818 0.157461 0.272727 0.157461 0.1363635 0.07873046 0.090909 0.157461 0.181818 0.157461 0.1363635 0.07873046 0.0454545 0.07873046 0.090909 0.157461 0.0454545 0.07873046 0 0.157461 0.090909 0.157461 0.636363 0.157461 0.5909085 0.07873046 0.545454 0.157461 0.636363 0.157461 0.6818175 0.07873046 0.5909085 0.07873046 0.6818175 0.07873046 0.636363 0 0.5909085 0.07873046 0.8636355 0.07873046 0.818181 0.157461 0.90909 0.157461 0.8636355 0.07873046 0.7727265 0.07873046 0.818181 0.157461 0.7727265 0.07873046 0.727272 0.157461 0.818181 0.157461 0.818181 0 0.7727265 0.07873046 0.8636355 0.07873046 0.727272 0.157461 0.6818175 0.07873046 0.636363 0.157461 0.090909 0 0.0454545 0.07873046 0.1363635 0.07873046 0.272727 0 0.2272725 0.07873046 0.3181815 0.07873046 0.454545 0 0.4090905 0.07873046 0.4999995 0.07873046 0.727272 0.157461 0.636363 0.157461 0.6818175 0.236191 0.90909 0.157461 0.818181 0.157461 0.8636355 0.236191 0.181818 0.157461 0.090909 0.157461 0.1363635 0.236191 0.363636 0.157461 0.272727 0.157461 0.3181815 0.236191 0.545454 0.157461 0.454545 0.157461 0.4999995 0.236191 0.727272 0.157461 0.6818175 0.236191 0.7727265 0.236191 0.90909 0.157461 0.8636355 0.236191 0.954545 0.236191 0.181818 0.157461 0.1363635 0.236191 0.2272725 0.236191 0.363636 0.157461 0.3181815 0.236191 0.4090905 0.236191 0.545454 0.157461 0.4999995 0.236191 0.5909085 0.236191 0.818181 0.314921 0.727272 0.314921 0.7727265 0.3936515 1 0.314921 0.9090905 0.314921 0.954545 0.3936515 0.272727 0.314921 0.181818 0.314921 0.2272725 0.3936515 0.454545 0.314921 0.363636 0.314921 0.4090905 0.3936515 0.636363 0.314921 0.545454 0.314921 0.5909085 0.3936515 0.5909085 0.3936515 0.4999995 0.3936515 0.545454 0.472382 0.5909085 0.3936515 0.545454 0.314921 0.4999995 0.3936515 0.545454 0.314921 0.454545 0.314921 0.4999995 0.3936515 0.4090905 0.3936515 0.3181815 0.3936515 0.363636 0.472382 0.4090905 0.3936515 0.363636 0.314921 0.3181815 0.3936515 0.363636 0.314921 0.272727 0.314921 0.3181815 0.3936515 0.2272725 0.3936515 0.1363635 0.3936515 0.181818 0.472382 0.2272725 0.3936515 0.181818 0.314921 0.1363635 0.3936515 0.181818 0.314921 0.090909 0.314921 0.1363635 0.3936515 0.954545 0.3936515 0.8636355 0.3936515 0.90909 0.472382 0.954545 0.3936515 0.9090905 0.314921 0.8636355 0.3936515 0.9090905 0.314921 0.818181 0.314921 0.8636355 0.3936515 0.7727265 0.3936515 0.6818175 0.3936515 0.727272 0.472382 0.7727265 0.3936515 0.727272 0.314921 0.6818175 0.3936515 0.727272 0.314921 0.636363 0.314921 0.6818175 0.3936515 0.5909085 0.236191 0.545454 0.314921 0.636363 0.314921 0.5909085 0.236191 0.4999995 0.236191 0.545454 0.314921 0.4999995 0.236191 0.454545 0.314921 0.545454 0.314921 0.4090905 0.236191 0.363636 0.314921 0.454545 0.314921 0.4090905 0.236191 0.3181815 0.236191 0.363636 0.314921 0.3181815 0.236191 0.272727 0.314921 0.363636 0.314921 0.2272725 0.236191 0.181818 0.314921 0.272727 0.314921 0.2272725 0.236191 0.1363635 0.236191 0.181818 0.314921 0.1363635 0.236191 0.090909 0.314921 0.181818 0.314921 0.954545 0.236191 0.9090905 0.314921 1 0.314921 0.954545 0.236191 0.8636355 0.236191 0.9090905 0.314921 0.8636355 0.236191 0.818181 0.314921 0.9090905 0.314921 0.7727265 0.236191 0.727272 0.314921 0.818181 0.314921 0.7727265 0.236191 0.6818175 0.236191 0.727272 0.314921 0.6818175 0.236191 0.636363 0.314921 0.727272 0.314921 0.4999995 0.236191 0.4090905 0.236191 0.454545 0.314921 0.4999995 0.236191 0.454545 0.157461 0.4090905 0.236191 0.454545 0.157461 0.363636 0.157461 0.4090905 0.236191 0.3181815 0.236191 0.2272725 0.236191 0.272727 0.314921 0.3181815 0.236191 0.272727 0.157461 0.2272725 0.236191 0.272727 0.157461 0.181818 0.157461 0.2272725 0.236191 0.1363635 0.236191 0.0454545 0.236191 0.090909 0.314921 0.1363635 0.236191 0.090909 0.157461 0.0454545 0.236191 0.090909 0.157461 0 0.157461 0.0454545 0.236191 0.8636355 0.236191 0.7727265 0.236191 0.818181 0.314921 0.8636355 0.236191 0.818181 0.157461 0.7727265 0.236191 0.818181 0.157461 0.727272 0.157461 0.7727265 0.236191 0.6818175 0.236191 0.5909085 0.236191 0.636363 0.314921 0.6818175 0.236191 0.636363 0.157461 0.5909085 0.236191 0.636363 0.157461 0.545454 0.157461 0.5909085 0.236191 0.4999995 0.07873046 0.454545 0.157461 0.545454 0.157461 0.4999995 0.07873046 0.4090905 0.07873046 0.454545 0.157461 0.4090905 0.07873046 0.363636 0.157461 0.454545 0.157461 0.3181815 0.07873046 0.272727 0.157461 0.363636 0.157461 0.3181815 0.07873046 0.2272725 0.07873046 0.272727 0.157461 0.2272725 0.07873046 0.181818 0.157461 0.272727 0.157461 0.1363635 0.07873046 0.090909 0.157461 0.181818 0.157461 0.1363635 0.07873046 0.0454545 0.07873046 0.090909 0.157461 0.0454545 0.07873046 0 0.157461 0.090909 0.157461 0.636363 0.157461 0.5909085 0.07873046 0.545454 0.157461 0.636363 0.157461 0.6818175 0.07873046 0.5909085 0.07873046 0.6818175 0.07873046 0.636363 0 0.5909085 0.07873046 0.8636355 0.07873046 0.818181 0.157461 0.90909 0.157461 0.8636355 0.07873046 0.7727265 0.07873046 0.818181 0.157461 0.7727265 0.07873046 0.727272 0.157461 0.818181 0.157461 0.818181 0 0.7727265 0.07873046 0.8636355 0.07873046 0.727272 0.157461 0.6818175 0.07873046 0.636363 0.157461 0.090909 0 0.0454545 0.07873046 0.1363635 0.07873046 0.272727 0 0.2272725 0.07873046 0.3181815 0.07873046 0.454545 0 0.4090905 0.07873046 0.4999995 0.07873046 0.727272 0.157461 0.636363 0.157461 0.6818175 0.236191 0.90909 0.157461 0.818181 0.157461 0.8636355 0.236191 0.181818 0.157461 0.090909 0.157461 0.1363635 0.236191 0.363636 0.157461 0.272727 0.157461 0.3181815 0.236191 0.545454 0.157461 0.454545 0.157461 0.4999995 0.236191 0.727272 0.157461 0.6818175 0.236191 0.7727265 0.236191 0.90909 0.157461 0.8636355 0.236191 0.954545 0.236191 0.181818 0.157461 0.1363635 0.236191 0.2272725 0.236191 0.363636 0.157461 0.3181815 0.236191 0.4090905 0.236191 0.545454 0.157461 0.4999995 0.236191 0.5909085 0.236191 0.818181 0.314921 0.727272 0.314921 0.7727265 0.3936515 1 0.314921 0.9090905 0.314921 0.954545 0.3936515 0.272727 0.314921 0.181818 0.314921 0.2272725 0.3936515 0.454545 0.314921 0.363636 0.314921 0.4090905 0.3936515 0.636363 0.314921 0.545454 0.314921 0.5909085 0.3936515 0.5909085 0.3936515 0.4999995 0.3936515 0.545454 0.472382 0.5909085 0.3936515 0.545454 0.314921 0.4999995 0.3936515 0.545454 0.314921 0.454545 0.314921 0.4999995 0.3936515 0.4090905 0.3936515 0.3181815 0.3936515 0.363636 0.472382 0.4090905 0.3936515 0.363636 0.314921 0.3181815 0.3936515 0.363636 0.314921 0.272727 0.314921 0.3181815 0.3936515 0.2272725 0.3936515 0.1363635 0.3936515 0.181818 0.472382 0.2272725 0.3936515 0.181818 0.314921 0.1363635 0.3936515 0.181818 0.314921 0.090909 0.314921 0.1363635 0.3936515 0.954545 0.3936515 0.8636355 0.3936515 0.90909 0.472382 0.954545 0.3936515 0.9090905 0.314921 0.8636355 0.3936515 0.9090905 0.314921 0.818181 0.314921 0.8636355 0.3936515 0.7727265 0.3936515 0.6818175 0.3936515 0.727272 0.472382 0.7727265 0.3936515 0.727272 0.314921 0.6818175 0.3936515 0.727272 0.314921 0.636363 0.314921 0.6818175 0.3936515 0.5909085 0.236191 0.545454 0.314921 0.636363 0.314921 0.5909085 0.236191 0.4999995 0.236191 0.545454 0.314921 0.4999995 0.236191 0.454545 0.314921 0.545454 0.314921 0.4090905 0.236191 0.363636 0.314921 0.454545 0.314921 0.4090905 0.236191 0.3181815 0.236191 0.363636 0.314921 0.3181815 0.236191 0.272727 0.314921 0.363636 0.314921 0.2272725 0.236191 0.181818 0.314921 0.272727 0.314921 0.2272725 0.236191 0.1363635 0.236191 0.181818 0.314921 0.1363635 0.236191 0.090909 0.314921 0.181818 0.314921 0.954545 0.236191 0.9090905 0.314921 1 0.314921 0.954545 0.236191 0.8636355 0.236191 0.9090905 0.314921 0.8636355 0.236191 0.818181 0.314921 0.9090905 0.314921 0.7727265 0.236191 0.727272 0.314921 0.818181 0.314921 0.7727265 0.236191 0.6818175 0.236191 0.727272 0.314921 0.6818175 0.236191 0.636363 0.314921 0.727272 0.314921 0.4999995 0.236191 0.4090905 0.236191 0.454545 0.314921 0.4999995 0.236191 0.454545 0.157461 0.4090905 0.236191 0.454545 0.157461 0.363636 0.157461 0.4090905 0.236191 0.3181815 0.236191 0.2272725 0.236191 0.272727 0.314921 0.3181815 0.236191 0.272727 0.157461 0.2272725 0.236191 0.272727 0.157461 0.181818 0.157461 0.2272725 0.236191 0.1363635 0.236191 0.0454545 0.236191 0.090909 0.314921 0.1363635 0.236191 0.090909 0.157461 0.0454545 0.236191 0.090909 0.157461 0 0.157461 0.0454545 0.236191 0.8636355 0.236191 0.7727265 0.236191 0.818181 0.314921 0.8636355 0.236191 0.818181 0.157461 0.7727265 0.236191 0.818181 0.157461 0.727272 0.157461 0.7727265 0.236191 0.6818175 0.236191 0.5909085 0.236191 0.636363 0.314921 0.6818175 0.236191 0.636363 0.157461 0.5909085 0.236191 0.636363 0.157461 0.545454 0.157461 0.5909085 0.236191 0.4999995 0.07873046 0.454545 0.157461 0.545454 0.157461 0.4999995 0.07873046 0.4090905 0.07873046 0.454545 0.157461 0.4090905 0.07873046 0.363636 0.157461 0.454545 0.157461 0.3181815 0.07873046 0.272727 0.157461 0.363636 0.157461 0.3181815 0.07873046 0.2272725 0.07873046 0.272727 0.157461 0.2272725 0.07873046 0.181818 0.157461 0.272727 0.157461 0.1363635 0.07873046 0.090909 0.157461 0.181818 0.157461 0.1363635 0.07873046 0.0454545 0.07873046 0.090909 0.157461 0.0454545 0.07873046 0 0.157461 0.090909 0.157461 0.636363 0.157461 0.5909085 0.07873046 0.545454 0.157461 0.636363 0.157461 0.6818175 0.07873046 0.5909085 0.07873046 0.6818175 0.07873046 0.636363 0 0.5909085 0.07873046 0.8636355 0.07873046 0.818181 0.157461 0.90909 0.157461 0.8636355 0.07873046 0.7727265 0.07873046 0.818181 0.157461 0.7727265 0.07873046 0.727272 0.157461 0.818181 0.157461 0.818181 0 0.7727265 0.07873046 0.8636355 0.07873046 0.727272 0.157461 0.6818175 0.07873046 0.636363 0.157461 0.090909 0 0.0454545 0.07873046 0.1363635 0.07873046 0.272727 0 0.2272725 0.07873046 0.3181815 0.07873046 0.454545 0 0.4090905 0.07873046 0.4999995 0.07873046 0.727272 0.157461 0.636363 0.157461 0.6818175 0.236191 0.90909 0.157461 0.818181 0.157461 0.8636355 0.236191 0.181818 0.157461 0.090909 0.157461 0.1363635 0.236191 0.363636 0.157461 0.272727 0.157461 0.3181815 0.236191 0.545454 0.157461 0.454545 0.157461 0.4999995 0.236191 0.727272 0.157461 0.6818175 0.236191 0.7727265 0.236191 0.90909 0.157461 0.8636355 0.236191 0.954545 0.236191 0.181818 0.157461 0.1363635 0.236191 0.2272725 0.236191 0.363636 0.157461 0.3181815 0.236191 0.4090905 0.236191 0.545454 0.157461 0.4999995 0.236191 0.5909085 0.236191 0.818181 0.314921 0.727272 0.314921 0.7727265 0.3936515 1 0.314921 0.9090905 0.314921 0.954545 0.3936515 0.272727 0.314921 0.181818 0.314921 0.2272725 0.3936515 0.454545 0.314921 0.363636 0.314921 0.4090905 0.3936515 0.636363 0.314921 0.545454 0.314921 0.5909085 0.3936515 0.5909085 0.3936515 0.4999995 0.3936515 0.545454 0.472382 0.5909085 0.3936515 0.545454 0.314921 0.4999995 0.3936515 0.545454 0.314921 0.454545 0.314921 0.4999995 0.3936515 0.4090905 0.3936515 0.3181815 0.3936515 0.363636 0.472382 0.4090905 0.3936515 0.363636 0.314921 0.3181815 0.3936515 0.363636 0.314921 0.272727 0.314921 0.3181815 0.3936515 0.2272725 0.3936515 0.1363635 0.3936515 0.181818 0.472382 0.2272725 0.3936515 0.181818 0.314921 0.1363635 0.3936515 0.181818 0.314921 0.090909 0.314921 0.1363635 0.3936515 0.954545 0.3936515 0.8636355 0.3936515 0.90909 0.472382 0.954545 0.3936515 0.9090905 0.314921 0.8636355 0.3936515 0.9090905 0.314921 0.818181 0.314921 0.8636355 0.3936515 0.7727265 0.3936515 0.6818175 0.3936515 0.727272 0.472382 0.7727265 0.3936515 0.727272 0.314921 0.6818175 0.3936515 0.727272 0.314921 0.636363 0.314921 0.6818175 0.3936515 0.5909085 0.236191 0.545454 0.314921 0.636363 0.314921 0.5909085 0.236191 0.4999995 0.236191 0.545454 0.314921 0.4999995 0.236191 0.454545 0.314921 0.545454 0.314921 0.4090905 0.236191 0.363636 0.314921 0.454545 0.314921 0.4090905 0.236191 0.3181815 0.236191 0.363636 0.314921 0.3181815 0.236191 0.272727 0.314921 0.363636 0.314921 0.2272725 0.236191 0.181818 0.314921 0.272727 0.314921 0.2272725 0.236191 0.1363635 0.236191 0.181818 0.314921 0.1363635 0.236191 0.090909 0.314921 0.181818 0.314921 0.954545 0.236191 0.9090905 0.314921 1 0.314921 0.954545 0.236191 0.8636355 0.236191 0.9090905 0.314921 0.8636355 0.236191 0.818181 0.314921 0.9090905 0.314921 0.7727265 0.236191 0.727272 0.314921 0.818181 0.314921 0.7727265 0.236191 0.6818175 0.236191 0.727272 0.314921 0.6818175 0.236191 0.636363 0.314921 0.727272 0.314921 0.4999995 0.236191 0.4090905 0.236191 0.454545 0.314921 0.4999995 0.236191 0.454545 0.157461 0.4090905 0.236191 0.454545 0.157461 0.363636 0.157461 0.4090905 0.236191 0.3181815 0.236191 0.2272725 0.236191 0.272727 0.314921 0.3181815 0.236191 0.272727 0.157461 0.2272725 0.236191 0.272727 0.157461 0.181818 0.157461 0.2272725 0.236191 0.1363635 0.236191 0.0454545 0.236191 0.090909 0.314921 0.1363635 0.236191 0.090909 0.157461 0.0454545 0.236191 0.090909 0.157461 0 0.157461 0.0454545 0.236191 0.8636355 0.236191 0.7727265 0.236191 0.818181 0.314921 0.8636355 0.236191 0.818181 0.157461 0.7727265 0.236191 0.818181 0.157461 0.727272 0.157461 0.7727265 0.236191 0.6818175 0.236191 0.5909085 0.236191 0.636363 0.314921 0.6818175 0.236191 0.636363 0.157461 0.5909085 0.236191 0.636363 0.157461 0.545454 0.157461 0.5909085 0.236191 0.4999995 0.07873046 0.454545 0.157461 0.545454 0.157461 0.4999995 0.07873046 0.4090905 0.07873046 0.454545 0.157461 0.4090905 0.07873046 0.363636 0.157461 0.454545 0.157461 0.3181815 0.07873046 0.272727 0.157461 0.363636 0.157461 0.3181815 0.07873046 0.2272725 0.07873046 0.272727 0.157461 0.2272725 0.07873046 0.181818 0.157461 0.272727 0.157461 0.1363635 0.07873046 0.090909 0.157461 0.181818 0.157461 0.1363635 0.07873046 0.0454545 0.07873046 0.090909 0.157461 0.0454545 0.07873046 0 0.157461 0.090909 0.157461 0.636363 0.157461 0.5909085 0.07873046 0.545454 0.157461 0.636363 0.157461 0.6818175 0.07873046 0.5909085 0.07873046 0.6818175 0.07873046 0.636363 0 0.5909085 0.07873046 0.8636355 0.07873046 0.818181 0.157461 0.90909 0.157461 0.8636355 0.07873046 0.7727265 0.07873046 0.818181 0.157461 0.7727265 0.07873046 0.727272 0.157461 0.818181 0.157461 0.625 0 0.625 0.25 0.375 0.25 0.625 0.25 0.625 0.25 0.375 0.25 0.375 0.75 0.375 1 0.375 1 0.375 0.75 0.625 0.75 0.625 1 0.625 0.25 0.375 0.25 0.375 0.25 0.375 0.75 0.375 0.75 0.375 0.75 0.125 0.5 0.375 0.5 0.375 0.75 0.375 0 0.375 0 0.375 0 0.625 0.75 0.625 0.75 0.625 1 0.375 0.25 0.375 0.25 0.375 0 0.625 0.5 0.625 0.75 0.375 0.75 0.625 0.25 0.625 0 0.625 0 0.375 0.75 0.625 0.75 0.625 0.75 0.625 0.5 0.625 0.5 0.375 0.5 0.375 0.25 0.625 0.25 0.625 0.5 0.625 0.5 0.375 0.5 0.375 0.5 0.625 1 0.625 1 0.375 1 0.625 0.25 0.625 0.25 0.375 0.25 0.625 0 0.625 0 0.625 0 0.625 0.75 0.375 0.75 0.375 0.75 0.375 0.5 0.125 0.5 0.125 0.5 0.375 0.75 0.375 0.75 0.625 0.75 0.125 0.5 0.125 0.5 0.375 0.5 0.625 0 0.375 0 0.375 0 0.625 0.75 0.625 0.75 0.625 0.75 0.625 0 0.625 0 0.625 0 0.375 0.5 0.125 0.5 0.125 0.5 0.625 0.75 0.625 0.75 0.625 0.75 0.375 0.75 0.375 0.75 0.375 0.75 0.625 0.75 0.625 0.75 0.375 0.75 0.375 0 0.375 0 0.375 0 0.375 0 0.375 0 0.625 0 0.375 0.75 0.375 0.75 0.375 0.75 0.625 0.75 0.625 0.75 0.625 0.75 0.375 0.75 0.375 0.75 0.375 0.75 0.625 0 0.375 0 0.375 0 0.375 0 0.375 0 0.375 0 0.375 0.75 0.375 0.75 0.625 0.75 0.625 0 0.625 0 0.625 0 0.625 0.75 0.625 0.75 0.375 0.75 0.375 0 0.375 0 0.375 0 0.625 0 0.375 0 0.375 0 0.875 0.5 0.875 0.75 0.625 0.75 0.625 0.75 0.875 0.75 0.875 0.75 0.625 0.5 0.625 0.5 0.875 0.5 0.625 0.75 0.625 0.75 0.625 0.75 0.375 0.5 0.125 0.5 0.125 0.5 0.375 0.75 0.375 0.75 0.625 0.75 0.625 0 0.625 0 0.625 0 0.625 0.75 0.625 0.75 0.375 0.75</float_array>
          <technique_common>
            <accessor source="#Icosphere_001-mesh-map-0-array" count="1980" stride="2">
              <param name="S" type="float"/>
              <param name="T" type="float"/>
            </accessor>
          </technique_common>
        </source>
        <vertices id="Icosphere_001-mesh-vertices">
          <input semantic="POSITION" source="#Icosphere_001-mesh-positions"/>
        </vertices>
        <triangles material="Material-material" count="660">
          <input semantic="VERTEX" source="#Icosphere_001-mesh-vertices" offset="0"/>
          <input semantic="NORMAL" source="#Icosphere_001-mesh-normals" offset="1"/>
          <input semantic="TEXCOORD" source="#Icosphere_001-mesh-map-0" offset="2" set="0"/>
          <p>0 0 0 13 0 1 12 0 2 1 1 3 13 1 4 15 1 5 0 2 6 12 2 7 17 2 8 0 3 9 17 3 10 19 3 11 0 4 12 19 4 13 16 4 14 1 5 15 15 5 16 22 5 17 2 6 18 14 6 19 24 6 20 3 7 21 18 7 22 26 7 23 4 8 24 20 8 25 28 8 26 5 9 27 21 9 28 30 9 29 1 10 30 22 10 31 25 10 32 2 11 33 24 11 34 27 11 35 3 12 36 26 12 37 29 12 38 4 13 39 28 13 40 31 13 41 5 14 42 30 14 43 23 14 44 6 15 45 32 15 46 37 15 47 7 16 48 33 16 49 39 16 50 8 17 51 34 17 52 40 17 53 9 18 54 35 18 55 41 18 56 10 19 57 36 19 58 38 19 59 38 20 60 41 20 61 11 20 62 38 21 63 36 21 64 41 21 65 36 22 66 9 22 67 41 22 68 41 23 69 40 23 70 11 23 71 41 24 72 35 24 73 40 24 74 35 25 75 8 25 76 40 25 77 40 26 78 39 26 79 11 26 80 40 27 81 34 27 82 39 27 83 34 28 84 7 28 85 39 28 86 39 29 87 37 29 88 11 29 89 39 30 90 33 30 91 37 30 92 33 31 93 6 31 94 37 31 95 37 32 96 38 32 97 11 32 98 37 33 99 32 33 100 38 33 101 32 34 102 10 34 103 38 34 104 23 35 105 36 35 106 10 35 107 23 36 108 30 36 109 36 36 110 30 37 111 9 37 112 36 37 113 31 38 114 35 38 115 9 38 116 31 39 117 28 39 118 35 39 119 28 40 120 8 40 121 35 40 122 29 41 123 34 41 124 8 41 125 29 42 126 26 42 127 34 42 128 26 43 129 7 43 130 34 43 131 27 44 132 33 44 133 7 44 134 27 45 135 24 45 136 33 45 137 24 46 138 6 46 139 33 46 140 25 47 141 32 47 142 6 47 143 25 48 144 22 48 145 32 48 146 22 49 147 10 49 148 32 49 149 30 50 150 31 50 151 9 50 152 30 51 153 21 51 154 31 51 155 21 52 156 4 52 157 31 52 158 28 53 159 29 53 160 8 53 161 28 54 162 20 54 163 29 54 164 20 55 165 3 55 166 29 55 167 26 56 168 27 56 169 7 56 170 26 57 171 18 57 172 27 57 173 18 58 174 2 58 175 27 58 176 24 59 177 25 59 178 6 59 179 24 60 180 14 60 181 25 60 182 14 61 183 1 61 184 25 61 185 22 62 186 23 62 187 10 62 188 22 63 189 15 63 190 23 63 191 15 64 192 5 64 193 23 64 194 16 65 195 21 65 196 5 65 197 16 66 198 19 66 199 21 66 200 19 67 201 4 67 202 21 67 203 19 68 204 20 68 205 4 68 206 19 69 207 17 69 208 20 69 209 17 70 210 3 70 211 20 70 212 17 71 213 18 71 214 3 71 215 17 72 216 12 72 217 18 72 218 12 73 219 2 73 220 18 73 221 15 74 222 16 74 223 5 74 224 15 75 225 13 75 226 16 75 227 13 76 228 0 76 229 16 76 230 12 77 231 14 77 232 2 77 233 12 78 234 13 78 235 14 78 236 13 79 237 1 79 238 14 79 239 42 80 240 55 80 241 54 80 242 43 81 243 55 81 244 57 81 245 42 82 246 54 82 247 59 82 248 42 83 249 59 83 250 61 83 251 42 84 252 61 84 253 58 84 254 43 85 255 57 85 256 64 85 257 44 86 258 56 86 259 66 86 260 45 87 261 60 87 262 68 87 263 46 88 264 62 88 265 70 88 266 47 89 267 63 89 268 72 89 269 43 90 270 64 90 271 67 90 272 44 91 273 66 91 274 69 91 275 45 92 276 68 92 277 71 92 278 46 93 279 70 93 280 73 93 281 47 94 282 72 94 283 65 94 284 48 95 285 74 95 286 79 95 287 49 96 288 75 96 289 81 96 290 50 97 291 76 97 292 82 97 293 51 98 294 77 98 295 83 98 296 52 99 297 78 99 298 80 99 299 80 100 300 83 100 301 53 100 302 80 101 303 78 101 304 83 101 305 78 102 306 51 102 307 83 102 308 83 103 309 82 103 310 53 103 311 83 104 312 77 104 313 82 104 314 77 105 315 50 105 316 82 105 317 82 106 318 81 106 319 53 106 320 82 107 321 76 107 322 81 107 323 76 108 324 49 108 325 81 108 326 81 109 327 79 109 328 53 109 329 81 110 330 75 110 331 79 110 332 75 111 333 48 111 334 79 111 335 79 112 336 80 112 337 53 112 338 79 113 339 74 113 340 80 113 341 74 114 342 52 114 343 80 114 344 65 115 345 78 115 346 52 115 347 65 116 348 72 116 349 78 116 350 72 117 351 51 117 352 78 117 353 73 118 354 77 118 355 51 118 356 73 119 357 70 119 358 77 119 359 70 120 360 50 120 361 77 120 362 71 121 363 76 121 364 50 121 365 71 122 366 68 122 367 76 122 368 68 123 369 49 123 370 76 123 371 69 124 372 75 124 373 49 124 374 69 125 375 66 125 376 75 125 377 66 126 378 48 126 379 75 126 380 67 127 381 74 127 382 48 127 383 67 128 384 64 128 385 74 128 386 64 129 387 52 129 388 74 129 389 72 130 390 73 130 391 51 130 392 72 131 393 63 131 394 73 131 395 63 132 396 46 132 397 73 132 398 70 133 399 71 133 400 50 133 401 70 134 402 62 134 403 71 134 404 62 135 405 45 135 406 71 135 407 68 136 408 69 136 409 49 136 410 68 137 411 60 137 412 69 137 413 60 138 414 44 138 415 69 138 416 66 139 417 67 139 418 48 139 419 66 140 420 56 140 421 67 140 422 56 141 423 43 141 424 67 141 425 64 142 426 65 142 427 52 142 428 64 143 429 57 143 430 65 143 431 57 144 432 47 144 433 65 144 434 58 145 435 63 145 436 47 145 437 58 146 438 61 146 439 63 146 440 61 147 441 46 147 442 63 147 443 61 148 444 62 148 445 46 148 446 61 149 447 59 149 448 62 149 449 59 150 450 45 150 451 62 150 452 59 151 453 60 151 454 45 151 455 59 152 456 54 152 457 60 152 458 54 153 459 44 153 460 60 153 461 57 154 462 58 154 463 47 154 464 57 155 465 55 155 466 58 155 467 55 156 468 42 156 469 58 156 470 54 157 471 56 157 472 44 157 473 54 158 474 55 158 475 56 158 476 55 159 477 43 159 478 56 159 479 84 160 480 97 160 481 96 160 482 85 161 483 97 161 484 99 161 485 84 162 486 96 162 487 101 162 488 84 163 489 101 163 490 103 163 491 84 164 492 103 164 493 100 164 494 85 165 495 99 165 496 106 165 497 86 166 498 98 166 499 108 166 500 87 167 501 102 167 502 110 167 503 88 168 504 104 168 505 112 168 506 89 169 507 105 169 508 114 169 509 85 170 510 106 170 511 109 170 512 86 171 513 108 171 514 111 171 515 87 172 516 110 172 517 113 172 518 88 173 519 112 173 520 115 173 521 89 174 522 114 174 523 107 174 524 90 175 525 116 175 526 121 175 527 91 176 528 117 176 529 123 176 530 92 177 531 118 177 532 124 177 533 93 178 534 119 178 535 125 178 536 94 179 537 120 179 538 122 179 539 122 180 540 125 180 541 95 180 542 122 181 543 120 181 544 125 181 545 120 182 546 93 182 547 125 182 548 125 183 549 124 183 550 95 183 551 125 184 552 119 184 553 124 184 554 119 185 555 92 185 556 124 185 557 124 186 558 123 186 559 95 186 560 124 187 561 118 187 562 123 187 563 118 188 564 91 188 565 123 188 566 123 189 567 121 189 568 95 189 569 123 190 570 117 190 571 121 190 572 117 191 573 90 191 574 121 191 575 121 192 576 122 192 577 95 192 578 121 193 579 116 193 580 122 193 581 116 194 582 94 194 583 122 194 584 107 195 585 120 195 586 94 195 587 107 196 588 114 196 589 120 196 590 114 197 591 93 197 592 120 197 593 115 198 594 119 198 595 93 198 596 115 199 597 112 199 598 119 199 599 112 200 600 92 200 601 119 200 602 113 201 603 118 201 604 92 201 605 113 202 606 110 202 607 118 202 608 110 203 609 91 203 610 118 203 611 111 204 612 117 204 613 91 204 614 111 205 615 108 205 616 117 205 617 108 206 618 90 206 619 117 206 620 109 207 621 116 207 622 90 207 623 109 208 624 106 208 625 116 208 626 106 209 627 94 209 628 116 209 629 114 210 630 115 210 631 93 210 632 114 211 633 105 211 634 115 211 635 105 212 636 88 212 637 115 212 638 112 213 639 113 213 640 92 213 641 112 214 642 104 214 643 113 214 644 104 215 645 87 215 646 113 215 647 110 216 648 111 216 649 91 216 650 110 217 651 102 217 652 111 217 653 102 218 654 86 218 655 111 218 656 108 219 657 109 219 658 90 219 659 108 220 660 98 220 661 109 220 662 98 221 663 85 221 664 109 221 665 106 222 666 107 222 667 94 222 668 106 223 669 99 223 670 107 223 671 99 224 672 89 224 673 107 224 674 100 225 675 105 225 676 89 225 677 100 226 678 103 226 679 105 226 680 103 227 681 88 227 682 105 227 683 103 228 684 104 228 685 88 228 686 103 229 687 101 229 688 104 229 689 101 230 690 87 230 691 104 230 692 101 231 693 102 231 694 87 231 695 101 232 696 96 232 697 102 232 698 96 233 699 86 233 700 102 233 701 99 234 702 100 234 703 89 234 704 99 235 705 97 235 706 100 235 707 97 236 708 84 236 709 100 236 710 96 237 711 98 237 712 86 237 713 96 238 714 97 238 715 98 238 716 97 239 717 85 239 718 98 239 719 130 240 720 128 240 721 126 240 722 128 241 723 145 241 724 129 241 725 131 242 726 141 242 727 139 242 728 131 243 729 129 243 730 133 243 731 128 244 732 137 244 733 136 244 734 131 245 735 153 245 736 147 245 737 135 246 738 136 246 739 137 246 740 126 247 741 150 247 742 148 247 743 127 248 744 137 248 745 129 248 746 128 249 747 134 249 748 126 249 749 140 250 750 139 250 751 141 250 752 132 251 753 138 251 754 140 251 755 139 252 756 152 252 757 153 252 758 132 253 759 141 253 760 133 253 761 145 254 762 143 254 763 142 254 764 132 255 765 142 255 766 143 255 767 129 256 768 142 256 769 133 256 770 132 257 771 144 257 772 128 257 773 149 258 774 160 258 775 152 258 776 146 259 777 155 259 778 154 259 779 150 260 780 159 260 781 158 260 782 131 261 783 146 261 784 127 261 785 135 262 786 150 262 787 134 262 788 130 263 789 148 263 790 149 263 791 127 264 792 151 264 793 135 264 794 130 265 795 152 265 796 138 265 797 158 266 798 167 266 799 166 266 800 159 267 801 162 267 802 167 267 803 155 268 804 169 268 805 163 268 806 152 269 807 161 269 808 153 269 809 148 270 810 158 270 811 156 270 812 148 271 813 157 271 814 149 271 815 153 272 816 155 272 817 147 272 818 151 273 819 154 273 820 159 273 821 163 274 822 177 274 823 171 274 824 165 275 825 172 275 826 173 275 827 166 276 828 172 276 829 164 276 830 155 277 831 162 277 832 154 277 833 160 278 834 165 278 835 168 278 836 160 279 837 169 279 838 161 279 839 158 280 840 164 280 841 156 280 842 157 281 843 164 281 844 165 281 845 173 282 846 170 282 847 171 282 848 170 283 849 174 283 850 175 283 851 171 284 852 176 284 853 173 284 854 167 285 855 170 285 856 175 285 857 166 286 858 175 286 859 174 286 860 163 287 861 170 287 862 162 287 863 168 288 864 173 288 865 176 288 866 168 289 867 177 289 868 169 289 869 178 290 870 191 290 871 190 290 872 179 291 873 191 291 874 193 291 875 178 292 876 190 292 877 195 292 878 178 293 879 195 293 880 197 293 881 178 294 882 197 294 883 194 294 884 179 295 885 193 295 886 200 295 887 180 296 888 192 296 889 202 296 890 181 297 891 196 297 892 204 297 893 182 298 894 198 298 895 206 298 896 183 299 897 199 299 898 208 299 899 179 300 900 200 300 901 203 300 902 180 301 903 202 301 904 205 301 905 181 302 906 204 302 907 207 302 908 182 303 909 206 303 910 209 303 911 183 304 912 208 304 913 201 304 914 184 305 915 210 305 916 215 305 917 185 306 918 211 306 919 217 306 920 186 307 921 212 307 922 218 307 923 187 308 924 213 308 925 219 308 926 188 309 927 214 309 928 216 309 929 216 310 930 219 310 931 189 310 932 216 311 933 214 311 934 219 311 935 214 312 936 187 312 937 219 312 938 219 313 939 218 313 940 189 313 941 219 314 942 213 314 943 218 314 944 213 315 945 186 315 946 218 315 947 218 316 948 217 316 949 189 316 950 218 317 951 212 317 952 217 317 953 212 318 954 185 318 955 217 318 956 217 319 957 215 319 958 189 319 959 217 320 960 211 320 961 215 320 962 211 321 963 184 321 964 215 321 965 215 322 966 216 322 967 189 322 968 215 323 969 210 323 970 216 323 971 210 324 972 188 324 973 216 324 974 201 325 975 214 325 976 188 325 977 201 326 978 208 326 979 214 326 980 208 327 981 187 327 982 214 327 983 209 328 984 213 328 985 187 328 986 209 329 987 206 329 988 213 329 989 206 330 990 186 330 991 213 330 992 207 331 993 212 331 994 186 331 995 207 332 996 204 332 997 212 332 998 204 333 999 185 333 1000 212 333 1001 205 334 1002 211 334 1003 185 334 1004 205 335 1005 202 335 1006 211 335 1007 202 336 1008 184 336 1009 211 336 1010 203 337 1011 210 337 1012 184 337 1013 203 338 1014 200 338 1015 210 338 1016 200 339 1017 188 339 1018 210 339 1019 208 340 1020 209 340 1021 187 340 1022 208 341 1023 199 341 1024 209 341 1025 199 342 1026 182 342 1027 209 342 1028 206 343 1029 207 343 1030 186 343 1031 206 344 1032 198 344 1033 207 344 1034 198 345 1035 181 345 1036 207 345 1037 204 346 1038 205 346 1039 185 346 1040 204 347 1041 196 347 1042 205 347 1043 196 348 1044 180 348 1045 205 348 1046 202 349 1047 203 349 1048 184 349 1049 202 350 1050 192 350 1051 203 350 1052 192 351 1053 179 351 1054 203 351 1055 200 352 1056 201 352 1057 188 352 1058 200 353 1059 193 353 1060 201 353 1061 193 354 1062 183 354 1063 201 354 1064 194 355 1065 199 355 1066 183 355 1067 194 356 1068 197 356 1069 199 356 1070 197 357 1071 182 357 1072 199 357 1073 197 358 1074 198 358 1075 182 358 1076 197 359 1077 195 359 1078 198 359 1079 195 360 1080 181 360 1081 198 360 1082 195 361 1083 196 361 1084 181 361 1085 195 362 1086 190 362 1087 196 362 1088 190 363 1089 180 363 1090 196 363 1091 193 364 1092 194 364 1093 183 364 1094 193 365 1095 191 365 1096 194 365 1097 191 366 1098 178 366 1099 194 366 1100 190 367 1101 192 367 1102 180 367 1103 190 368 1104 191 368 1105 192 368 1106 191 369 1107 179 369 1108 192 369 1109 220 370 1110 233 370 1111 232 370 1112 221 371 1113 233 371 1114 235 371 1115 220 372 1116 232 372 1117 237 372 1118 220 373 1119 237 373 1120 239 373 1121 220 374 1122 239 374 1123 236 374 1124 221 375 1125 235 375 1126 242 375 1127 222 376 1128 234 376 1129 244 376 1130 223 377 1131 238 377 1132 246 377 1133 224 378 1134 240 378 1135 248 378 1136 225 379 1137 241 379 1138 250 379 1139 221 380 1140 242 380 1141 245 380 1142 222 381 1143 244 381 1144 247 381 1145 223 382 1146 246 382 1147 249 382 1148 224 383 1149 248 383 1150 251 383 1151 225 384 1152 250 384 1153 243 384 1154 226 385 1155 252 385 1156 257 385 1157 227 386 1158 253 386 1159 259 386 1160 228 387 1161 254 387 1162 260 387 1163 229 388 1164 255 388 1165 261 388 1166 230 389 1167 256 389 1168 258 389 1169 258 390 1170 261 390 1171 231 390 1172 258 391 1173 256 391 1174 261 391 1175 256 392 1176 229 392 1177 261 392 1178 261 393 1179 260 393 1180 231 393 1181 261 394 1182 255 394 1183 260 394 1184 255 395 1185 228 395 1186 260 395 1187 260 396 1188 259 396 1189 231 396 1190 260 397 1191 254 397 1192 259 397 1193 254 398 1194 227 398 1195 259 398 1196 259 399 1197 257 399 1198 231 399 1199 259 400 1200 253 400 1201 257 400 1202 253 401 1203 226 401 1204 257 401 1205 257 402 1206 258 402 1207 231 402 1208 257 403 1209 252 403 1210 258 403 1211 252 404 1212 230 404 1213 258 404 1214 243 405 1215 256 405 1216 230 405 1217 243 406 1218 250 406 1219 256 406 1220 250 407 1221 229 407 1222 256 407 1223 251 408 1224 255 408 1225 229 408 1226 251 409 1227 248 409 1228 255 409 1229 248 410 1230 228 410 1231 255 410 1232 249 411 1233 254 411 1234 228 411 1235 249 412 1236 246 412 1237 254 412 1238 246 413 1239 227 413 1240 254 413 1241 247 414 1242 253 414 1243 227 414 1244 247 415 1245 244 415 1246 253 415 1247 244 416 1248 226 416 1249 253 416 1250 245 417 1251 252 417 1252 226 417 1253 245 418 1254 242 418 1255 252 418 1256 242 419 1257 230 419 1258 252 419 1259 250 420 1260 251 420 1261 229 420 1262 250 421 1263 241 421 1264 251 421 1265 241 422 1266 224 422 1267 251 422 1268 248 423 1269 249 423 1270 228 423 1271 248 424 1272 240 424 1273 249 424 1274 240 425 1275 223 425 1276 249 425 1277 246 426 1278 247 426 1279 227 426 1280 246 427 1281 238 427 1282 247 427 1283 238 428 1284 222 428 1285 247 428 1286 244 429 1287 245 429 1288 226 429 1289 244 430 1290 234 430 1291 245 430 1292 234 431 1293 221 431 1294 245 431 1295 242 432 1296 243 432 1297 230 432 1298 242 433 1299 235 433 1300 243 433 1301 235 434 1302 225 434 1303 243 434 1304 236 435 1305 241 435 1306 225 435 1307 236 436 1308 239 436 1309 241 436 1310 239 437 1311 224 437 1312 241 437 1313 239 438 1314 240 438 1315 224 438 1316 239 439 1317 237 439 1318 240 439 1319 237 440 1320 223 440 1321 240 440 1322 237 441 1323 238 441 1324 223 441 1325 237 442 1326 232 442 1327 238 442 1328 232 443 1329 222 443 1330 238 443 1331 235 444 1332 236 444 1333 225 444 1334 235 445 1335 233 445 1336 236 445 1337 233 446 1338 220 446 1339 236 446 1340 232 447 1341 234 447 1342 222 447 1343 232 448 1344 233 448 1345 234 448 1346 233 449 1347 221 449 1348 234 449 1349 262 450 1350 275 450 1351 274 450 1352 263 451 1353 275 451 1354 277 451 1355 262 452 1356 274 452 1357 279 452 1358 262 453 1359 279 453 1360 281 453 1361 262 454 1362 281 454 1363 278 454 1364 263 455 1365 277 455 1366 284 455 1367 264 456 1368 276 456 1369 286 456 1370 265 457 1371 280 457 1372 288 457 1373 266 458 1374 282 458 1375 290 458 1376 267 459 1377 283 459 1378 292 459 1379 263 460 1380 284 460 1381 287 460 1382 264 461 1383 286 461 1384 289 461 1385 265 462 1386 288 462 1387 291 462 1388 266 463 1389 290 463 1390 293 463 1391 267 464 1392 292 464 1393 285 464 1394 268 465 1395 294 465 1396 299 465 1397 269 466 1398 295 466 1399 301 466 1400 270 467 1401 296 467 1402 302 467 1403 271 468 1404 297 468 1405 303 468 1406 272 469 1407 298 469 1408 300 469 1409 300 470 1410 303 470 1411 273 470 1412 300 471 1413 298 471 1414 303 471 1415 298 472 1416 271 472 1417 303 472 1418 303 473 1419 302 473 1420 273 473 1421 303 474 1422 297 474 1423 302 474 1424 297 475 1425 270 475 1426 302 475 1427 302 476 1428 301 476 1429 273 476 1430 302 477 1431 296 477 1432 301 477 1433 296 478 1434 269 478 1435 301 478 1436 301 479 1437 299 479 1438 273 479 1439 301 480 1440 295 480 1441 299 480 1442 295 481 1443 268 481 1444 299 481 1445 299 482 1446 300 482 1447 273 482 1448 299 483 1449 294 483 1450 300 483 1451 294 484 1452 272 484 1453 300 484 1454 285 485 1455 298 485 1456 272 485 1457 285 486 1458 292 486 1459 298 486 1460 292 487 1461 271 487 1462 298 487 1463 293 488 1464 297 488 1465 271 488 1466 293 489 1467 290 489 1468 297 489 1469 290 490 1470 270 490 1471 297 490 1472 291 491 1473 296 491 1474 270 491 1475 291 492 1476 288 492 1477 296 492 1478 288 493 1479 269 493 1480 296 493 1481 289 494 1482 295 494 1483 269 494 1484 289 495 1485 286 495 1486 295 495 1487 286 496 1488 268 496 1489 295 496 1490 287 497 1491 294 497 1492 268 497 1493 287 498 1494 284 498 1495 294 498 1496 284 499 1497 272 499 1498 294 499 1499 292 500 1500 293 500 1501 271 500 1502 292 501 1503 283 501 1504 293 501 1505 283 502 1506 266 502 1507 293 502 1508 290 503 1509 291 503 1510 270 503 1511 290 504 1512 282 504 1513 291 504 1514 282 505 1515 265 505 1516 291 505 1517 288 506 1518 289 506 1519 269 506 1520 288 507 1521 280 507 1522 289 507 1523 280 508 1524 264 508 1525 289 508 1526 286 509 1527 287 509 1528 268 509 1529 286 510 1530 276 510 1531 287 510 1532 276 511 1533 263 511 1534 287 511 1535 284 512 1536 285 512 1537 272 512 1538 284 513 1539 277 513 1540 285 513 1541 277 514 1542 267 514 1543 285 514 1544 278 515 1545 283 515 1546 267 515 1547 278 516 1548 281 516 1549 283 516 1550 281 517 1551 266 517 1552 283 517 1553 281 518 1554 282 518 1555 266 518 1556 281 519 1557 279 519 1558 282 519 1559 279 520 1560 265 520 1561 282 520 1562 279 521 1563 280 521 1564 265 521 1565 279 522 1566 274 522 1567 280 522 1568 274 523 1569 264 523 1570 280 523 1571 277 524 1572 278 524 1573 267 524 1574 277 525 1575 275 525 1576 278 525 1577 275 526 1578 262 526 1579 278 526 1580 274 527 1581 276 527 1582 264 527 1583 274 528 1584 275 528 1585 276 528 1586 275 529 1587 263 529 1588 276 529 1589 304 530 1590 317 530 1591 316 530 1592 305 531 1593 317 531 1594 319 531 1595 304 532 1596 316 532 1597 321 532 1598 304 533 1599 321 533 1600 323 533 1601 304 534 1602 323 534 1603 320 534 1604 305 535 1605 319 535 1606 326 535 1607 306 536 1608 318 536 1609 328 536 1610 307 537 1611 322 537 1612 330 537 1613 308 538 1614 324 538 1615 332 538 1616 309 539 1617 325 539 1618 334 539 1619 305 540 1620 326 540 1621 329 540 1622 306 541 1623 328 541 1624 331 541 1625 307 542 1626 330 542 1627 333 542 1628 308 543 1629 332 543 1630 335 543 1631 309 544 1632 334 544 1633 327 544 1634 310 545 1635 336 545 1636 341 545 1637 311 546 1638 337 546 1639 343 546 1640 312 547 1641 338 547 1642 344 547 1643 313 548 1644 339 548 1645 345 548 1646 314 549 1647 340 549 1648 342 549 1649 342 550 1650 345 550 1651 315 550 1652 342 551 1653 340 551 1654 345 551 1655 340 552 1656 313 552 1657 345 552 1658 345 553 1659 344 553 1660 315 553 1661 345 554 1662 339 554 1663 344 554 1664 339 555 1665 312 555 1666 344 555 1667 344 556 1668 343 556 1669 315 556 1670 344 557 1671 338 557 1672 343 557 1673 338 558 1674 311 558 1675 343 558 1676 343 559 1677 341 559 1678 315 559 1679 343 560 1680 337 560 1681 341 560 1682 337 561 1683 310 561 1684 341 561 1685 341 562 1686 342 562 1687 315 562 1688 341 563 1689 336 563 1690 342 563 1691 336 564 1692 314 564 1693 342 564 1694 327 565 1695 340 565 1696 314 565 1697 327 566 1698 334 566 1699 340 566 1700 334 567 1701 313 567 1702 340 567 1703 335 568 1704 339 568 1705 313 568 1706 335 569 1707 332 569 1708 339 569 1709 332 570 1710 312 570 1711 339 570 1712 333 571 1713 338 571 1714 312 571 1715 333 572 1716 330 572 1717 338 572 1718 330 573 1719 311 573 1720 338 573 1721 331 574 1722 337 574 1723 311 574 1724 331 575 1725 328 575 1726 337 575 1727 328 576 1728 310 576 1729 337 576 1730 329 577 1731 336 577 1732 310 577 1733 329 578 1734 326 578 1735 336 578 1736 326 579 1737 314 579 1738 336 579 1739 334 580 1740 335 580 1741 313 580 1742 334 581 1743 325 581 1744 335 581 1745 325 582 1746 308 582 1747 335 582 1748 332 583 1749 333 583 1750 312 583 1751 332 584 1752 324 584 1753 333 584 1754 324 585 1755 307 585 1756 333 585 1757 330 586 1758 331 586 1759 311 586 1760 330 587 1761 322 587 1762 331 587 1763 322 588 1764 306 588 1765 331 588 1766 328 589 1767 329 589 1768 310 589 1769 328 590 1770 318 590 1771 329 590 1772 318 591 1773 305 591 1774 329 591 1775 326 592 1776 327 592 1777 314 592 1778 326 593 1779 319 593 1780 327 593 1781 319 594 1782 309 594 1783 327 594 1784 320 595 1785 325 595 1786 309 595 1787 320 596 1788 323 596 1789 325 596 1790 323 597 1791 308 597 1792 325 597 1793 323 598 1794 324 598 1795 308 598 1796 323 599 1797 321 599 1798 324 599 1799 321 600 1800 307 600 1801 324 600 1802 321 601 1803 322 601 1804 307 601 1805 321 602 1806 316 602 1807 322 602 1808 316 603 1809 306 603 1810 322 603 1811 319 604 1812 320 604 1813 309 604 1814 319 605 1815 317 605 1816 320 605 1817 317 606 1818 304 606 1819 320 606 1820 316 607 1821 318 607 1822 306 607 1823 316 608 1824 317 608 1825 318 608 1826 317 609 1827 305 609 1828 318 609 1829 130 610 1830 132 610 1831 128 610 1832 128 611 1833 144 611 1834 145 611 1835 131 612 1836 133 612 1837 141 612 1838 131 613 1839 127 613 1840 129 613 1841 128 614 1842 129 614 1843 137 614 1844 131 615 1845 139 615 1846 153 615 1847 135 616 1848 134 616 1849 136 616 1850 126 617 1851 134 617 1852 150 617 1853 127 618 1854 135 618 1855 137 618 1856 128 619 1857 136 619 1858 134 619 1859 140 620 1860 138 620 1861 139 620 1862 132 621 1863 130 621 1864 138 621 1865 139 622 1866 138 622 1867 152 622 1868 132 623 1869 140 623 1870 141 623 1871 145 624 1872 144 624 1873 143 624 1874 132 625 1875 133 625 1876 142 625 1877 129 626 1878 145 626 1879 142 626 1880 132 627 1881 143 627 1882 144 627 1883 149 628 1884 157 628 1885 160 628 1886 146 629 1887 147 629 1888 155 629 1889 150 630 1890 151 630 1891 159 630 1892 131 631 1893 147 631 1894 146 631 1895 135 632 1896 151 632 1897 150 632 1898 130 633 1899 126 633 1900 148 633 1901 127 634 1902 146 634 1903 151 634 1904 130 635 1905 149 635 1906 152 635 1907 158 636 1908 159 636 1909 167 636 1910 159 637 1911 154 637 1912 162 637 1913 155 638 1914 161 638 1915 169 638 1916 152 639 1917 160 639 1918 161 639 1919 148 640 1920 150 640 1921 158 640 1922 148 641 1923 156 641 1924 157 641 1925 153 642 1926 161 642 1927 155 642 1928 151 643 1929 146 643 1930 154 643 1931 163 644 1932 169 644 1933 177 644 1934 165 645 1935 164 645 1936 172 645 1937 166 646 1938 174 646 1939 172 646 1940 155 647 1941 163 647 1942 162 647 1943 160 648 1944 157 648 1945 165 648 1946 160 649 1947 168 649 1948 169 649 1949 158 650 1950 166 650 1951 164 650 1952 157 651 1953 156 651 1954 164 651 1955 173 652 1956 172 652 1957 170 652 1958 170 653 1959 172 653 1960 174 653 1961 171 654 1962 177 654 1963 176 654 1964 167 655 1965 162 655 1966 170 655 1967 166 656 1968 167 656 1969 175 656 1970 163 657 1971 171 657 1972 170 657 1973 168 658 1974 165 658 1975 173 658 1976 168 659 1977 176 659 1978 177 659 1979</p>
        </triangles>
      </mesh>
    </geometry>
  </library_geometries>
  <library_visual_scenes>
    <visual_scene id="Scene" name="Scene">
      <node id="Icosphere_001" name="Icosphere.001" type="NODE">
        <matrix sid="transform">0.990163 -0.06765255 -0.1224762 -3.377331 0.1041486 0.9409036 0.3222631 5.143754 0.09343637 -0.3318487 0.9386938 12.66548 0 0 0 1</matrix>
        <instance_geometry url="#Icosphere_001-mesh" name="Icosphere.001">
          <bind_material>
            <technique_common>
              <instance_material symbol="Material-material" target="#Material-material">
                <bind_vertex_input semantic="UVMap" input_semantic="TEXCOORD" input_set="0"/>
              </instance_material>
            </technique_common>
          </bind_material>
        </instance_geometry>
      </node>
    </visual_scene>
  </library_visual_scenes>
  <scene>
    <instance_visual_scene url="#Scene"/>
  </scene>
</COLLADA>