<?xml version="1.0" encoding="utf-8"?>
<COLLADA xmlns="http://www.collada.org/2005/11/COLLADASchema" version="1.4.1" xmlns:xsi="http://www.w3.org/2001/XMLSchema-instance">
  <asset>
    <contributor>
      <author>Blender User</author>
      <authoring_tool>Blender 2.80.55 commit date:2019-04-11, commit time:17:43, hash:d1cda823e0a8</authoring_tool>
    </contributor>
    <created>2019-04-15T15:47:10</created>
    <modified>2019-04-15T15:47:10</modified>
    <unit name="meter" meter="1"/>
    <up_axis>Z_UP</up_axis>
  </asset>
  <library_effects>
    <effect id="Material_001-effect">
      <profile_COMMON>
        <newparam sid="Material_001_Base_Color_002-surface">
          <surface type="2D">
            <init_from>Material_001_Base_Color_002</init_from>
          </surface>
        </newparam>
        <newparam sid="Material_001_Base_Color_002-sampler">
          <sampler2D>
            <source>Material_001_Base_Color_002-surface</source>
          </sampler2D>
        </newparam>
        <technique sid="common">
          <lambert>
            <diffuse>
              <texture texture="Material_001_Base_Color_002-sampler" texcoord="UVMap"/>
            </diffuse>
            <reflectivity>
              <float sid="specular">0.5</float>
            </reflectivity>
          </lambert>
        </technique>
      </profile_COMMON>
    </effect>
  </library_effects>
  <library_images>
    <image id="Material_001_Base_Color_002" name="Material_001_Base_Color_002">
      <init_from>Material.001%20Base%20Color.002.png</init_from>
    </image>
  </library_images>
  <library_materials>
    <material id="Material_001-material" name="Material.001">
      <instance_effect url="#Material_001-effect"/>
    </material>
  </library_materials>
  <library_geometries>
    <geometry id="Sphere-mesh" name="Sphere">
      <mesh>
        <source id="Sphere-mesh-positions">
          <float_array id="Sphere-mesh-positions-array" count="279">0 0.7071068 0.7071068 0 0.9238795 0.3826834 0 1 0 0 0.7071068 -0.7071068 0 0.3826835 -0.9238795 0.1778418 0.3388494 0.9238795 0.3286088 0.6261119 0.7071068 0.4293481 0.8180547 0.3826834 0.4647231 0.885456 0 0.4293481 0.8180547 -0.3826835 0.3286088 0.6261119 -0.7071068 0.1778418 0.3388494 -0.9238795 -1.24267e-7 0 1 0.3149422 0.2173891 0.9238795 0.5819374 0.4016825 0.7071068 0.7603378 0.5248234 0.3826834 0.8229838 0.5680648 0 0.7603378 0.5248234 -0.3826835 0.5819374 0.4016825 -0.7071068 0.3149423 0.2173891 -0.9238795 0.3798931 0.04612749 0.9238795 0.7019511 0.08523237 0.7071068 0.9171432 0.1113615 0.3826834 0.9927087 0.1205367 0 0.9171432 0.1113615 -0.3826835 0.7019511 0.08523237 -0.7071068 0.3798932 0.04612749 -0.9238795 0.3578152 -0.1357012 0.9238795 0.6611562 -0.2507433 0.7071068 0.8638422 -0.327612 0.3826834 0.935016 -0.3546047 0 0.8638422 -0.327612 -0.3826835 0.6611562 -0.2507433 -0.7071068 0.3578152 -0.1357012 -0.9238795 0.253766 -0.2864424 0.9238795 0.4688985 -0.5292769 0.7071068 0.6126453 -0.6915335 0.3826834 0.6631225 -0.7485105 0 0.6126453 -0.6915335 -0.3826835 0.4688985 -0.5292769 -0.7071068 0.253766 -0.2864425 -0.9238795 0.09158211 -0.3715631 0.9238795 0.1692216 -0.6865594 0.7071068 0.2210988 -0.8970329 0.3826834 0.2393156 -0.9709416 0 0.2210988 -0.8970329 -0.3826835 0.1692216 -0.6865594 -0.7071068 0.09158211 -0.3715631 -0.9238795 -0.09158205 -0.3715631 0.9238795 -0.1692218 -0.6865594 0.7071068 -0.2210987 -0.897033 0.3826834 -0.2393156 -0.9709415 0 -0.2210987 -0.897033 -0.3826835 -0.1692218 -0.6865594 -0.7071068 -0.09158211 -0.3715631 -0.9238795 -0.253766 -0.2864425 0.9238795 -0.4688985 -0.5292769 0.7071068 -0.6126453 -0.6915336 0.3826834 -0.6631226 -0.7485105 0 -0.6126453 -0.6915336 -0.3826835 -0.4688985 -0.5292769 -0.7071068 -0.253766 -0.2864425 -0.9238795 0 1.50996e-7 -1 -0.3578151 -0.1357012 0.9238795 -0.6611563 -0.2507433 0.7071068 -0.8638423 -0.3276121 0.3826834 -0.9350161 -0.3546047 0 -0.8638423 -0.3276121 -0.3826835 -0.6611563 -0.2507433 -0.7071068 -0.3578152 -0.1357012 -0.9238795 -0.3798931 0.04612743 0.9238795 -0.7019512 0.08523243 0.7071068 -0.9171433 0.1113614 0.3826834 -0.9927087 0.1205368 0 -0.9171433 0.1113614 -0.3826835 -0.7019512 0.08523243 -0.7071068 -0.3798931 0.04612749 -0.9238795 -0.3149422 0.217389 0.9238795 -0.5819374 0.4016826 0.7071068 -0.7603379 0.5248234 0.3826834 -0.8229837 0.5680648 0 -0.7603379 0.5248234 -0.3826835 -0.5819374 0.4016826 -0.7071068 -0.3149422 0.2173891 -0.9238795 -0.1778418 0.3388494 0.9238795 -0.3286089 0.6261121 0.7071068 -0.4293483 0.8180547 0.3826834 -0.464723 0.885456 0 -0.4293483 0.8180547 -0.3826835 -0.3286089 0.6261121 -0.7071068 -0.1778418 0.3388494 -0.9238795 0 0.3826835 0.9238795 -1.29776e-7 0.9238796 -0.3826835</float_array>
          <technique_common>
            <accessor source="#Sphere-mesh-positions-array" count="93" stride="3">
              <param name="X" type="float"/>
              <param name="Y" type="float"/>
              <param name="Z" type="float"/>
            </accessor>
          </technique_common>
        </source>
        <source id="Sphere-mesh-normals">
          <float_array id="Sphere-mesh-normals-array" count="546">0.1356697 0.5504337 0.8237819 0.1356696 0.5504338 -0.8237817 0.2349736 0.953325 -0.189628 0.2007662 0.8145404 0.5442582 0.04802989 0.1948652 0.9796534 0.04803001 0.1948652 -0.9796534 0.2007661 0.8145401 -0.5442587 0.2349735 0.953325 0.1896286 0.6510909 0.7349299 -0.1896282 0.5563054 0.6279389 0.5442584 0.133087 0.1502239 0.9796534 0.1330868 0.150224 -0.9796534 0.5563049 0.627939 -0.5442587 0.6510911 0.7349297 0.189628 0.3759289 0.424336 0.8237819 0.3759284 0.424336 -0.8237822 0.1876556 0.07116818 -0.9796532 0.7844015 0.2974845 -0.5442585 0.9180514 0.3481709 0.189628 0.530067 0.2010279 0.823782 0.5300672 0.201028 -0.8237818 0.9180513 0.348171 -0.1896282 0.7844018 0.2974845 0.5442582 0.1876549 0.07116818 0.9796534 0.9746971 -0.1183501 0.1896281 0.5627734 -0.06833297 0.823782 0.5627734 -0.06833326 -0.8237821 0.9746973 -0.1183493 -0.1896281 0.8328012 -0.1011206 0.5442583 0.1992341 -0.02419131 0.9796534 0.1992337 -0.02419131 -0.9796534 0.8328009 -0.1011204 -0.5442585 0.4665555 -0.32204 -0.8237817 0.8080517 -0.5577579 -0.189628 0.6904157 -0.4765596 0.5442584 0.1651704 -0.1140089 0.9796534 0.1651704 -0.114009 -0.9796534 0.6904157 -0.4765595 -0.5442584 0.8080518 -0.5577576 0.1896281 0.4665551 -0.3220397 0.823782 0.3898648 -0.7428251 0.5442577 0.09326881 -0.1777085 0.9796534 0.09326839 -0.1777085 -0.9796534 0.3898645 -0.7428248 -0.5442583 0.4562913 -0.8693903 0.1896286 0.2634547 -0.5019709 0.823782 0.2634547 -0.5019711 -0.8237819 0.4562913 -0.8693903 -0.1896281 0 -0.2006971 -0.9796534 0 -0.8389175 -0.5442587 -1.19817e-7 -0.981856 0.1896282 0 -0.5669067 0.823782 0 -0.5669069 -0.8237819 1.35003e-7 -0.9818561 -0.1896278 0 -0.838918 0.5442579 0 -0.2006972 0.9796534 -0.2634549 -0.5019708 0.8237821 -0.2634547 -0.501971 -0.823782 -0.4562911 -0.8693904 -0.1896281 -0.3898645 -0.742825 0.5442579 -0.09326887 -0.1777086 0.9796534 -0.09326839 -0.1777085 -0.9796534 -0.3898643 -0.7428248 -0.5442584 -0.4562913 -0.8693904 0.1896277 -0.4665557 -0.3220395 -0.8237817 -0.8080515 -0.557758 -0.1896281 -0.6904159 -0.4765596 0.5442582 -0.1651705 -0.114009 0.9796533 -0.1651704 -0.114009 -0.9796534 -0.6904156 -0.4765596 -0.5442585 -0.8080517 -0.5577577 0.1896278 -0.4665552 -0.3220397 0.8237819 -0.1992338 -0.02419143 0.9796534 -0.1992337 -0.02419131 -0.9796534 -0.8328011 -0.1011208 -0.5442583 -0.9746972 -0.1183494 0.1896279 -0.5627733 -0.06833302 0.823782 -0.5627732 -0.06833326 -0.8237822 -0.9746973 -0.1183493 -0.1896281 -0.8328011 -0.1011202 0.5442582 -0.7844017 0.2974844 -0.5442584 -0.9180514 0.3481709 0.1896278 -0.5300668 0.2010279 0.8237822 -0.5300674 0.2010279 -0.8237818 -0.9180513 0.348171 -0.189628 -0.7844019 0.297484 0.5442581 -0.1876553 0.07116818 0.9796533 -0.1876556 0.07116818 -0.9796532 -0.3759292 0.4243357 -0.8237818 -0.6510911 0.7349297 -0.1896279 -0.5563056 0.6279388 0.5442583 -0.133087 0.150224 0.9796534 -0.1330868 0.150224 -0.9796534 -0.5563054 0.6279389 -0.5442584 -0.651091 0.7349299 0.1896277 -0.3759285 0.4243358 0.823782 -0.2349737 0.9533252 -0.1896274 -0.2007661 0.8145405 0.5442581 -0.04802989 0.1948652 0.9796534 -0.04802989 0.1948653 -0.9796534 -0.2007656 0.81454 -0.5442589 -0.2349737 0.9533251 0.1896281 -0.1356696 0.5504336 0.8237819 -0.13567 0.5504335 -0.8237819 0.1356699 0.5504334 0.8237821 0.1356699 0.5504335 -0.823782 0.2349735 0.953325 -0.1896286 0.2007662 0.8145402 0.5442585 0.2007662 0.8145404 -0.5442581 0.2349735 0.953325 0.1896281 0.651091 0.7349298 -0.189628 0.556305 0.6279391 0.5442585 0.5563054 0.6279388 -0.5442584 0.6510909 0.7349298 0.1896283 0.3759287 0.4243359 0.823782 0.3759289 0.424336 -0.8237818 0.7844017 0.2974845 -0.5442582 0.9180513 0.348171 0.1896282 0.5300676 0.2010278 0.8237817 0.5300672 0.201028 -0.823782 0.9180514 0.3481707 -0.1896281 0.7844016 0.2974844 0.5442584 0.9746972 -0.1183496 0.1896281 0.5627733 -0.06833285 0.8237821 0.5627735 -0.06833297 -0.8237819 0.9746972 -0.1183501 -0.1896281 0.8328011 -0.1011203 0.5442584 0.8328012 -0.1011206 -0.5442583 0.4665551 -0.3220397 -0.823782 0.8080517 -0.5577578 -0.1896281 0.6904158 -0.4765596 0.5442582 0.6904157 -0.4765596 -0.5442584 0.8080517 -0.5577579 0.189628 0.4665552 -0.3220399 0.8237818 0.3898645 -0.7428249 0.5442582 0.3898648 -0.742825 -0.5442578 0.4562913 -0.8693903 0.1896281 0.2634548 -0.501971 0.823782 0.2634548 -0.501971 -0.8237821 0.4562912 -0.8693903 -0.1896286 1.68921e-7 -0.838918 -0.5442581 1.35003e-7 -0.9818561 0.1896278 0 -0.5669068 0.823782 0 -0.5669068 -0.823782 -1.19817e-7 -0.981856 -0.1896282 0 -0.8389176 0.5442586 -0.2634547 -0.501971 0.823782 -0.2634549 -0.5019708 -0.8237821 -0.4562912 -0.8693905 -0.1896277 -0.3898645 -0.7428248 0.5442584 -0.3898646 -0.7428249 -0.5442581 -0.4562911 -0.8693904 0.1896281 -0.4665548 -0.3220397 -0.8237821 -0.8080517 -0.5577577 -0.1896278 -0.6904157 -0.4765597 0.5442584 -0.6904159 -0.4765595 -0.5442583 -0.8080515 -0.557758 0.1896281 -0.4665549 -0.3220397 0.8237822 -0.8328012 -0.1011201 -0.5442584 -0.9746972 -0.1183496 0.189628 -0.5627729 -0.06833302 0.8237823 -0.5627733 -0.06833297 -0.8237821 -0.9746972 -0.1183498 -0.1896279 -0.8328012 -0.1011203 0.5442582 -0.7844018 0.2974842 -0.5442582 -0.9180513 0.348171 0.189628 -0.530067 0.2010279 0.823782 -0.5300667 0.2010279 -0.8237823 -0.9180514 0.3481709 -0.1896279 -0.7844017 0.2974845 0.5442581 -0.3759283 0.4243358 -0.8237822 -0.6510909 0.7349299 -0.1896277 -0.5563053 0.6279391 0.5442582 -0.5563055 0.6279388 -0.5442584 -0.6510912 0.7349297 0.189628 -0.3759288 0.4243355 0.8237821 -0.2349737 0.9533251 -0.1896281 -0.2007659 0.8145402 0.5442586 -0.2007662 0.8145402 -0.5442584 -0.2349734 0.9533252 0.1896281 -0.13567 0.5504336 0.8237819 -0.1356694 0.5504336 -0.823782</float_array>
          <technique_common>
            <accessor source="#Sphere-mesh-normals-array" count="182" stride="3">
              <param name="X" type="float"/>
              <param name="Y" type="float"/>
              <param name="Z" type="float"/>
            </accessor>
          </technique_common>
        </source>
        <source id="Sphere-mesh-map-0">
          <float_array id="Sphere-mesh-map-0-array" count="1092">0.6923077 0.875 0.6153847 0.75 0.6923077 0.75 0.6923077 0.125 0.6153847 0.25 0.6153847 0.125 0.6923077 0.5 0.6153847 0.375 0.6923077 0.375 0.6923077 0.75 0.6153847 0.625 0.6923077 0.625 0.6923077 0.875 0.6538463 1 0.6153847 0.875 0.6538463 0 0.6923077 0.125 0.6153847 0.125 0.6923077 0.25 0.6153847 0.375 0.6153847 0.25 0.6923077 0.5 0.6153847 0.625 0.6153847 0.5 0.6153847 0.5 0.5384616 0.375 0.6153847 0.375 0.6153847 0.75 0.5384616 0.625 0.6153847 0.625 0.6153847 0.875 0.5769231 1 0.5384617 0.875 0.5769231 0 0.6153847 0.125 0.5384617 0.125 0.6153847 0.25 0.5384616 0.375 0.5384616 0.25 0.6153847 0.5 0.5384616 0.625 0.5384616 0.5 0.6153847 0.75 0.5384617 0.875 0.5384616 0.75 0.6153847 0.25 0.5384617 0.125 0.6153847 0.125 0.5000001 0 0.5384617 0.125 0.4615386 0.125 0.5384616 0.375 0.4615385 0.25 0.5384616 0.25 0.5384616 0.5 0.4615385 0.625 0.4615385 0.5 0.5384616 0.75 0.4615386 0.875 0.4615385 0.75 0.5384616 0.25 0.4615386 0.125 0.5384617 0.125 0.5384616 0.5 0.4615385 0.375 0.5384616 0.375 0.5384616 0.625 0.4615385 0.75 0.4615385 0.625 0.5384617 0.875 0.5000001 1 0.4615386 0.875 0.4615385 0.5 0.3846154 0.6250001 0.3846154 0.5 0.4615385 0.75 0.3846155 0.875 0.3846154 0.75 0.4615385 0.25 0.3846155 0.125 0.4615386 0.125 0.4615385 0.5 0.3846154 0.375 0.4615385 0.375 0.4615385 0.75 0.3846154 0.6250001 0.4615385 0.625 0.4615386 0.875 0.4230771 1 0.3846155 0.875 0.4230771 0 0.4615386 0.125 0.3846155 0.125 0.4615385 0.25 0.3846154 0.375 0.3846154 0.25 0.3846154 0.25 0.3076924 0.125 0.3846155 0.125 0.3846154 0.5 0.3076924 0.375 0.3846154 0.375 0.3846154 0.75 0.3076924 0.6250001 0.3846154 0.6250001 0.3846155 0.875 0.3461539 1 0.3076924 0.8750001 0.346154 0 0.3846155 0.125 0.3076924 0.125 0.3846154 0.25 0.3076924 0.375 0.3076924 0.25 0.3846154 0.5 0.3076924 0.6250001 0.3076924 0.5 0.3846154 0.75 0.3076924 0.8750001 0.3076924 0.75 0.3076924 0.75 0.2307693 0.6250001 0.3076924 0.6250001 0.3076924 0.8750001 0.2692309 1 0.2307693 0.8750001 0.2692309 0 0.3076924 0.125 0.2307693 0.125 0.3076924 0.25 0.2307693 0.375 0.2307693 0.25 0.3076924 0.5 0.2307693 0.6250001 0.2307692 0.5 0.3076924 0.75 0.2307693 0.8750001 0.2307693 0.75 0.3076924 0.25 0.2307693 0.125 0.3076924 0.125 0.3076924 0.5 0.2307693 0.375 0.3076924 0.375 0.1923077 0 0.2307693 0.125 0.1538462 0.125 0.2307693 0.25 0.1538462 0.375 0.1538462 0.25 0.2307692 0.5 0.1538462 0.6250001 0.1538462 0.5 0.2307693 0.75 0.1538462 0.8750001 0.1538462 0.75 0.2307693 0.25 0.1538462 0.125 0.2307693 0.125 0.2307692 0.5 0.1538462 0.375 0.2307693 0.375 0.2307693 0.75 0.1538462 0.6250001 0.2307693 0.6250001 0.2307693 0.8750001 0.1923077 1 0.1538462 0.8750001 0.1538462 0.75 0.07692307 0.8750001 0.07692307 0.75 0.1538462 0.25 0.07692307 0.125 0.1538462 0.125 0.1538462 0.5 0.07692313 0.375 0.1538462 0.375 0.1538462 0.75 0.07692313 0.6250001 0.1538462 0.6250001 0.1538462 0.8750001 0.1153846 1 0.07692307 0.8750001 0.1153846 0 0.1538462 0.125 0.07692307 0.125 0.1538462 0.25 0.07692313 0.375 0.07692307 0.25 0.1538462 0.5 0.07692313 0.6250001 0.07692307 0.5 0.07692307 0.25 0 0.125 0.07692307 0.125 0.07692307 0.5 0 0.375 0.07692313 0.375 0.07692307 0.75 0 0.625 0.07692313 0.6250001 0.07692307 0.8750001 0.0384615 1 0 0.8750001 0.0384615 0 0.07692307 0.125 0 0.125 0.07692307 0.25 0 0.375 0 0.25 0.07692307 0.5 0 0.625 0 0.5 0.07692307 0.75 0 0.8750001 0 0.75 1 0.8750001 0.9615384 1 0.9230769 0.875 0.9615383 0 1 0.125 0.9230769 0.125 1 0.25 0.9230769 0.375 0.9230769 0.25 1 0.5 0.9230769 0.625 0.9230769 0.5 1 0.75 0.9230769 0.875 0.9230769 0.75 1 0.125 0.9230769 0.25 0.9230769 0.125 1 0.5 0.9230769 0.375 1 0.375 1 0.75 0.9230769 0.625 1 0.625 0.9230769 0.25 0.8461539 0.375 0.8461539 0.25 0.9230769 0.5 0.8461539 0.625 0.8461539 0.5 0.9230769 0.75 0.8461539 0.875 0.8461539 0.75 0.9230769 0.125 0.8461539 0.25 0.8461539 0.125 0.9230769 0.5 0.8461539 0.375 0.9230769 0.375 0.9230769 0.75 0.8461539 0.625 0.9230769 0.625 0.9230769 0.875 0.8846153 1 0.8461539 0.875 0.8846153 0 0.9230769 0.125 0.8461539 0.125 0.8461539 0.125 0.7692307 0.25 0.7692307 0.125 0.8461539 0.5 0.7692307 0.375 0.8461539 0.375 0.8461539 0.75 0.7692307 0.625 0.8461539 0.625 0.8461539 0.875 0.8076923 1 0.7692307 0.875 0.8076923 0 0.8461539 0.125 0.7692307 0.125 0.8461539 0.25 0.7692307 0.375 0.7692307 0.25 0.8461539 0.5 0.7692307 0.625 0.7692307 0.5 0.8461539 0.75 0.7692307 0.875 0.7692307 0.75 0.7692307 0.5 0.6923077 0.375 0.7692307 0.375 0.7692307 0.75 0.6923077 0.625 0.7692307 0.625 0.7692307 0.875 0.7307693 1 0.6923077 0.875 0.7307693 0 0.7692307 0.125 0.6923077 0.125 0.7692307 0.25 0.6923077 0.375 0.6923077 0.25 0.7692307 0.5 0.6923077 0.625 0.6923077 0.5 0.7692307 0.875 0.6923077 0.75 0.7692307 0.75 0.7692307 0.125 0.6923077 0.25 0.6923077 0.125 0.6923077 0.875 0.6153847 0.875 0.6153847 0.75 0.6923077 0.125 0.6923077 0.25 0.6153847 0.25 0.6923077 0.5 0.6153847 0.5 0.6153847 0.375 0.6923077 0.75 0.6153847 0.75 0.6153847 0.625 0.6923077 0.25 0.6923077 0.375 0.6153847 0.375 0.6923077 0.5 0.6923077 0.625 0.6153847 0.625 0.6153847 0.5 0.5384616 0.5 0.5384616 0.375 0.6153847 0.75 0.5384616 0.75 0.5384616 0.625 0.6153847 0.25 0.6153847 0.375 0.5384616 0.375 0.6153847 0.5 0.6153847 0.625 0.5384616 0.625 0.6153847 0.75 0.6153847 0.875 0.5384617 0.875 0.6153847 0.25 0.5384616 0.25 0.5384617 0.125 0.5384616 0.375 0.4615385 0.375 0.4615385 0.25 0.5384616 0.5 0.5384616 0.625 0.4615385 0.625 0.5384616 0.75 0.5384617 0.875 0.4615386 0.875 0.5384616 0.25 0.4615385 0.25 0.4615386 0.125 0.5384616 0.5 0.4615385 0.5 0.4615385 0.375 0.5384616 0.625 0.5384616 0.75 0.4615385 0.75 0.4615385 0.5 0.4615385 0.625 0.3846154 0.6250001 0.4615385 0.75 0.4615386 0.875 0.3846155 0.875 0.4615385 0.25 0.3846154 0.25 0.3846155 0.125 0.4615385 0.5 0.3846154 0.5 0.3846154 0.375 0.4615385 0.75 0.3846154 0.75 0.3846154 0.6250001 0.4615385 0.25 0.4615385 0.375 0.3846154 0.375 0.3846154 0.25 0.3076924 0.25 0.3076924 0.125 0.3846154 0.5 0.3076924 0.5 0.3076924 0.375 0.3846154 0.75 0.3076924 0.75 0.3076924 0.6250001 0.3846154 0.25 0.3846154 0.375 0.3076924 0.375 0.3846154 0.5 0.3846154 0.6250001 0.3076924 0.6250001 0.3846154 0.75 0.3846155 0.875 0.3076924 0.8750001 0.3076924 0.75 0.2307693 0.75 0.2307693 0.6250001 0.3076924 0.25 0.3076924 0.375 0.2307693 0.375 0.3076924 0.5 0.3076924 0.6250001 0.2307693 0.6250001 0.3076924 0.75 0.3076924 0.8750001 0.2307693 0.8750001 0.3076924 0.25 0.2307693 0.25 0.2307693 0.125 0.3076924 0.5 0.2307692 0.5 0.2307693 0.375 0.2307693 0.25 0.2307693 0.375 0.1538462 0.375 0.2307692 0.5 0.2307693 0.6250001 0.1538462 0.6250001 0.2307693 0.75 0.2307693 0.8750001 0.1538462 0.8750001 0.2307693 0.25 0.1538462 0.25 0.1538462 0.125 0.2307692 0.5 0.1538462 0.5 0.1538462 0.375 0.2307693 0.75 0.1538462 0.75 0.1538462 0.6250001 0.1538462 0.75 0.1538462 0.8750001 0.07692307 0.8750001 0.1538462 0.25 0.07692307 0.25 0.07692307 0.125 0.1538462 0.5 0.07692307 0.5 0.07692313 0.375 0.1538462 0.75 0.07692307 0.75 0.07692313 0.6250001 0.1538462 0.25 0.1538462 0.375 0.07692313 0.375 0.1538462 0.5 0.1538462 0.6250001 0.07692313 0.6250001 0.07692307 0.25 0 0.25 0 0.125 0.07692307 0.5 0 0.5 0 0.375 0.07692307 0.75 0 0.75 0 0.625 0.07692307 0.25 0.07692313 0.375 0 0.375 0.07692307 0.5 0.07692313 0.6250001 0 0.625 0.07692307 0.75 0.07692307 0.8750001 0 0.8750001 1 0.25 1 0.375 0.9230769 0.375 1 0.5 1 0.625 0.9230769 0.625 1 0.75 1 0.8750001 0.9230769 0.875 1 0.125 1 0.25 0.9230769 0.25 1 0.5 0.9230769 0.5 0.9230769 0.375 1 0.75 0.9230769 0.75 0.9230769 0.625 0.9230769 0.25 0.9230769 0.375 0.8461539 0.375 0.9230769 0.5 0.9230769 0.625 0.8461539 0.625 0.9230769 0.75 0.9230769 0.875 0.8461539 0.875 0.9230769 0.125 0.9230769 0.25 0.8461539 0.25 0.9230769 0.5 0.8461539 0.5 0.8461539 0.375 0.9230769 0.75 0.8461539 0.75 0.8461539 0.625 0.8461539 0.125 0.8461539 0.25 0.7692307 0.25 0.8461539 0.5 0.7692307 0.5 0.7692307 0.375 0.8461539 0.75 0.7692307 0.75 0.7692307 0.625 0.8461539 0.25 0.8461539 0.375 0.7692307 0.375 0.8461539 0.5 0.8461539 0.625 0.7692307 0.625 0.8461539 0.75 0.8461539 0.875 0.7692307 0.875 0.7692307 0.5 0.6923077 0.5 0.6923077 0.375 0.7692307 0.75 0.6923077 0.75 0.6923077 0.625 0.7692307 0.25 0.7692307 0.375 0.6923077 0.375 0.7692307 0.5 0.7692307 0.625 0.6923077 0.625 0.7692307 0.875 0.6923077 0.875 0.6923077 0.75 0.7692307 0.125 0.7692307 0.25 0.6923077 0.25</float_array>
          <technique_common>
            <accessor source="#Sphere-mesh-map-0-array" count="546" stride="2">
              <param name="S" type="float"/>
              <param name="T" type="float"/>
            </accessor>
          </technique_common>
        </source>
        <vertices id="Sphere-mesh-vertices">
          <input semantic="POSITION" source="#Sphere-mesh-positions"/>
        </vertices>
        <triangles material="Material_001-material" count="182">
          <input semantic="VERTEX" source="#Sphere-mesh-vertices" offset="0"/>
          <input semantic="NORMAL" source="#Sphere-mesh-normals" offset="1"/>
          <input semantic="TEXCOORD" source="#Sphere-mesh-map-0" offset="2" set="0"/>
          <p>91 0 0 6 0 1 0 0 2 4 1 3 10 1 4 11 1 5 2 2 6 9 2 7 92 2 8 0 3 9 7 3 10 1 3 11 91 4 12 12 4 13 5 4 14 62 5 15 4 5 16 11 5 17 3 6 18 9 6 19 10 6 20 2 7 21 7 7 22 8 7 23 8 8 24 17 8 25 9 8 26 6 9 27 15 9 28 7 9 29 5 10 30 12 10 31 13 10 32 62 11 33 11 11 34 19 11 35 10 12 36 17 12 37 18 12 38 8 13 39 15 13 40 16 13 41 6 14 42 13 14 43 14 14 44 10 15 45 19 15 46 11 15 47 62 16 48 19 16 49 26 16 50 17 17 51 25 17 52 18 17 53 16 18 54 22 18 55 23 18 56 14 19 57 20 19 58 21 19 59 18 20 60 26 20 61 19 20 62 16 21 63 24 21 64 17 21 65 15 22 66 21 22 67 22 22 68 13 23 69 12 23 70 20 23 71 23 24 72 29 24 73 30 24 74 21 25 75 27 25 76 28 25 77 25 26 78 33 26 79 26 26 80 23 27 81 31 27 82 24 27 83 21 28 84 29 28 85 22 28 86 20 29 87 12 29 88 27 29 89 62 30 90 26 30 91 33 30 92 25 31 93 31 31 94 32 31 95 32 32 96 40 32 97 33 32 98 30 33 99 38 33 100 31 33 101 28 34 102 36 34 103 29 34 104 27 35 105 12 35 106 34 35 107 62 36 108 33 36 109 40 36 110 32 37 111 38 37 112 39 37 113 30 38 114 36 38 115 37 38 116 28 39 117 34 39 118 35 39 119 35 40 120 43 40 121 36 40 122 34 41 123 12 41 124 41 41 125 62 42 126 40 42 127 47 42 128 39 43 129 45 43 130 46 43 131 37 44 132 43 44 133 44 44 134 35 45 135 41 45 136 42 45 137 39 46 138 47 46 139 40 46 140 37 47 141 45 47 142 38 47 143 62 48 144 47 48 145 54 48 146 46 49 147 52 49 148 53 49 149 44 50 150 50 50 151 51 50 152 42 51 153 48 51 154 49 51 155 46 52 156 54 52 157 47 52 158 44 53 159 52 53 160 45 53 161 42 54 162 50 54 163 43 54 164 41 55 165 12 55 166 48 55 167 49 56 168 55 56 169 56 56 170 53 57 171 61 57 172 54 57 173 51 58 174 59 58 175 52 58 176 49 59 177 57 59 178 50 59 179 48 60 180 12 60 181 55 60 182 62 61 183 54 61 184 61 61 185 53 62 186 59 62 187 60 62 188 51 63 189 57 63 190 58 63 191 60 64 192 69 64 193 61 64 194 58 65 195 67 65 196 59 65 197 56 66 198 65 66 199 57 66 200 55 67 201 12 67 202 63 67 203 62 68 204 61 68 205 69 68 206 60 69 207 67 69 208 68 69 209 58 70 210 65 70 211 66 70 212 56 71 213 63 71 214 64 71 215 63 72 216 12 72 217 70 72 218 62 73 219 69 73 220 76 73 221 68 74 222 74 74 223 75 74 224 66 75 225 72 75 226 73 75 227 64 76 228 70 76 229 71 76 230 69 77 231 75 77 232 76 77 233 66 78 234 74 78 235 67 78 236 64 79 237 72 79 238 65 79 239 75 80 240 81 80 241 82 80 242 73 81 243 79 81 244 80 81 245 71 82 246 77 82 247 78 82 248 76 83 249 82 83 250 83 83 251 73 84 252 81 84 253 74 84 254 71 85 255 79 85 256 72 85 257 70 86 258 12 86 259 77 86 260 62 87 261 76 87 262 83 87 263 83 88 264 89 88 265 90 88 266 80 89 267 88 89 268 81 89 269 78 90 270 86 90 271 79 90 272 77 91 273 12 91 274 84 91 275 62 92 276 83 92 277 90 92 278 82 93 279 88 93 280 89 93 281 80 94 282 86 94 283 87 94 284 78 95 285 84 95 286 85 95 287 87 96 288 92 96 289 88 96 290 85 97 291 1 97 292 86 97 293 84 98 294 12 98 295 91 98 296 62 99 297 90 99 298 4 99 299 89 100 300 92 100 301 3 100 302 87 101 303 1 101 304 2 101 305 84 102 306 0 102 307 85 102 308 90 103 309 3 103 310 4 103 311 91 104 312 5 104 313 6 104 314 4 105 315 3 105 316 10 105 317 2 106 318 8 106 319 9 106 320 0 107 321 6 107 322 7 107 323 3 108 324 92 108 325 9 108 326 2 109 327 1 109 328 7 109 329 8 110 330 16 110 331 17 110 332 6 111 333 14 111 334 15 111 335 10 112 336 9 112 337 17 112 338 8 113 339 7 113 340 15 113 341 6 114 342 5 114 343 13 114 344 10 115 345 18 115 346 19 115 347 17 116 348 24 116 349 25 116 350 16 117 351 15 117 352 22 117 353 14 118 354 13 118 355 20 118 356 18 119 357 25 119 358 26 119 359 16 120 360 23 120 361 24 120 362 15 121 363 14 121 364 21 121 365 23 122 366 22 122 367 29 122 368 21 123 369 20 123 370 27 123 371 25 124 372 32 124 373 33 124 374 23 125 375 30 125 376 31 125 377 21 126 378 28 126 379 29 126 380 25 127 381 24 127 382 31 127 383 32 128 384 39 128 385 40 128 386 30 129 387 37 129 388 38 129 389 28 130 390 35 130 391 36 130 392 32 131 393 31 131 394 38 131 395 30 132 396 29 132 397 36 132 398 28 133 399 27 133 400 34 133 401 35 134 402 42 134 403 43 134 404 39 135 405 38 135 406 45 135 407 37 136 408 36 136 409 43 136 410 35 137 411 34 137 412 41 137 413 39 138 414 46 138 415 47 138 416 37 139 417 44 139 418 45 139 419 46 140 420 45 140 421 52 140 422 44 141 423 43 141 424 50 141 425 42 142 426 41 142 427 48 142 428 46 143 429 53 143 430 54 143 431 44 144 432 51 144 433 52 144 434 42 145 435 49 145 436 50 145 437 49 146 438 48 146 439 55 146 440 53 147 441 60 147 442 61 147 443 51 148 444 58 148 445 59 148 446 49 149 447 56 149 448 57 149 449 53 150 450 52 150 451 59 150 452 51 151 453 50 151 454 57 151 455 60 152 456 68 152 457 69 152 458 58 153 459 66 153 460 67 153 461 56 154 462 64 154 463 65 154 464 60 155 465 59 155 466 67 155 467 58 156 468 57 156 469 65 156 470 56 157 471 55 157 472 63 157 473 68 158 474 67 158 475 74 158 476 66 159 477 65 159 478 72 159 479 64 160 480 63 160 481 70 160 482 69 161 483 68 161 484 75 161 485 66 162 486 73 162 487 74 162 488 64 163 489 71 163 490 72 163 491 75 164 492 74 164 493 81 164 494 73 165 495 72 165 496 79 165 497 71 166 498 70 166 499 77 166 500 76 167 501 75 167 502 82 167 503 73 168 504 80 168 505 81 168 506 71 169 507 78 169 508 79 169 509 83 170 510 82 170 511 89 170 512 80 171 513 87 171 514 88 171 515 78 172 516 85 172 517 86 172 518 82 173 519 81 173 520 88 173 521 80 174 522 79 174 523 86 174 524 78 175 525 77 175 526 84 175 527 87 176 528 2 176 529 92 176 530 85 177 531 0 177 532 1 177 533 89 178 534 88 178 535 92 178 536 87 179 537 86 179 538 1 179 539 84 180 540 91 180 541 0 180 542 90 181 543 89 181 544 3 181 545</p>
        </triangles>
      </mesh>
    </geometry>
  </library_geometries>
  <library_visual_scenes>
    <visual_scene id="Scene" name="Scene">
      <node id="Sphere" name="Sphere" type="NODE">
        <matrix sid="transform">1 0 0 0 0 1 0 0 0 0 1 0 0 0 0 1</matrix>
        <instance_geometry url="#Sphere-mesh" name="Sphere">
          <bind_material>
            <technique_common>
              <instance_material symbol="Material_001-material" target="#Material_001-material">
                <bind_vertex_input semantic="UVMap" input_semantic="TEXCOORD" input_set="0"/>
              </instance_material>
            </technique_common>
          </bind_material>
        </instance_geometry>
      </node>
    </visual_scene>
  </library_visual_scenes>
  <scene>
    <instance_visual_scene url="#Scene"/>
  </scene>
</COLLADA>