<?xml version="1.0" encoding="utf-8"?>
<COLLADA xmlns="http://www.collada.org/2005/11/COLLADASchema" version="1.4.1" xmlns:xsi="http://www.w3.org/2001/XMLSchema-instance">
  <asset>
    <contributor>
      <author>Blender User</author>
      <authoring_tool>Blender 2.80.57 commit date:2019-04-15, commit time:23:42, hash:5ac7675f4c9c</authoring_tool>
    </contributor>
    <created>2019-04-18T19:43:31</created>
    <modified>2019-04-18T19:43:31</modified>
    <unit name="meter" meter="1"/>
    <up_axis>Z_UP</up_axis>
  </asset>
  <library_effects>
    <effect id="Material-effect">
      <profile_COMMON>
        <newparam sid="Material_Base_Color-surface">
          <surface type="2D">
            <init_from>Material_Base_Color</init_from>
          </surface>
        </newparam>
        <newparam sid="Material_Base_Color-sampler">
          <sampler2D>
            <source>Material_Base_Color-surface</source>
          </sampler2D>
        </newparam>
        <technique sid="common">
          <lambert>
            <diffuse>
              <texture texture="Material_Base_Color-sampler" texcoord="UVMap"/>
            </diffuse>
            <reflectivity>
              <float sid="specular">0.5</float>
            </reflectivity>
          </lambert>
        </technique>
      </profile_COMMON>
    </effect>
  </library_effects>
  <library_images>
    <image id="Material_Base_Color" name="Material_Base_Color">
      <init_from>Material%20Base%20Color.png</init_from>
    </image>
  </library_images>
  <library_materials>
    <material id="Material-material" name="Material">
      <instance_effect url="#Material-effect"/>
    </material>
  </library_materials>
  <library_geometries>
    <geometry id="Cube_005-mesh" name="Cube.005">
      <mesh>
        <source id="Cube_005-mesh-positions">
          <float_array id="Cube_005-mesh-positions-array" count="432">1.000011 0.9999998 0.9999983 1.000012 1 -1.000002 1.000011 -1 0.9999983 1.000011 -1 -1.000002 -0.9999886 0.9999999 0.9999983 -0.9999886 1 -1.000002 -0.9999886 -1 0.9999983 -0.9999886 -1 -1.000002 -1.030479 1.014641 -1.030493 -1.030479 -1.046341 -1.030493 1.030503 1.014641 1.03049 1.030502 1.014641 -1.030493 -1.030481 -1.046341 1.03049 1.030502 -1.046341 1.03049 1.030502 -1.046342 -1.030493 -1.03048 1.014641 1.03049 -1.20039 1.014641 -1.030493 -1.200389 -1.087711 -1.030493 1.200413 1.014641 1.03049 1.200414 1.014641 -1.030493 -1.200389 -1.087711 1.03049 1.200413 -1.087711 1.03049 1.200414 -1.087711 -1.030493 -1.20039 1.014641 1.03049 -13.14017 1.251055 0.9999986 -13.14017 1.251055 -1.000001 -13.12302 -0.748941 0.9999984 -13.12302 -0.748941 -1.000002 -15.14017 1.250023 0.9999985 -15.14017 1.250023 -1.000002 -15.12302 -0.7499718 0.9999985 -15.12302 -0.7499719 -1.000002 -15.17078 1.264649 -1.030493 -15.15311 -0.7963289 -1.030493 -13.1098 1.265712 1.03049 -13.1098 1.265712 -1.030493 -15.15311 -0.7963287 1.03049 -13.09213 -0.7952664 1.03049 -13.09213 -0.7952666 -1.030493 -15.17078 1.264649 1.03049 -15.34069 1.264562 -1.030493 -15.32266 -0.837786 -1.030493 -12.93989 1.265799 1.03049 -12.9399 1.265799 -1.030493 -15.32266 -0.8377858 1.03049 -12.92187 -0.8365483 1.03049 -12.92187 -0.8365483 -1.030493 -15.34069 1.264562 1.03049 -10.51736 1.179336 0.9999985 -10.51736 1.179336 -1.000002 -10.59615 -0.820571 0.9999985 -10.59615 -0.8205711 -1.000001 -12.51727 1.184072 0.9999986 -12.51727 1.184072 -1.000002 -12.59605 -0.8158347 0.9999986 -12.59605 -0.8158347 -1.000001 -12.54718 1.198785 -1.030493 -12.62837 -0.8621016 -1.030493 -10.4863 1.193904 1.03049 -10.4863 1.193904 -1.030493 -12.62837 -0.8621014 1.03049 -10.56748 -0.8669823 1.03049 -10.56748 -0.8669824 -1.030493 -12.54718 1.198785 1.03049 -12.71708 1.199187 -1.030493 -12.7999 -0.9030669 -1.030493 -10.31639 1.193502 1.03049 -10.31639 1.193502 -1.030493 -12.7999 -0.9030668 1.03049 -10.39921 -0.9087523 1.03049 -10.39921 -0.9087524 -1.030493 -12.71708 1.199187 1.03049 -7.235562 1.140235 0.9999985 -7.235562 1.140235 -1.000002 -8.132475 -0.8476372 0.9999985 -8.132475 -0.8476372 -1.000002 -9.223435 1.194157 0.9999985 -9.223435 1.194157 -1.000002 -10.12035 -0.7937154 0.9999985 -10.12035 -0.7937154 -1.000002 -9.247175 1.209532 -1.030493 -10.17143 -0.8389536 -1.030493 -7.198689 1.153966 1.03049 -7.198689 1.153966 -1.030493 -10.17144 -0.8389535 1.03049 -8.122951 -0.8945195 1.03049 -8.12295 -0.8945197 -1.030493 -9.247176 1.209532 1.03049 -9.416054 1.214113 -1.030493 -10.35887 -0.8754913 -1.030493 -7.02981 1.149385 1.03049 -7.02981 1.149385 -1.030493 -10.35887 -0.8754912 1.03049 -7.972623 -0.9402191 1.03049 -7.972623 -0.9402192 -1.030493 -9.416055 1.214113 1.03049 -4.703284 1.036412 0.9999985 -4.703284 1.036412 -1.000001 -5.014792 -1.226991 0.9999985 -5.014791 -1.226992 -1.000002 -6.702987 1.052958 0.9999985 -6.702986 1.052958 -1.000002 -7.014494 -1.210446 0.9999985 -7.014494 -1.210446 -1.000002 -6.731193 1.06978 -1.030493 -7.052198 -1.262638 -1.030493 -4.670517 1.052729 1.03049 -4.670517 1.052729 -1.030493 -7.052198 -1.262638 1.03049 -4.991522 -1.279688 1.03049 -4.991523 -1.279688 -1.030493 -6.731193 1.06978 1.03049 -6.901077 1.071185 -1.030493 -7.228526 -1.30805 -1.030493 -4.500633 1.051324 1.03049 -4.500632 1.051324 -1.030493 -7.228526 -1.30805 1.03049 -4.828083 -1.327912 1.03049 -4.828082 -1.327912 -1.030493 -6.901077 1.071185 1.03049 -2.159893 1.156617 0.9999985 -2.159893 1.156618 -1.000001 -1.553347 -0.8378452 0.9999986 -1.553347 -0.8378452 -1.000002 -4.154357 1.120152 0.9999985 -4.154356 1.120152 -1.000002 -3.54781 -0.8743105 0.9999986 -3.54781 -0.8743105 -1.000002 -4.189203 1.134197 -1.030493 -3.564163 -0.9210796 -1.030493 -2.133927 1.171774 1.03049 -2.133926 1.171774 -1.030493 -3.564162 -0.9210795 1.03049 -1.508885 -0.8835023 1.03049 -1.508886 -0.8835024 -1.030493 -4.189204 1.134197 1.03049 -4.358644 1.131099 -1.030493 -3.721056 -0.9654324 -1.030493 -1.964488 1.174872 1.03049 -1.964487 1.174872 -1.030493 -3.721056 -0.9654324 1.03049 -1.3269 -0.9216594 1.03049 -1.3269 -0.9216595 -1.030493 -4.358643 1.131099 1.03049</float_array>
          <technique_common>
            <accessor source="#Cube_005-mesh-positions-array" count="144" stride="3">
              <param name="X" type="float"/>
              <param name="Y" type="float"/>
              <param name="Z" type="float"/>
            </accessor>
          </technique_common>
        </source>
        <source id="Cube_005-mesh-normals">
          <float_array id="Cube_005-mesh-normals-array" count="786">0 0 1 0 0.5496686 0.8353829 0 0.5496656 -0.8353849 0 0 -1 0.4328615 0.9014604 0 0 1 1.19209e-7 0 0 -1 7.01602e-7 0 -1 -7.01605e-7 1 0 -0.4328818 0.9014508 -1.6521e-7 -0.7071135 0 -0.7071 0.7071127 0 -0.7071009 0.7070944 0 0.7071192 -0.7071015 0 0.707112 0 -1 0 -1 -4.402e-7 -2.31364e-7 1 0 4.62728e-7 0 2.88155e-6 -1 0 -3.28943e-6 1 0 1 0 -1.3349e-6 0 1 7.01604e-7 0 1 0 0 1 -2.83269e-4 0.5496649 0.8353853 -2.83328e-4 0.5496629 -0.8353866 1.78814e-7 0 -1 0.4310703 0.9023185 0 -5.15521e-4 0.9999999 0 1.3349e-6 0 -1 -4.001e-7 0 -1 -5.15683e-4 0.9999999 0 -0.4346715 0.9005892 0 -0.7070875 -0.006063044 -0.7071001 0.7070966 0.006063818 -0.707091 0.70709 0.006062567 0.7070977 -0.7070924 -0.006062388 0.7070952 5.15533e-4 -0.9999999 0 -0.9999634 -0.008573114 -4.62001e-7 0.9999633 0.008573889 0 0 -2.6445e-6 -1 0 3.08593e-6 1 -5.1568e-4 1 0 1.33491e-6 0 1 -1.76328e-6 0 1 1.19209e-7 0 1 0.001301646 0.5496448 0.8353975 0.001301705 0.5496481 -0.8353953 0 0 -1 0.4413492 0.8973354 -2.23494e-7 0.00236833 0.9999973 0 2.66979e-6 0 -1 -1.96324e-6 0 -1 0.002366542 0.9999972 0 -0.4245661 0.9053971 1.7272e-7 -0.7068168 0.02784365 -0.7068486 0.7068244 -0.02784425 -0.7068409 0.706795 -0.02784365 0.7068703 -0.7068135 0.02784353 0.7068517 -0.002368271 -0.9999972 0 -0.999225 0.03936284 0 0.9992251 -0.03936302 0 0 -1.1114e-5 -1 0 2.88143e-6 1 0.002367317 0.9999973 0 -1.3349e-6 0 1 -1.29603e-6 1.98588e-7 1 0 0 1 0.01484501 0.5472719 0.8368234 0.01484495 0.5472706 -0.8368241 0 0 -1 0.5435616 0.8393693 0 0.02711546 0.9996324 1.19892e-7 2.14892e-6 -9.95093e-7 -1 -5.55845e-7 8.86425e-7 -1 0.02711647 0.9996323 0 -0.3489778 0.937131 0 -0.6717848 0.3031028 -0.675895 0.6717982 -0.3031092 -0.6758788 0.6717875 -0.3031079 0.67589 -0.6717844 0.3031042 0.6758947 -0.02711546 -0.9996324 0 -0.9115144 0.4112684 0 0.9115145 -0.4112681 1.89233e-7 -3.00064e-7 -5.7282e-6 -1 1.7477e-7 5.72821e-6 1 0.02711486 0.9996324 0 2.66978e-6 -6.91826e-7 1 -1.3349e-6 6.2928e-7 1 0 0 1 0.004155278 0.502195 0.8647444 0.004155099 0.502191 -0.8647468 0 0 -1 0.5122085 0.8588612 0 0.008273839 0.9999658 1.19223e-7 -1.17838e-6 0 -1 -3.26333e-7 0 -1 0.008273482 0.9999659 0 -0.4457763 0.8951444 0 -0.7034394 0.09681302 -0.7041309 0.7034357 -0.0968126 -0.7041347 0.7034407 -0.09681314 0.7041296 -0.7034403 0.09681284 0.7041299 -0.00827378 -0.9999659 0 -0.9906619 0.1363423 0 0.9906617 -0.1363431 4.57591e-7 0 -2.54333e-6 -1 1.54278e-7 5.08668e-6 1 0.008274912 0.9999658 0 1.17838e-6 0 1 -9.24418e-7 1.9293e-7 1 0 0 1 -0.01002967 0.5485693 0.836045 -0.01002973 0.5485725 -0.836043 1.19209e-7 0 -1 0.3738334 0.9274959 1.98309e-7 -0.0182802 0.9998329 1.1952e-7 1.33489e-6 4.25554e-7 -1 -1.33489e-6 -4.82099e-7 -1 -0.01828086 0.9998329 1.37346e-7 -0.5041107 0.8636391 0 -0.6903983 -0.2099598 -0.6922912 0.6903881 0.2099584 -0.6923018 0.6903921 0.2099586 0.6922978 -0.6903939 -0.2099582 0.6922962 0.01828008 -0.9998329 0 -0.9567357 -0.2909583 4.2655e-7 0.956736 0.2909577 2.04563e-7 -1.7477e-7 -5.52784e-6 -1 -3.00064e-7 5.96563e-6 1 -0.01828008 0.9998329 0 6.17012e-7 4.25554e-7 1 2.53987e-7 -2.70459e-7 1 -1.95504e-7 0.5496643 0.8353857 0 0.5496625 -0.8353868 0 0 -1 0.4328686 0.901457 1.86844e-7 0 1 0 -1.36167e-6 0 -1 1.33489e-6 0 -1 -7.01601e-7 1 0 -0.4328621 0.9014602 2.93714e-7 -0.7071232 3.88769e-7 -0.7070904 0.7071109 0 -0.7071027 0.7071036 0 0.70711 -0.7071186 4.15164e-7 0.7070949 0 -1 0 -1 -2.201e-7 0 1 0 4.04887e-7 0 2.03937e-7 -1 -1.74769e-7 -2.40645e-6 1 -7.01604e-7 1 1.70211e-7 2.06329e-6 0 1 1.33489e-6 0 1 0 0 1 -2.8326e-4 0.549664 0.8353858 -2.83295e-4 0.5496633 -0.8353862 0 0 -1 0.4310145 0.902345 0 -5.15522e-4 0.9999999 0 2.32329e-6 0 -1 0 0 -1 -5.15689e-4 0.9999999 1.70214e-7 -0.4346983 0.9005761 2.20968e-7 -0.7070864 -0.006062984 -0.7071013 0.7070786 0.006063342 -0.707109 0.7070983 0.006063103 0.7070893 -0.7070932 -0.006063461 0.7070944 5.15483e-4 -1 1.30209e-7 -0.9999632 -0.008574783 0 0.9999632 0.008574962 -4.62753e-7 0 -5.76315e-6 -1 1.74769e-7 2.6445e-6 1 -5.15689e-4 0.9999999 0 9.60065e-7 0 1 -2.6698e-6 0 1 0 0 1 0.001301705 0.5496449 0.8353975 0.001301705 0.5496501 -0.835394 0 0 -1 0.4413447 0.8973378 -2.04845e-7 0.002368271 0.9999973 0 7.60127e-7 0 -1 -1.3349e-6 0 -1 0.002367317 0.9999972 0 -0.4245902 0.9053858 0 -0.7068296 0.02784383 -0.7068356 0.7068111 -0.02784389 -0.7068542 0.7068194 -0.02784371 0.7068459 -0.7068249 0.02784472 0.7068404 -0.002368271 -0.9999972 0 -0.999225 0.03936213 0 0.999225 -0.03936302 0 0 -5.76287e-6 -1 1.40654e-7 5.55697e-6 1 0.002367973 0.9999972 0 4.19175e-6 0 1 -1.33489e-6 0 1 0 0 1 0.01484477 0.5472689 0.8368252 0.01484501 0.547273 -0.8368225 0 0 -1 0.543531 0.8393892 2.09611e-7 0.0271154 0.9996324 0 4.00469e-6 -1.00028e-6 -1 -1.33488e-6 6.29273e-7 -1 0.02711683 0.9996323 0 -0.3489544 0.9371398 0 -0.6717875 0.3031057 -0.6758909 0.6717875 -0.3031098 -0.6758891 0.6717913 -0.3031039 0.675888 -0.6717898 0.3031067 0.6758882 -0.02711546 -0.9996324 0 -0.9115144 0.4112684 -4.27056e-7 0.9115144 -0.4112681 0 -1.74769e-7 -8.80246e-6 -1 0 5.72821e-6 1 0.02711576 0.9996323 0 -4.78718e-7 -6.86766e-7 1 -2.38294e-6 6.29275e-7 1 0 0 1 0.004155099 0.5021959 0.864744 0.004155337 0.502193 -0.8647456 0 0 -1 0.5122225 0.8588529 0 3.24278e-6 -5.39013e-7 -1 -1.17838e-6 0 -1 0.008273601 0.9999658 0 -0.4457748 0.8951452 0 -0.703442 0.09681349 -0.7041282 0.7034384 -0.09681266 -0.704132 0.703445 -0.09681338 0.7041252 -0.7034255 0.09681075 0.704145 -0.008273839 -0.9999658 0 -0.9906619 0.1363424 0 0.9906619 -0.1363424 2.28754e-7 0 -2.54335e-6 -1 -1.32441e-7 2.73016e-6 1 0.008274257 0.9999658 0 -3.04617e-7 0 1 -2.35677e-6 1.92931e-7 1 0 0 1 -0.01002961 0.5485709 0.8360439 -0.01002961 0.5485728 -0.8360427 0 0 -1 0.373808 0.9275061 1.30325e-7 -0.01828014 0.9998329 0 2.32976e-6 4.25555e-7 -1 -7.65951e-7 -4.78965e-7 -1 -0.01828014 0.9998329 0 -0.5041198 0.8636338 0 -0.6903924 -0.2099575 -0.6922978 0.6903793 0.2099548 -0.6923118 0.6903877 0.2099586 0.6923022 -0.6903776 -0.2099548 0.6923134 0.01828014 -0.999833 0 -0.9567361 -0.2909574 0 0.9567359 0.2909582 -4.61826e-7 2.25048e-7 -5.96563e-6 -1 1.74769e-7 5.52783e-6 1 -0.0182808 0.999833 0 1.3349e-6 2.69324e-7 1 -2.66978e-6 -4.25555e-7 1</float_array>
          <technique_common>
            <accessor source="#Cube_005-mesh-normals-array" count="262" stride="3">
              <param name="X" type="float"/>
              <param name="Y" type="float"/>
              <param name="Z" type="float"/>
            </accessor>
          </technique_common>
        </source>
        <source id="Cube_005-mesh-map-0">
          <float_array id="Cube_005-mesh-map-0-array" count="1584">0.8931773 0.6470755 0.8158798 0.7243731 0.8158798 0.6470755 0.8931773 0.7243731 0.8158798 0.7243731 0.8158798 0.7243731 0.8931773 0.9562659 0.8158798 0.9562659 0.8158798 0.9562659 0.8150442 0.8785208 0.8939402 0.9574167 0.8150442 0.9574167 0.8931773 0.8016706 0.9704751 0.8016706 0.9704751 0.8016706 0.8931773 0.8016706 0.9704751 0.8789683 0.8931773 0.8789683 0.8931773 0.9562659 0.8931773 0.8789683 0.8931773 0.9562659 0.8150442 0.9574167 0.8150442 0.8785208 0.8150442 0.8785208 0.9704751 0.8016706 0.8931773 0.8016706 0.9704751 0.8016706 0.9704751 0.8789683 0.8931773 0.8789683 0.8931773 0.8789683 0.8931773 0.9562659 0.8931773 0.8789683 0.8931773 0.9562659 0.8150442 0.9574167 0.8150442 0.8785208 0.8150442 0.8785208 0.8931773 0.7243731 0.8931773 0.6470755 0.8931773 0.7243731 0.8158798 0.7243731 0.8158798 0.6470755 0.8158798 0.6470755 0.8931773 0.7243731 0.8158798 0.8016706 0.8158798 0.7243731 0.8931773 0.8016706 0.8158798 0.8789683 0.8158798 0.8016706 0.8158798 0.8016706 0.7385823 0.8789683 0.7385823 0.8016706 0.8931773 0.9562659 0.8158798 0.9562659 0.8158798 0.9562659 0.8158798 0.7243731 0.8931773 0.7243731 0.8158798 0.7243731 0.8931773 0.8789683 0.9704751 0.8789683 0.8931773 0.8789683 0.8931773 0.7243731 0.8931773 0.6470755 0.8931773 0.7243731 0.8158798 0.7243731 0.8158798 0.6470755 0.8158798 0.6470755 0.1232153 0.6268212 0.2074517 0.7110576 0.1232153 0.7110576 0.1232153 0.7110576 0.2074517 0.7110576 0.1232153 0.7110576 0.2074517 0.9637668 0.1232153 0.9637668 0.1232153 0.9637668 0.2074517 0.8795304 0.1232153 0.9637668 0.1232153 0.8795304 0.2074517 0.7952939 0.2916882 0.7952939 0.2916882 0.7952939 0.2916882 0.7952939 0.2074517 0.8795304 0.2074517 0.7952939 0.2074517 0.9637668 0.2074517 0.8795304 0.2074517 0.9637668 0.1232153 0.9637668 0.1232153 0.8795304 0.1232153 0.8795304 0.2074517 0.7952939 0.2916882 0.7952939 0.2916882 0.7952939 0.2074517 0.8795304 0.2916882 0.8795304 0.2074517 0.8795304 0.2074517 0.9637668 0.2074517 0.8795304 0.2074517 0.9637668 0.1232153 0.9637668 0.1232153 0.8795304 0.1232153 0.8795304 0.2074517 0.7110576 0.2074517 0.6268212 0.2074517 0.7110576 0.1232153 0.7110576 0.1232153 0.6268212 0.1232153 0.6268212 0.2074517 0.7110576 0.1232153 0.7952939 0.1232153 0.7110576 0.2074517 0.7952939 0.1232153 0.8795304 0.1232153 0.7952939 0.03897887 0.7952939 0.1232153 0.8795304 0.03897887 0.8795304 0.2074517 0.9637668 0.1232153 0.9637668 0.1232153 0.9637668 0.1232153 0.7110576 0.2074517 0.7110576 0.1232153 0.7110576 0.2916882 0.8795304 0.2074517 0.8795304 0.2074517 0.8795304 0.2074517 0.7110576 0.2074517 0.6268212 0.2074517 0.7110576 0.1232153 0.7110576 0.1232153 0.6268212 0.1232153 0.6268212 0.7537022 0.1597726 0.6787022 0.2347727 0.6787022 0.1597726 0.7537022 0.2347727 0.6787022 0.2347727 0.6787022 0.2347727 0.6787022 0.4597727 0.7537022 0.4597727 0.6787022 0.4597727 0.6787022 0.3847727 0.7537022 0.4597727 0.6787022 0.4597727 0.7537022 0.3097727 0.8287022 0.3097727 0.8287022 0.3097727 0.8287022 0.3097727 0.7537022 0.3847727 0.7537022 0.3097727 0.7537022 0.4597727 0.7537022 0.3847727 0.7537022 0.4597727 0.6787022 0.4597727 0.6787022 0.3847727 0.6787022 0.3847727 0.8287022 0.3097727 0.7537022 0.3097727 0.8287022 0.3097727 0.7537022 0.3847727 0.8287022 0.3847727 0.7537022 0.3847727 0.7537022 0.4597727 0.7537022 0.3847727 0.7537022 0.4597727 0.6787022 0.4597727 0.6787022 0.3847727 0.6787022 0.3847727 0.7537022 0.2347727 0.7537022 0.1597726 0.7537022 0.2347727 0.6787022 0.2347727 0.6787022 0.1597726 0.6787022 0.1597726 0.7537022 0.2347727 0.6787022 0.3097727 0.6787022 0.2347727 0.7537022 0.3097727 0.6787022 0.3847727 0.6787022 0.3097727 0.6037022 0.3097727 0.6787022 0.3847727 0.6037022 0.3847727 0.6787022 0.4597727 0.7537022 0.4597727 0.6787022 0.4597727 0.7537022 0.2347727 0.6787022 0.2347727 0.6787022 0.2347727 0.8287022 0.3847727 0.7537022 0.3847727 0.7537022 0.3847727 0.7537022 0.2347727 0.7537022 0.1597726 0.7537022 0.2347727 0.6787022 0.2347727 0.6787022 0.1597726 0.6787022 0.1597726 0.5221601 0.03732049 0.4581536 0.101327 0.4581536 0.03732049 0.5221601 0.101327 0.4581536 0.101327 0.4581536 0.101327 0.4581536 0.2933465 0.5221601 0.2933465 0.4581536 0.2933465 0.4581536 0.22934 0.5221601 0.2933465 0.4581536 0.2933465 0.5221601 0.1653335 0.5861666 0.1653335 0.5861666 0.1653335 0.5861666 0.1653335 0.5221601 0.22934 0.5221601 0.1653335 0.5221601 0.22934 0.5221601 0.2933465 0.5221601 0.2933465 0.4581536 0.2933465 0.4581536 0.22934 0.4581536 0.22934 0.5861666 0.1653335 0.5221601 0.1653335 0.5861666 0.1653335 0.5221601 0.22934 0.5861666 0.22934 0.5221601 0.22934 0.5221601 0.2933465 0.5221601 0.22934 0.5221601 0.2933465 0.4581536 0.2933465 0.4581536 0.22934 0.4581536 0.22934 0.5221601 0.101327 0.5221601 0.03732049 0.5221601 0.101327 0.4581536 0.101327 0.4581536 0.03732049 0.4581536 0.03732049 0.5221601 0.101327 0.4581536 0.1653335 0.4581536 0.101327 0.5221601 0.1653335 0.4581536 0.22934 0.4581536 0.1653335 0.4581536 0.1653335 0.3941471 0.22934 0.3941471 0.1653335 0.4581536 0.2933465 0.5221601 0.2933465 0.4581536 0.2933465 0.5221601 0.101327 0.4581536 0.101327 0.4581536 0.101327 0.5861666 0.22934 0.5221601 0.22934 0.5221601 0.22934 0.5221601 0.101327 0.5221601 0.03732049 0.5221601 0.101327 0.4581536 0.03732049 0.4581536 0.101327 0.4581536 0.03732049 0.2091808 0.06376767 0.1017999 0.1711485 0.1017999 0.06376767 0.2091808 0.1711485 0.1017999 0.1711485 0.1017999 0.1711485 0.1017999 0.4932913 0.2091808 0.4932913 0.1017999 0.4932913 0.1017999 0.3859105 0.2091808 0.4932913 0.1017999 0.4932913 0.3165618 0.2785295 0.2091808 0.2785295 0.3165618 0.2785295 0.2091808 0.2785295 0.3165618 0.3859105 0.2091808 0.3859105 0.2091808 0.4932913 0.2091808 0.3859105 0.2091808 0.4932913 0.1017999 0.4932913 0.1017999 0.3859105 0.1017999 0.3859105 0.3165618 0.2785295 0.2091808 0.2785295 0.3165618 0.2785295 0.2091808 0.3859105 0.3165618 0.3859105 0.2091808 0.3859105 0.2091808 0.4932913 0.2091808 0.3859105 0.2091808 0.4932913 0.1017999 0.4932913 0.1017999 0.3859105 0.1017999 0.3859105 0.2091808 0.1711485 0.2091808 0.06376767 0.2091808 0.1711485 0.1017999 0.1711485 0.1017999 0.06376767 0.1017999 0.06376767 0.2091808 0.1711485 0.1017999 0.2785295 0.1017999 0.1711485 0.2091808 0.2785295 0.1017999 0.3859105 0.1017999 0.2785295 0.1017999 0.2785295 -0.005580961 0.3859105 -0.005580961 0.2785295 0.1017999 0.4932913 0.2091808 0.4932913 0.1017999 0.4932913 0.2091808 0.1711485 0.1017999 0.1711485 0.1017999 0.1711485 0.3165618 0.3859105 0.2091808 0.3859105 0.2091808 0.3859105 0.2091808 0.1711485 0.2091808 0.06376767 0.2091808 0.1711485 0.1017999 0.1711485 0.1017999 0.06376767 0.1017999 0.06376767 0.4361095 0.6233987 0.524518 0.7118071 0.4361095 0.7118071 0.4361095 0.7118071 0.524518 0.7118071 0.4361095 0.7118071 0.524518 0.9770324 0.4361095 0.9770324 0.4361095 0.9770324 0.524518 0.888624 0.4361095 0.9770324 0.4361095 0.888624 0.524518 0.8002156 0.6129264 0.8002156 0.6129264 0.8002156 0.524518 0.8002156 0.6129264 0.888624 0.524518 0.888624 0.524518 0.9770324 0.524518 0.888624 0.524518 0.9770324 0.4361095 0.888624 0.4361095 0.9770324 0.4361095 0.888624 0.6129264 0.8002156 0.524518 0.8002156 0.6129264 0.8002156 0.524518 0.888624 0.6129264 0.888624 0.524518 0.888624 0.524518 0.9770324 0.524518 0.888624 0.524518 0.9770324 0.4361095 0.9770324 0.4361095 0.888624 0.4361095 0.888624 0.524518 0.7118071 0.524518 0.6233987 0.524518 0.7118071 0.4361095 0.7118071 0.4361095 0.6233987 0.4361095 0.6233987 0.4361095 0.7118071 0.524518 0.8002156 0.4361095 0.8002156 0.4361095 0.8002156 0.524518 0.888624 0.4361095 0.888624 0.4361095 0.8002156 0.3477011 0.888624 0.3477011 0.8002156 0.524518 0.9770324 0.4361095 0.9770324 0.4361095 0.9770324 0.4361095 0.7118071 0.524518 0.7118071 0.4361095 0.7118071 0.6129264 0.888624 0.524518 0.888624 0.524518 0.888624 0.524518 0.6233987 0.524518 0.7118071 0.524518 0.7118071 0.4361095 0.7118071 0.4361095 0.6233987 0.4361095 0.6233987 0.8931773 0.6470755 0.8931773 0.7243731 0.8158798 0.7243731 0.8931773 0.7243731 0.8931773 0.7243731 0.8158798 0.7243731 0.8931773 0.9562659 0.8931773 0.9562659 0.8158798 0.9562659 0.8150442 0.8785208 0.8939402 0.8785208 0.8939402 0.9574167 0.8931773 0.8016706 0.8931773 0.8016706 0.9704751 0.8016706 0.8931773 0.8016706 0.9704751 0.8016706 0.9704751 0.8789683 0.8931773 0.9562659 0.8931773 0.8789683 0.8931773 0.8789683 0.8150442 0.9574167 0.8150442 0.9574167 0.8150442 0.8785208 0.9704751 0.8016706 0.8931773 0.8016706 0.8931773 0.8016706 0.9704751 0.8789683 0.9704751 0.8789683 0.8931773 0.8789683 0.8931773 0.9562659 0.8931773 0.8789683 0.8931773 0.8789683 0.8150442 0.9574167 0.8150442 0.9574167 0.8150442 0.8785208 0.8931773 0.7243731 0.8931773 0.6470755 0.8931773 0.6470755 0.8158798 0.7243731 0.8158798 0.7243731 0.8158798 0.6470755 0.8931773 0.7243731 0.8931773 0.8016706 0.8158798 0.8016706 0.8931773 0.8016706 0.8931773 0.8789683 0.8158798 0.8789683 0.8158798 0.8016706 0.8158798 0.8789683 0.7385823 0.8789683 0.8931773 0.9562659 0.8931773 0.9562659 0.8158798 0.9562659 0.8158798 0.7243731 0.8931773 0.7243731 0.8931773 0.7243731 0.8931773 0.8789683 0.9704751 0.8789683 0.9704751 0.8789683 0.8931773 0.7243731 0.8931773 0.6470755 0.8931773 0.6470755 0.8158798 0.7243731 0.8158798 0.7243731 0.8158798 0.6470755 0.1232153 0.6268212 0.2074517 0.6268212 0.2074517 0.7110576 0.1232153 0.7110576 0.2074517 0.7110576 0.2074517 0.7110576 0.2074517 0.9637668 0.2074517 0.9637668 0.1232153 0.9637668 0.2074517 0.8795304 0.2074517 0.9637668 0.1232153 0.9637668 0.2074517 0.7952939 0.2074517 0.7952939 0.2916882 0.7952939 0.2916882 0.7952939 0.2916882 0.8795304 0.2074517 0.8795304 0.2074517 0.9637668 0.2074517 0.8795304 0.2074517 0.8795304 0.1232153 0.9637668 0.1232153 0.9637668 0.1232153 0.8795304 0.2074517 0.7952939 0.2074517 0.7952939 0.2916882 0.7952939 0.2074517 0.8795304 0.2916882 0.8795304 0.2916882 0.8795304 0.2074517 0.9637668 0.2074517 0.8795304 0.2074517 0.8795304 0.1232153 0.9637668 0.1232153 0.9637668 0.1232153 0.8795304 0.2074517 0.7110576 0.2074517 0.6268212 0.2074517 0.6268212 0.1232153 0.7110576 0.1232153 0.7110576 0.1232153 0.6268212 0.2074517 0.7110576 0.2074517 0.7952939 0.1232153 0.7952939 0.2074517 0.7952939 0.2074517 0.8795304 0.1232153 0.8795304 0.03897887 0.7952939 0.1232153 0.7952939 0.1232153 0.8795304 0.2074517 0.9637668 0.2074517 0.9637668 0.1232153 0.9637668 0.1232153 0.7110576 0.2074517 0.7110576 0.2074517 0.7110576 0.2916882 0.8795304 0.2916882 0.8795304 0.2074517 0.8795304 0.2074517 0.7110576 0.2074517 0.6268212 0.2074517 0.6268212 0.1232153 0.7110576 0.1232153 0.7110576 0.1232153 0.6268212 0.7537022 0.1597726 0.7537022 0.2347727 0.6787022 0.2347727 0.7537022 0.2347727 0.7537022 0.2347727 0.6787022 0.2347727 0.6787022 0.4597727 0.7537022 0.4597727 0.7537022 0.4597727 0.6787022 0.3847727 0.7537022 0.3847727 0.7537022 0.4597727 0.7537022 0.3097727 0.7537022 0.3097727 0.8287022 0.3097727 0.8287022 0.3097727 0.8287022 0.3847727 0.7537022 0.3847727 0.7537022 0.4597727 0.7537022 0.3847727 0.7537022 0.3847727 0.6787022 0.4597727 0.6787022 0.4597727 0.6787022 0.3847727 0.8287022 0.3097727 0.7537022 0.3097727 0.7537022 0.3097727 0.7537022 0.3847727 0.8287022 0.3847727 0.8287022 0.3847727 0.7537022 0.4597727 0.7537022 0.3847727 0.7537022 0.3847727 0.6787022 0.4597727 0.6787022 0.4597727 0.6787022 0.3847727 0.7537022 0.2347727 0.7537022 0.1597726 0.7537022 0.1597726 0.6787022 0.2347727 0.6787022 0.2347727 0.6787022 0.1597726 0.7537022 0.2347727 0.7537022 0.3097727 0.6787022 0.3097727 0.7537022 0.3097727 0.7537022 0.3847727 0.6787022 0.3847727 0.6037022 0.3097727 0.6787022 0.3097727 0.6787022 0.3847727 0.6787022 0.4597727 0.7537022 0.4597727 0.7537022 0.4597727 0.7537022 0.2347727 0.7537022 0.2347727 0.6787022 0.2347727 0.8287022 0.3847727 0.8287022 0.3847727 0.7537022 0.3847727 0.7537022 0.2347727 0.7537022 0.1597726 0.7537022 0.1597726 0.6787022 0.2347727 0.6787022 0.2347727 0.6787022 0.1597726 0.5221601 0.03732049 0.5221601 0.101327 0.4581536 0.101327 0.5221601 0.101327 0.5221601 0.101327 0.4581536 0.101327 0.4581536 0.2933465 0.5221601 0.2933465 0.5221601 0.2933465 0.4581536 0.22934 0.5221601 0.22934 0.5221601 0.2933465 0.5221601 0.1653335 0.5221601 0.1653335 0.5861666 0.1653335 0.5861666 0.1653335 0.5861666 0.22934 0.5221601 0.22934 0.5221601 0.22934 0.5221601 0.22934 0.5221601 0.2933465 0.4581536 0.2933465 0.4581536 0.2933465 0.4581536 0.22934 0.5861666 0.1653335 0.5221601 0.1653335 0.5221601 0.1653335 0.5221601 0.22934 0.5861666 0.22934 0.5861666 0.22934 0.5221601 0.2933465 0.5221601 0.22934 0.5221601 0.22934 0.4581536 0.2933465 0.4581536 0.2933465 0.4581536 0.22934 0.5221601 0.101327 0.5221601 0.03732049 0.5221601 0.03732049 0.4581536 0.101327 0.4581536 0.101327 0.4581536 0.03732049 0.5221601 0.101327 0.5221601 0.1653335 0.4581536 0.1653335 0.5221601 0.1653335 0.5221601 0.22934 0.4581536 0.22934 0.4581536 0.1653335 0.4581536 0.22934 0.3941471 0.22934 0.4581536 0.2933465 0.5221601 0.2933465 0.5221601 0.2933465 0.5221601 0.101327 0.5221601 0.101327 0.4581536 0.101327 0.5861666 0.22934 0.5861666 0.22934 0.5221601 0.22934 0.5221601 0.101327 0.5221601 0.03732049 0.5221601 0.03732049 0.4581536 0.03732049 0.4581536 0.101327 0.4581536 0.101327 0.2091808 0.06376767 0.2091808 0.1711485 0.1017999 0.1711485 0.2091808 0.1711485 0.2091808 0.1711485 0.1017999 0.1711485 0.1017999 0.4932913 0.2091808 0.4932913 0.2091808 0.4932913 0.1017999 0.3859105 0.2091808 0.3859105 0.2091808 0.4932913 0.3165618 0.2785295 0.2091808 0.2785295 0.2091808 0.2785295 0.2091808 0.2785295 0.3165618 0.2785295 0.3165618 0.3859105 0.2091808 0.4932913 0.2091808 0.3859105 0.2091808 0.3859105 0.1017999 0.4932913 0.1017999 0.4932913 0.1017999 0.3859105 0.3165618 0.2785295 0.2091808 0.2785295 0.2091808 0.2785295 0.2091808 0.3859105 0.3165618 0.3859105 0.3165618 0.3859105 0.2091808 0.4932913 0.2091808 0.3859105 0.2091808 0.3859105 0.1017999 0.4932913 0.1017999 0.4932913 0.1017999 0.3859105 0.2091808 0.1711485 0.2091808 0.06376767 0.2091808 0.06376767 0.1017999 0.1711485 0.1017999 0.1711485 0.1017999 0.06376767 0.2091808 0.1711485 0.2091808 0.2785295 0.1017999 0.2785295 0.2091808 0.2785295 0.2091808 0.3859105 0.1017999 0.3859105 0.1017999 0.2785295 0.1017999 0.3859105 -0.005580961 0.3859105 0.1017999 0.4932913 0.2091808 0.4932913 0.2091808 0.4932913 0.2091808 0.1711485 0.2091808 0.1711485 0.1017999 0.1711485 0.3165618 0.3859105 0.3165618 0.3859105 0.2091808 0.3859105 0.2091808 0.1711485 0.2091808 0.06376767 0.2091808 0.06376767 0.1017999 0.1711485 0.1017999 0.1711485 0.1017999 0.06376767 0.4361095 0.6233987 0.524518 0.6233987 0.524518 0.7118071 0.4361095 0.7118071 0.524518 0.7118071 0.524518 0.7118071 0.524518 0.9770324 0.524518 0.9770324 0.4361095 0.9770324 0.524518 0.888624 0.524518 0.9770324 0.4361095 0.9770324 0.524518 0.8002156 0.524518 0.8002156 0.6129264 0.8002156 0.524518 0.8002156 0.6129264 0.8002156 0.6129264 0.888624 0.524518 0.9770324 0.524518 0.888624 0.524518 0.888624 0.4361095 0.888624 0.4361095 0.9770324 0.4361095 0.9770324 0.6129264 0.8002156 0.524518 0.8002156 0.524518 0.8002156 0.524518 0.888624 0.6129264 0.888624 0.6129264 0.888624 0.524518 0.9770324 0.524518 0.888624 0.524518 0.888624 0.4361095 0.9770324 0.4361095 0.9770324 0.4361095 0.888624 0.524518 0.7118071 0.524518 0.6233987 0.524518 0.6233987 0.4361095 0.7118071 0.4361095 0.7118071 0.4361095 0.6233987 0.4361095 0.7118071 0.524518 0.7118071 0.524518 0.8002156 0.4361095 0.8002156 0.524518 0.8002156 0.524518 0.888624 0.4361095 0.8002156 0.4361095 0.888624 0.3477011 0.888624 0.524518 0.9770324 0.524518 0.9770324 0.4361095 0.9770324 0.4361095 0.7118071 0.524518 0.7118071 0.524518 0.7118071 0.6129264 0.888624 0.6129264 0.888624 0.524518 0.888624 0.524518 0.6233987 0.524518 0.6233987 0.524518 0.7118071 0.4361095 0.7118071 0.4361095 0.7118071 0.4361095 0.6233987</float_array>
          <technique_common>
            <accessor source="#Cube_005-mesh-map-0-array" count="792" stride="2">
              <param name="S" type="float"/>
              <param name="T" type="float"/>
            </accessor>
          </technique_common>
        </source>
        <vertices id="Cube_005-mesh-vertices">
          <input semantic="POSITION" source="#Cube_005-mesh-positions"/>
        </vertices>
        <triangles material="Material-material" count="264">
          <input semantic="VERTEX" source="#Cube_005-mesh-vertices" offset="0"/>
          <input semantic="NORMAL" source="#Cube_005-mesh-normals" offset="1"/>
          <input semantic="TEXCOORD" source="#Cube_005-mesh-map-0" offset="2" set="0"/>
          <p>4 0 0 2 0 1 0 0 2 6 1 3 13 1 4 2 1 5 3 2 6 9 2 7 7 2 8 5 3 9 3 3 10 7 3 11 5 4 12 15 4 13 4 4 14 5 5 15 0 5 16 1 5 17 14 6 18 19 6 19 22 6 20 9 7 21 16 7 22 8 7 23 15 8 24 16 8 25 23 8 26 0 9 27 11 9 28 1 9 29 3 10 30 11 10 31 14 10 32 7 11 33 8 11 34 5 11 35 6 12 36 15 12 37 12 12 38 2 13 39 10 13 40 0 13 41 21 14 42 17 14 43 22 14 44 20 15 45 16 15 46 17 15 47 18 16 48 22 16 49 19 16 50 14 17 51 17 17 52 9 17 53 13 18 54 20 18 55 21 18 56 11 19 57 18 19 58 19 19 59 12 20 60 23 20 61 20 20 62 13 21 63 18 21 64 10 21 65 24 22 66 30 22 67 26 22 68 26 23 69 36 23 70 37 23 71 27 24 72 33 24 73 31 24 74 25 25 75 31 25 76 29 25 77 29 26 78 39 26 79 28 26 80 28 27 81 25 27 82 29 27 83 38 28 84 43 28 85 46 28 86 33 29 87 40 29 88 32 29 89 32 30 90 47 30 91 39 30 92 25 31 93 34 31 94 35 31 95 27 32 96 35 32 97 38 32 98 31 33 99 32 33 100 29 33 101 30 34 102 39 34 103 36 34 104 26 35 105 34 35 106 24 35 107 45 36 108 41 36 109 46 36 110 44 37 111 40 37 112 41 37 113 43 38 114 45 38 115 46 38 116 38 39 117 41 39 118 33 39 119 37 40 120 44 40 121 45 40 122 34 41 123 43 41 124 35 41 125 36 42 126 47 42 127 44 42 128 37 43 129 42 43 130 34 43 131 52 44 132 50 44 133 48 44 134 54 45 135 61 45 136 50 45 137 55 46 138 62 46 139 57 46 140 53 47 141 51 47 142 55 47 143 53 48 144 63 48 145 52 48 146 52 49 147 49 49 148 53 49 149 62 50 150 67 50 151 70 50 152 57 51 153 64 51 154 56 51 155 63 52 156 64 52 157 71 52 158 49 53 159 58 53 160 59 53 161 51 54 162 59 54 163 62 54 164 55 55 165 56 55 166 53 55 167 54 56 168 63 56 169 60 56 170 50 57 171 58 57 172 48 57 173 69 58 174 65 58 175 70 58 176 68 59 177 64 59 178 65 59 179 67 60 180 69 60 181 70 60 182 57 61 183 70 61 184 65 61 185 60 62 186 69 62 187 61 62 188 58 63 189 67 63 190 59 63 191 60 64 192 71 64 193 68 64 194 61 65 195 66 65 196 58 65 197 76 66 198 74 66 199 72 66 200 78 67 201 85 67 202 74 67 203 79 68 204 86 68 205 81 68 206 77 69 207 75 69 208 79 69 209 77 70 210 87 70 211 76 70 212 76 71 213 73 71 214 77 71 215 83 72 216 94 72 217 86 72 218 81 73 219 88 73 220 80 73 221 87 74 222 88 74 223 95 74 224 73 75 225 82 75 226 83 75 227 75 76 228 83 76 229 86 76 230 79 77 231 80 77 232 77 77 233 78 78 234 87 78 235 84 78 236 74 79 237 82 79 238 72 79 239 93 80 240 89 80 241 94 80 242 92 81 243 88 81 244 89 81 245 90 82 246 94 82 247 91 82 248 81 83 249 94 83 250 89 83 251 84 84 252 93 84 253 85 84 254 82 85 255 91 85 256 83 85 257 84 86 258 95 86 259 92 86 260 82 87 261 93 87 262 90 87 263 100 88 264 98 88 265 96 88 266 102 89 267 109 89 268 98 89 269 103 90 270 110 90 271 105 90 272 101 91 273 99 91 274 103 91 275 100 92 276 104 92 277 111 92 278 101 93 279 96 93 280 97 93 281 110 94 282 115 94 283 118 94 284 105 95 285 112 95 286 104 95 287 111 96 288 112 96 289 119 96 290 97 97 291 106 97 292 107 97 293 99 98 294 107 98 295 110 98 296 103 99 297 104 99 298 101 99 299 102 100 300 111 100 301 108 100 302 98 101 303 106 101 304 96 101 305 117 102 306 113 102 307 118 102 308 116 103 309 112 103 310 113 103 311 114 104 312 118 104 313 115 104 314 105 105 315 118 105 316 113 105 317 108 106 318 117 106 319 109 106 320 106 107 321 115 107 322 107 107 323 108 108 324 119 108 325 116 108 326 109 109 327 114 109 328 106 109 329 120 110 330 126 110 331 122 110 332 122 111 333 132 111 334 133 111 335 123 112 336 129 112 337 127 112 338 121 113 339 127 113 340 125 113 341 125 114 342 135 114 343 124 114 344 125 115 345 120 115 346 121 115 347 134 116 348 139 116 349 142 116 350 128 117 351 137 117 352 136 117 353 135 118 354 136 118 355 143 118 356 121 119 357 130 119 358 131 119 359 123 120 360 131 120 361 134 120 362 127 121 363 128 121 364 125 121 365 126 122 366 135 122 367 132 122 368 122 123 369 130 123 370 120 123 371 142 124 372 140 124 373 137 124 374 137 125 375 143 125 376 136 125 377 138 126 378 142 126 379 139 126 380 134 127 381 137 127 382 129 127 383 133 128 384 140 128 385 141 128 386 130 129 387 139 129 388 131 129 389 135 130 390 140 130 391 132 130 392 133 131 393 138 131 394 130 131 395 4 0 396 6 0 397 2 0 398 6 132 399 12 132 400 13 132 401 3 133 402 14 133 403 9 133 404 5 134 405 1 134 406 3 134 407 5 135 408 8 135 409 15 135 410 5 136 411 4 136 412 0 136 413 14 137 414 11 137 415 19 137 416 9 138 417 17 138 418 16 138 419 15 139 420 8 139 421 16 139 422 0 140 423 10 140 424 11 140 425 3 141 426 1 141 427 11 141 428 7 142 429 9 142 430 8 142 431 6 143 432 4 143 433 15 143 434 2 144 435 13 144 436 10 144 437 21 145 438 20 145 439 17 145 440 20 146 441 23 146 442 16 146 443 18 147 444 21 147 445 22 147 446 14 148 447 22 148 448 17 148 449 13 149 450 12 149 451 20 149 452 11 150 453 10 150 454 18 150 455 12 151 456 15 151 457 23 151 458 13 152 459 21 152 460 18 152 461 24 153 462 28 153 463 30 153 464 26 154 465 30 154 466 36 154 467 27 155 468 38 155 469 33 155 470 25 156 471 27 156 472 31 156 473 29 157 474 32 157 475 39 157 476 28 158 477 24 158 478 25 158 479 38 159 480 35 159 481 43 159 482 33 160 483 41 160 484 40 160 485 32 161 486 40 161 487 47 161 488 25 162 489 24 162 490 34 162 491 27 163 492 25 163 493 35 163 494 31 164 495 33 164 496 32 164 497 30 165 498 28 165 499 39 165 500 26 166 501 37 166 502 34 166 503 45 167 504 44 167 505 41 167 506 44 168 507 47 168 508 40 168 509 43 169 510 42 169 511 45 169 512 38 170 513 46 170 514 41 170 515 37 171 516 36 171 517 44 171 518 34 172 519 42 172 520 43 172 521 36 173 522 39 173 523 47 173 524 37 174 525 45 174 526 42 174 527 52 175 528 54 175 529 50 175 530 54 176 531 60 176 532 61 176 533 55 177 534 51 177 535 62 177 536 53 178 537 49 178 538 51 178 539 53 179 540 56 179 541 63 179 542 52 180 543 48 180 544 49 180 545 62 181 546 59 181 547 67 181 548 57 182 549 65 182 550 64 182 551 63 183 552 56 183 553 64 183 554 49 184 555 48 184 556 58 184 557 51 185 558 49 185 559 59 185 560 55 186 561 57 186 562 56 186 563 54 187 564 52 187 565 63 187 566 50 188 567 61 188 568 58 188 569 69 189 570 68 189 571 65 189 572 68 190 573 71 190 574 64 190 575 67 191 576 66 191 577 69 191 578 57 192 579 62 192 580 70 192 581 60 193 582 68 193 583 69 193 584 58 194 585 66 194 586 67 194 587 60 195 588 63 195 589 71 195 590 61 196 591 69 196 592 66 196 593 76 197 594 78 197 595 74 197 596 78 198 597 84 198 598 85 198 599 79 199 600 75 199 601 86 199 602 77 200 603 73 200 604 75 200 605 77 201 606 80 201 607 87 201 608 76 202 609 72 202 610 73 202 611 83 203 612 91 203 613 94 203 614 81 204 615 89 204 616 88 204 617 87 205 618 80 205 619 88 205 620 73 206 621 72 206 622 82 206 623 75 207 624 73 207 625 83 207 626 79 208 627 81 208 628 80 208 629 78 209 630 76 209 631 87 209 632 74 210 633 85 210 634 82 210 635 93 211 636 92 211 637 89 211 638 92 212 639 95 212 640 88 212 641 90 213 642 93 213 643 94 213 644 81 214 645 86 214 646 94 214 647 84 215 648 92 215 649 93 215 650 82 216 651 90 216 652 91 216 653 84 217 654 87 217 655 95 217 656 82 218 657 85 218 658 93 218 659 100 219 660 102 219 661 98 219 662 102 220 663 108 220 664 109 220 665 103 221 666 99 221 667 110 221 668 101 222 669 97 222 670 99 222 671 100 223 672 101 223 673 104 223 674 101 93 675 100 93 676 96 93 677 110 224 678 107 224 679 115 224 680 105 225 681 113 225 682 112 225 683 111 226 684 104 226 685 112 226 686 97 227 687 96 227 688 106 227 689 99 228 690 97 228 691 107 228 692 103 229 693 105 229 694 104 229 695 102 230 696 100 230 697 111 230 698 98 231 699 109 231 700 106 231 701 117 232 702 116 232 703 113 232 704 116 233 705 119 233 706 112 233 707 114 234 708 117 234 709 118 234 710 105 235 711 110 235 712 118 235 713 108 236 714 116 236 715 117 236 716 106 237 717 114 237 718 115 237 719 108 238 720 111 238 721 119 238 722 109 239 723 117 239 724 114 239 725 120 240 726 124 240 727 126 240 728 122 241 729 126 241 730 132 241 731 123 242 732 134 242 733 129 242 734 121 243 735 123 243 736 127 243 737 125 244 738 128 244 739 135 244 740 125 245 741 124 245 742 120 245 743 134 246 744 131 246 745 139 246 746 128 247 747 129 247 748 137 247 749 135 248 750 128 248 751 136 248 752 121 249 753 120 249 754 130 249 755 123 250 756 121 250 757 131 250 758 127 251 759 129 251 760 128 251 761 126 252 762 124 252 763 135 252 764 122 253 765 133 253 766 130 253 767 142 254 768 141 254 769 140 254 770 137 255 771 140 255 772 143 255 773 138 256 774 141 256 775 142 256 776 134 257 777 142 257 778 137 257 779 133 258 780 132 258 781 140 258 782 130 259 783 138 259 784 139 259 785 135 260 786 143 260 787 140 260 788 133 261 789 141 261 790 138 261 791</p>
        </triangles>
      </mesh>
    </geometry>
  </library_geometries>
  <library_visual_scenes>
    <visual_scene id="Scene" name="Scene">
      <node id="Cube_005" name="Cube.005" type="NODE">
        <matrix sid="transform">0.2448561 -0.05238643 0 3.473335 0.01284477 0.9986269 0 -0.06868014 0 0 1.492129 1.4883 0 0 0 1</matrix>
        <instance_geometry url="#Cube_005-mesh" name="Cube.005">
          <bind_material>
            <technique_common>
              <instance_material symbol="Material-material" target="#Material-material">
                <bind_vertex_input semantic="UVMap" input_semantic="TEXCOORD" input_set="0"/>
              </instance_material>
            </technique_common>
          </bind_material>
        </instance_geometry>
      </node>
    </visual_scene>
  </library_visual_scenes>
  <scene>
    <instance_visual_scene url="#Scene"/>
  </scene>
</COLLADA>