[gd_scene load_steps=4 format=2]

[ext_resource path="res://assets/FPS_Template/KinematicBody.gd" type="Script" id=1]
[ext_resource path="res://assets/FPS_Template/Camera.gd" type="Script" id=2]

[sub_resource type="CapsuleShape" id=1]

[node name="FirstPersonController" type="Spatial"]

[node name="Player" type="KinematicBody" parent="."]
script = ExtResource( 1 )
Sensitivity_Y = 0.05
Maximum_Y_Look = 90

[node name="Camera" type="Camera" parent="Player"]
transform = Transform( 1, 0, 0, 0, 1, 0, 0, 0, 1, 0, 0.435676, 0 )
script = ExtResource( 2 )

[node name="CollisionShape" type="CollisionShape" parent="Player"]
transform = Transform( 0.2, 0, 0, 0, -8.74228e-09, -0.4, 0, 0.2, -1.74846e-08, 0, 0, 0 )
shape = SubResource( 1 )
