[gd_resource type="ShaderMaterial" load_steps=3 format=2]

[sub_resource type="VisualShaderNodeScalarConstant" id=1]
constant = 1.0

[sub_resource type="VisualShader" id=2]
code = "shader_type spatial;



void vertex() {
// Output:0

}

void fragment() {
// Scalar:2
	float n_out2p0;
	n_out2p0 = 1.000000;

// Output:0
	ROUGHNESS = n_out2p0;

}

void light() {
// Output:0

}
"
graph_offset = Vector2( -271, 103 )
nodes/fragment/2/node = SubResource( 1 )
nodes/fragment/2/position = Vector2( 140, 240 )
nodes/fragment/connections = PoolIntArray( 2, 0, 0, 3 )

[resource]
shader = SubResource( 2 )
